Round,Number,Machine,Finished,Task,K,N,M,R,Noise_Angle,Noise_Thrust,Wind,ModelWind,CovarianceVariable,NegativeThrust
1,1,1,1,Goal,100,30,150,0.001,0.1,10,TRUE,FALSE,FALSE,TRUE
1,2,1,1,Goal,100,30,150,0.001,0.5,10,TRUE,FALSE,FALSE,TRUE
1,3,1,1,Goal,100,30,150,0.001,1,10,TRUE,FALSE,FALSE,TRUE
1,4,1,1,Goal,100,30,150,0.001,2,10,TRUE,FALSE,FALSE,TRUE
1,5,1,1,Goal,100,30,150,0.001,5,10,TRUE,FALSE,FALSE,TRUE
1,6,1,1,Goal,100,30,150,0.001,10,10,TRUE,FALSE,FALSE,TRUE
1,7,1,1,Goal,100,30,150,0.001,0.5,1,TRUE,FALSE,FALSE,TRUE
1,8,1,1,Goal,100,30,150,0.001,0.5,5,TRUE,FALSE,FALSE,TRUE
1,9,1,1,Goal,100,30,150,0.001,0.5,10,TRUE,FALSE,FALSE,TRUE
1,10,1,1,Goal,100,30,150,0.001,0.5,40,TRUE,FALSE,FALSE,TRUE
1,11,1,1,Goal,100,30,150,0.001,0.5,80,TRUE,FALSE,FALSE,TRUE
1,12,1,1,Goal,100,30,150,0.001,0.5,160,TRUE,FALSE,FALSE,TRUE
1,13,1,1,Goal,100,30,150,0.001,0.5,320,TRUE,FALSE,FALSE,TRUE
1,14,2,1,Ring,100,5,200,0.001,1,10,TRUE,FALSE,FALSE,TRUE
1,15,2,1,Ring,100,10,200,0.001,1,10,TRUE,FALSE,FALSE,TRUE
1,16,2,1,Ring,100,30,200,0.001,1,10,TRUE,FALSE,FALSE,TRUE
1,17,2,1,Ring,100,50,200,0.001,1,10,TRUE,FALSE,FALSE,TRUE
1,18,2,1,Ring,100,80,200,0.001,1,10,TRUE,FALSE,FALSE,TRUE
1,19,2,1,Ring,100,100,200,0.001,1,10,TRUE,FALSE,FALSE,TRUE
1,20,3,1,Path,100,5,200,0.001,1,10,TRUE,FALSE,FALSE,TRUE
1,21,3,1,Path,100,10,200,0.001,1,10,TRUE,FALSE,FALSE,TRUE
1,22,3,1,Path,100,30,200,0.001,1,10,TRUE,FALSE,FALSE,TRUE
1,23,3,1,Path,100,50,200,0.001,1,10,TRUE,FALSE,FALSE,TRUE
1,24,3,1,Path,100,80,200,0.001,1,10,TRUE,FALSE,FALSE,TRUE
1,25,3,1,Path,100,100,200,0.001,1,10,TRUE,FALSE,FALSE,TRUE
2,26,4,1,Goal,100,30,150,0.001,0.5,10,TRUE,TRUE,FALSE,TRUE
2,27,4,1,Goal,100,30,150,0.001,1,10,TRUE,TRUE,FALSE,TRUE
2,28,4,1,Goal,100,30,150,0.001,2,10,TRUE,TRUE,FALSE,TRUE
2,29,4,1,Goal,100,30,150,0.001,5,10,TRUE,TRUE,FALSE,TRUE
2,30,4,1,Goal,100,30,150,0.001,10,10,TRUE,TRUE,FALSE,TRUE
2,31,5,1,Goal,100,30,150,0.001,0.5,1,TRUE,TRUE,FALSE,TRUE
2,32,5,1,Goal,100,30,150,0.001,0.5,5,TRUE,TRUE,FALSE,TRUE
2,33,5,1,Goal,100,30,150,0.001,0.5,10,TRUE,TRUE,FALSE,TRUE
2,34,5,1,Goal,100,30,150,0.001,0.5,40,TRUE,TRUE,FALSE,TRUE
2,35,5,1,Goal,100,30,150,0.001,0.5,80,TRUE,TRUE,FALSE,TRUE
2,36,6,1,Goal,100,30,150,0.001,2,10,TRUE,FALSE,TRUE,TRUE
2,37,6,1,Goal,100,30,150,0.001,5,10,TRUE,FALSE,TRUE,TRUE
2,38,6,1,Goal,100,30,150,0.001,10,10,TRUE,FALSE,TRUE,TRUE
2,39,7,1,Goal,100,30,150,0.001,0.5,40,TRUE,FALSE,TRUE,TRUE
2,40,7,1,Goal,100,30,150,0.001,0.5,80,TRUE,FALSE,TRUE,TRUE
2,41,7,1,Goal,100,30,150,0.001,0.5,160,TRUE,FALSE,TRUE,TRUE
2,42,7,1,Goal,100,30,150,0.001,0.5,320,TRUE,FALSE,TRUE,TRUE
2,43,8,1,Ring,100,30,200,0.001,0.5,10,TRUE,FALSE,FALSE,FALSE
2,44,9,1,Ring,100,50,200,0.001,0.5,10,TRUE,FALSE,FALSE,FALSE
2,45,10,1,Ring,100,80,200,0.001,0.5,10,TRUE,FALSE,FALSE,FALSE
2,46,11,1,Ring,100,30,200,0.001,0.5,10,TRUE,FALSE,FALSE,FALSE
2,47,11,1,Ring,100,50,200,0.001,0.5,10,TRUE,FALSE,FALSE,FALSE
2,48,11,1,Ring,100,80,200,0.001,0.5,10,TRUE,FALSE,FALSE,FALSE
2,49,12,1,Ring,200,50,200,0.001,0.5,10,TRUE,FALSE,FALSE,FALSE
2,50,12,1,Ring,400,50,200,0.001,0.5,10,TRUE,FALSE,FALSE,FALSE
2,51,12,,Ring,800,50,200,0.001,0.5,10,TRUE,FALSE,FALSE,FALSE
2,52,13,1,Goal,100,30,150,0.001,0.5,10,TRUE,FALSE,FALSE,FALSE
2,53,14,1,Goal,100,30,150,0.0001,2,10,TRUE,FALSE,FALSE,FALSE
2,54,14,1,Goal,100,30,150,0.001,2,10,TRUE,FALSE,FALSE,FALSE
2,55,14,1,Goal,100,30,150,0.01,2,10,TRUE,FALSE,FALSE,FALSE
2,56,14,1,Goal,100,30,150,0.1,2,10,TRUE,FALSE,FALSE,FALSE
2,57,14,,Goal,100,30,150,1,2,10,TRUE,FALSE,FALSE,FALSE
2,58,15,1,Goal,100,30,150,0.0001,2,10,TRUE,FALSE,TRUE,FALSE
2,59,15,1,Goal,100,30,150,0.001,2,10,TRUE,FALSE,TRUE,FALSE
2,60,15,1,Goal,100,30,150,0.01,2,10,TRUE,FALSE,TRUE,FALSE
2,61,15,1,Goal,100,30,150,0.1,2,10,TRUE,FALSE,TRUE,FALSE
2,62,15,,Goal,100,30,150,1,2,10,TRUE,FALSE,TRUE,FALSE
2,63,16,1,Path,100,50,500,0.001,1,10,TRUE,FALSE,FALSE,FALSE
2,64,16,,Path,200,50,500,0.001,1,10,TRUE,FALSE,FALSE,FALSE
2,65,16,,Path,400,50,500,0.001,1,10,TRUE,FALSE,FALSE,FALSE
2,66,17,1,Path,100,50,500,0.001,1,10,TRUE,FALSE,FALSE,FALSE
2,67,17,1,Path,200,50,500,0.001,1,10,TRUE,FALSE,FALSE,FALSE
2,68,17,,Path,400,50,500,0.001,1,10,TRUE,FALSE,FALSE,FALSE
3,69,18,1,Goal,100,30,150,0.001,0.5,10,FALSE,FALSE,FALSE,FALSE
3,70,19,1,Goal,100,30,150,0.001,0.5,10,FALSE,FALSE,FALSE,TRUE
3,71,20,1,Goal,100,5,150,0.001,0.5,10,FALSE,FALSE,FALSE,TRUE
3,72,20,1,Goal,100,10,150,0.001,0.5,10,FALSE,FALSE,FALSE,TRUE
3,73,20,1,Goal,100,50,150,0.001,0.5,10,FALSE,FALSE,FALSE,TRUE
3,74,20,,Goal,100,80,150,0.001,0.5,10,FALSE,FALSE,FALSE,TRUE
3,75,20,,Goal,100,100,150,0.001,0.5,10,FALSE,FALSE,FALSE,TRUE
3,76,21,1,Ring,50,50,200,0.001,0.5,10,TRUE,FALSE,FALSE,FALSE
3,77,21,,Ring,25,50,200,0.001,0.5,10,TRUE,FALSE,FALSE,FALSE
3,78,21,,Ring,5,50,200,0.001,0.5,10,TRUE,FALSE,FALSE,FALSE
3,79,21,,Ring,50,50,200,0.001,0.5,10,TRUE,FALSE,FALSE,FALSE
3,80,21,,Ring,25,50,200,0.001,0.5,10,TRUE,FALSE,FALSE,FALSE
3,81,21,,Ring,5,50,200,0.001,0.5,10,TRUE,FALSE,FALSE,FALSE
3,82,22,1,Goal,100,5,150,0.001,0.5,10,TRUE,FALSE,FALSE,TRUE
3,83,22,1,Goal,100,10,150,0.001,0.5,10,TRUE,FALSE,FALSE,TRUE
3,84,22,,Goal,100,50,150,0.001,0.5,10,TRUE,FALSE,FALSE,TRUE
3,85,22,,Goal,100,80,150,0.001,0.5,10,TRUE,FALSE,FALSE,TRUE
3,86,22,,Goal,100,100,150,0.001,0.5,10,TRUE,FALSE,FALSE,TRUE
3,87,23,,Goal,50,30,150,0.001,0.5,10,TRUE,FALSE,FALSE,TRUE
3,88,23,,Goal,25,30,150,0.001,0.5,10,TRUE,FALSE,FALSE,TRUE
3,89,23,,Goal,5,30,150,0.001,0.5,10,TRUE,FALSE,FALSE,TRUE
3,90,23,,Goal,200,30,150,0.001,0.5,10,TRUE,FALSE,FALSE,TRUE
3,91,24,,Path,50,50,500,0.001,0.5,10,TRUE,FALSE,FALSE,FALSE
3,92,24,,Path,25,50,500,0.001,0.5,10,TRUE,FALSE,FALSE,FALSE
3,93,24,,Path,5,50,500,0.001,0.5,10,TRUE,FALSE,FALSE,FALSE
3,94,25,,Goal,100,30,150,0.001,0.5,10,TRUE,FALSE,FALSE,TRUE
3,95,26,,Path,50,50,300,0.001,1,10,TRUE,FALSE,FALSE,FALSE
3,96,26,,Path,50,50,300,0.001,1,10,TRUE,FALSE,FALSE,FALSE
3,97,26,,Path,50,50,300,0.001,1,10,TRUE,FALSE,FALSE,FALSE
3,98,27,,Path,50,50,300,0.001,1,10,FALSE,TRUE,FALSE,FALSE
3,99,27,,Path,50,50,300,0.001,1,10,TRUE,FALSE,FALSE,FALSE
3,100,28,,Path,50,50,300,0.001,1,10,TRUE,FALSE,FALSE,FALSE
3,101,29,,Path,50,50,300,0.001,1,10,TRUE,FALSE,FALSE,FALSE
3,102,30,,Path,50,50,300,0.001,1,10,TRUE,FALSE,FALSE,FALSE
3,103,31,,Path,50,50,300,0.001,1,10,TRUE,FALSE,FALSE,FALSE
3,104,32,,Path,50,50,300,0.001,1,10,TRUE,FALSE,FALSE,FALSE
3,105,33,,Path,50,50,300,0.001,1,10,TRUE,FALSE,FALSE,FALSE
3,106,34,,Path,50,50,300,0.001,1,10,TRUE,FALSE,FALSE,FALSE
3,107,35,,Path,50,50,300,0.001,1,10,TRUE,FALSE,FALSE,FALSE
3,108,36,,Ring,50,50,200,0.001,0.5,10,TRUE,FALSE,FALSE,FALSE
3,109,37,,Ring,50,50,200,0.001,0.5,10,TRUE,FALSE,FALSE,FALSE
3,110,38,,Ring,50,50,200,0.001,0.5,10,FALSE,FALSE,FALSE,FALSE
3,111,39,,Ring,200,50,200,0.001,0.5,10,FALSE,FALSE,FALSE,FALSE
3,112,40,,Ring,100,50,200,0.001,0.5,10,FALSE,FALSE,FALSE,FALSE
3,113,41,,Ring,50,50,200,0.001,0.5,10,FALSE,FALSE,FALSE,FALSE
3,114,42,,Ring,25,50,200,0.001,0.5,10,FALSE,FALSE,FALSE,FALSE
3,115,42,,Ring,5,50,200,0.001,0.5,10,FALSE,FALSE,FALSE,FALSE
3,116,43,,Ring,200,50,200,0.001,0.5,10,FALSE,FALSE,FALSE,FALSE
3,117,44,,Ring,100,50,200,0.001,0.5,10,FALSE,FALSE,FALSE,FALSE
3,118,45,,Ring,50,50,200,0.001,0.5,10,FALSE,FALSE,FALSE,FALSE
3,119,46,,Ring,25,50,200,0.001,0.5,10,FALSE,FALSE,FALSE,FALSE
3,120,46,,Ring,5,50,200,0.001,0.5,10,FALSE,FALSE,FALSE,FALSE
3,121,47,,Ring,200,50,200,0.001,0.5,10,TRUE,TRUE,FALSE,FALSE
3,122,48,,Ring,100,50,200,0.001,0.5,10,TRUE,TRUE,FALSE,FALSE
3,123,49,,Ring,50,50,200,0.001,0.5,10,TRUE,TRUE,FALSE,FALSE
3,124,50,,Ring,25,50,200,0.001,0.5,10,TRUE,TRUE,FALSE,FALSE
3,125,50,,Ring,5,50,200,0.001,0.5,10,TRUE,TRUE,FALSE,FALSE
3,126,51,,Ring,200,50,200,0.001,0.5,10,TRUE,TRUE,FALSE,FALSE
3,127,52,,Ring,100,50,200,0.001,0.5,10,TRUE,TRUE,FALSE,FALSE
3,128,53,,Ring,50,50,200,0.001,0.5,10,TRUE,TRUE,FALSE,FALSE
3,129,54,,Ring,25,50,200,0.001,0.5,10,TRUE,TRUE,FALSE,FALSE
3,130,54,,Ring,5,50,200,0.001,0.5,10,TRUE,TRUE,FALSE,FALSE
