0,1,2,3,4,5,6,7,8,9,10,11
-1.5,-1.5,0.0,0.0,0.0,0.0,0.0,0.0,0.0,0.0,0.0,0.0
-1.5,-1.5,0.0,-0.04636610233320701,-2.3383134635488434e-07,0.9254661820168315,0.0,0.0,0.0,-8.761900782663169,8.761900782663108,-8.051526266693468e-16
-1.5009273220466637,-1.5000000046766269,0.01850932364033661,-0.0916162599891831,-8.154494290444984e-07,1.7335105281834107,-0.1752380156532629,0.17523801565326202,0.0,0.3949978998728412,-0.27662664214130217,-8.051526266693468e-16
-1.5027596472464477,-1.5000000209856152,0.05317953420400483,0.019018960769254467,0.15331621359016812,2.3963495413810927,-0.1671672791337908,0.16979021316060283,0.0009795575335367346,-7.4944561110809715,7.60690526273493,-1.3810853382026987e-15
-1.5023792680310628,-1.4969336967138118,0.10110652503162668,0.10818880009026277,0.28306138471011455,2.9637788459046317,-0.3213962942409898,0.3198075221013603,-0.02470399282308966,1.0583240365619222,-0.8514923008004853,-0.00016136865511244804
-1.5002154920292572,-1.4912724690196093,0.16038210194971936,0.27732883523110385,0.488583839221096,3.373421890551829,-0.29844923875456875,0.3036486653303463,-0.019040296145337532,-6.06682287410198,6.328120292982732,0.003949360389701758
-1.4946689153246353,-1.4815007922351875,0.22785053976075598,0.4132886576532936,0.658965780675765,3.7224717586470564,-0.4314226858645305,0.424639430841248,-0.05795948170528087,1.6853857116331596,-1.4466070221501415,0.00608045776681603
-1.4864031421715695,-1.4683214766216723,0.3022999749336971,0.5819389955657072,0.8574220005396547,3.9463034113684783,-0.3921947624812856,0.39840914420265294,-0.04456066417075144,-4.688034880220101,5.17144215567539,0.014080366913736174
-1.4747643622602553,-1.451173036610879,0.3812260431610667,0.715822919289533,1.019026144081485,4.132132687638641,-0.5024858359948388,0.49409251972284673,-0.08716993390459038,2.116467124183867,-1.931446207980457,0.017836181673371802
-1.4604479038744644,-1.4307925137292494,0.4638686969138395,0.8590888654019796,1.1850065450702199,4.227705437869735,-0.4499669790462697,0.4604103912008384,-0.0656836253166393,-3.4884749235445707,4.222907044678847,0.027655036462929987
-1.4432661265664248,-1.407092382827845,0.5484228056712341,0.9752872820184946,1.3230548143918535,4.309284929541293,-0.5377079964955804,0.5367022557757082,-0.10613125043477734,2.3147067927036,-2.273437203849797,0.03143437966451671
-1.423760380926055,-1.3806312865400077,0.6346085042620601,1.09426765274315,1.4595614538236594,4.333901562465005,-0.4772374680108018,0.4979718354496043,-0.07840533141641881,-2.5040509794813195,3.4679596061257767,0.040914671145787444
-1.4018750278711922,-1.3514400574635343,0.7212865355113602,1.1937130707234913,1.5776734321407622,4.360463309591881,-0.5442439143275042,0.5599571962782255,-0.11384051518697724,2.337158401545673,-2.499143347285396,0.043413761062621625
-1.3780007664567224,-1.319886588820719,0.8084958017031978,1.2877468956806473,1.685749032425277,4.337015061638849,-0.48081135429187505,0.5176454712621568,-0.08241927043722486,-1.7126312353481525,2.8590762862664736,0.051114028257321274
-1.3522458285431094,-1.2861716081722134,0.8952361029359748,1.365239806626748,1.7796475519818153,4.317139160394248,-0.5296074707165697,0.5688165569851495,-0.1118098314918261,2.2346906168368106,-2.6201917381255173,0.051677544189155114
-1.3249410324105746,-1.2505786571325772,0.9815788861438598,1.4380058571378673,1.8645480122397282,4.262598920814903,-0.4674185088310554,0.5241139068240179,-0.07932932269729731,-1.1065439861675115,2.3784368663061866,0.05693927712935757
-1.2961809152678172,-1.2132876968877828,1.066830864560158,1.4970414624955275,1.9392072473849244,4.213135734308352,-0.5013512000995672,0.5670932744493711,-0.10291190774614245,2.063084083809914,-2.6559185564617493,0.05551062452786548
-1.2662400860179064,-1.1745035519400842,1.151093579246325,1.551249583201742,2.0053721139785345,4.137111275821094,-0.44321050904416426,0.5210455510595375,-0.07149054476752559,-0.6485895006133369,1.995072181056833,0.058330622261221196
-1.2352150943538716,-1.1343961096605135,1.2338358047627471,1.5956782253276975,2.065885512825992,4.069693824744913,-0.4653985284213107,0.5575919904447804,-0.0900049402374008,1.8635148684692313,-2.6217295907618756,0.055256394095522014
-1.2033015298473175,-1.0930783994039937,1.3152296812576454,1.6329808929015928,2.1164853690766408,3.976736174283633,-0.4128380985377058,0.5112301539263573,-0.06110898907798479,-0.3030807364360051,1.6848516294488096,0.05601487467308528
-1.170641911989286,-1.0507486920224607,1.3947644047433179,1.6656022690091938,2.1660756587007675,3.897275302117304,-0.42590821359124176,0.5425456337940493,-0.07543396269874592,1.6619349436865782,-2.5302878838242293,0.05182003047201189
-1.1373298666091018,-1.0074271788484452,1.4727099107856638,1.6935991224947413,2.2082560859796136,3.7981792404193273,-0.37949536045223775,0.4968889849296869,-0.0499183676377668,-0.04291477500071883,1.43119444021184,0.05105306060806004
-1.103457884159207,-0.963262057128853,1.5486734955940502,1.7177331629603163,2.249951861524562,3.7114215336487164,-0.3855894644295432,0.5238545866068711,-0.060901973278657984,1.4850037983631657,-2.4095021188976533,0.04627802173124473
-1.0691032209000009,-0.9182630198983618,1.6229019262670246,1.7397512118366547,2.2872329849387096,3.6128183611451834,-0.3449235709092364,0.47955091513545645,-0.03898005056949172,0.15445336089221717,1.21946529334328,0.04452813361241695
-1.034308196663268,-0.8725183601995876,1.695158293489928,1.7593480977846239,2.3258787774039504,3.5305913692185094,-0.3456872308318486,0.5028048438237445,-0.04733047867346141,1.341131386296814,-2.2740209704749255,0.03961244133696175
-0.9991212347075755,-0.8260007846515086,1.765770120874298,1.775792378074556,2.3592311236818664,3.4341424002963956,-0.3099795452692957,0.460283366404723,-0.028892354616740334,0.31242447578757715,1.0354980222635328,0.03732393114076652
-0.9636053871460843,-0.7788161621778713,1.834452968880226,1.7899151200037462,2.3932776068386787,3.351470397512367,-0.3065107422247557,0.48023399140111867,-0.03515006275234667,1.2280166452993946,-2.129311478274406,0.032580661083350705
-0.9278070847460094,-0.7309506100410976,1.9014823768304734,1.8025490966494317,2.4236600090087,3.259055207956697,-0.2749332798082116,0.4398292261284369,-0.0199610338754721,0.43426046800634377,0.8792082739643376,0.030075926527485586
-0.8917561028130208,-0.6824774098609235,1.9666634809896075,1.8099253672290847,2.45253441903748,3.173601105093583,-0.268222058312817,0.45691629049999927,-0.024597148563195947,1.1425780577019622,-1.9835877470940189,0.025706727906779775
-0.855557595468439,-0.633426721480174,2.0301355030914796,1.8170627274982682,2.4787715052963586,3.0818746583110608,-0.23995809315019168,0.4187993091160771,-0.012329209785945316,0.5249459858869214,0.751392346199804,0.023213688778230386
-0.8192163409184736,-0.5838512913742467,2.0917729962577005,1.821956881954463,2.5051896720418028,3.00361561789738,-0.23084824515556068,0.4335069173958579,-0.01574498381977696,1.0759989164505712,-1.8350713683013185,0.019334417351069274
-0.7827772032793844,-0.5337474979334106,2.1518453086156475,1.8283707867609866,2.530203011337943,2.9247156284984186,-0.20526709827894996,0.3978675567173635,-0.006076821689276812,0.5969768160995678,0.6383715341741034,0.01700553274960983
-0.7462097875441647,-0.48314343770665175,2.2103396211856157,1.8327419609179265,2.5545662170342327,2.857768871854648,-0.19428134862549573,0.4104362796283323,-0.008538503007304854,1.0308268790596706,-1.6980258403569972,0.013676898666905362
-0.7095549483258061,-0.4320521133659671,2.2674949986227086,1.8366906967792664,2.5760245027348536,2.7843623921311065,-0.17069497385894916,0.37716748297870506,-0.0010954775993043953,0.6545424327302737,0.5342626272945035,0.011601282280207407
-0.6728211343902207,-0.38053162331127005,2.323182246465331,1.8367227207512613,2.595504075266992,2.7172160379262653,-0.15823255738528097,0.38773685979368677,-0.002801835890704929,0.9957404717256881,-1.5679068277382577,0.008827993585154239
-0.6360866799751954,-0.32862154180593023,2.377526567223856,1.8354263873109513,2.6117975424505606,2.6412593956297092,-0.13622849569483053,0.35679829126827123,0.002723908779718176,0.6929827558469839,0.44839380459879496,0.007041899338719319
-0.5993781522289763,-0.276385590956919,2.43035175513645,1.8317469617593605,2.6267883811793875,2.576963458002588,-0.122770805775962,0.3657022089983051,0.001573056045089949,0.9633920706935714,-1.43807817730416,0.004800264450733695
-0.562743212993789,-0.22384982333333128,2.4818910242965018,1.8269391593038335,2.6389705423910534,2.5051396894105027,-0.10211772617410464,0.33716888717876037,0.005446708767087749,0.716542534804089,0.37731794688111364,0.003318949962291119
-0.5262044298077124,-0.1710704124855102,2.531993818084712,1.8188445625771525,2.6490680332913845,2.4400700803161306,-0.08803340137157889,0.3446827001658903,0.004701504903973586,0.9344145603403313,-1.3139442623241289,0.0015766556091696966
-0.4898275385561694,-0.1180890518196825,2.5807952196910344,1.8113313321978208,2.6571063116026186,2.3733368093710663,-0.06850435478227057,0.3185083506561339,0.007189697318011223,0.7265431844985564,0.32152371380664224,0.00040072158405647
-0.45360091191221297,-0.06494692558763013,2.6282619558784557,1.800644120135402,2.662872689904382,2.3118429342518856,-0.054115994342320395,0.3249242908114658,0.0067346338646459,0.9067242217119904,-1.1976704213540494,-0.0008857083740461618
-0.4175880295095049,-0.011689471789542466,2.674498814563494,1.7914464290597882,2.666947557766526,2.255680796713752,-0.03555101806063199,0.301004989941017,0.008083136058178564,0.7264388146649394,0.27500282376047336,-0.001769640365695489
-0.3817591009283091,0.041649479365788056,2.7196124304977687,1.7782920878296917,2.668291881211066,2.19954597919759,-0.021093910005036243,0.3065003131053543,0.007841405759922093,0.8792178200170071,-1.0913542335234756,-0.0026506653806801805
-0.3461932591717153,0.09501531699000937,2.7636033500817208,1.7650784052939514,2.667429768190382,2.14129266318167,-0.003380627906567568,0.2846769660936479,0.008268702688194907,0.7173955345047802,0.2368678803781945,-0.003267554581672019
-0.31089169106583625,0.14836391235381702,2.806429203345354,1.7482952130919729,2.664111752995588,2.086245968968001,0.010943473088159017,0.2894140757031449,0.008183924646670171,0.8482213498072159,-0.9881058403366539,-0.0037977715254747173
-0.27592578680399676,0.20164614741372877,2.848154122724714,1.7322721916900639,2.658868519669211,2.031514985162646,0.02782088648923864,0.2696539734358545,0.007879031776394374,0.7000253497874376,0.20941460982425752,-0.004179026149328534
-0.2412803429701955,0.254823517807113,2.8887844224279666,1.713300023620984,2.6513222799757385,1.9766242412014408,0.041830502821746496,0.273842969848483,0.00791322624909796,0.8146524326382455,-0.8908966456889986,-0.0044129842256995806
-0.20701434249777578,0.30784996340662774,2.9283169072519954,1.6949178930299338,2.641707176865527,1.9186545668400774,0.05788947809947542,0.25604431436114883,0.007047676550949955,0.6764514912456105,0.1880775669164434,-0.004593008292142041
-0.1731159846371771,0.36068410694393827,2.966689998588797,1.6740780798708514,2.629667404884752,1.8644639834859065,0.07145147422879727,0.25980487938711594,0.007177846530794785,0.7780185048509495,-0.8001508739065906,-0.004584609760244932
-0.13963442303976004,0.4132774550416333,3.003979278258515,1.653785599354371,2.6158839577839657,1.8086743791076159,0.08668385155328995,0.24384924070978986,0.005901073441517024,0.6466737571433485,0.17173779907253728,-0.004599793260209892
-0.10655871105267262,0.4655951341973126,3.0401527658406673,1.6315024100013356,2.599690686737609,1.7540831503999805,0.09966850858006371,0.24727906480946205,0.006113059577560254,0.7385404970267199,-0.7161316684146318,-0.0044007801158490205
-0.0739286628526459,0.5175889479320648,3.075234428848667,1.6103120443480143,2.5814231402799135,1.7006366393472263,0.11405743599339146,0.23303626960833146,0.004552869694237405,0.6121808587981594,0.15914752077854843,-0.004287358674976575
-0.04172242196568562,0.569217410737663,3.109247161635611,1.586893096178657,2.5609208970776067,1.649930639086529,0.12636681350639378,0.2362082977122557,0.004837629339534466,0.6951701325747203,-0.640425055682155,-0.003945795126045153
-0.009984560042112456,0.6204358286792151,3.1422457744173418,1.56324840624733,2.538927896320691,1.5960274880978045,0.13986281615739538,0.22351187314812204,0.0030967368829100117,0.5729980904965153,0.14953764702060846,-0.00373810587488031
0.02128040808283415,0.6712143866056288,3.1741663241792977,1.5379960186378554,2.5144280997842476,1.5466808067408053,0.15140072264890803,0.22648384415756295,0.003448384742604116,0.6498466053924586,-0.5678122290149019,-0.0032965073775074417
0.05204032845559127,0.7215029486013139,3.205099940314114,1.5128007881855987,2.488710826363047,1.494885258357739,0.16398794646483283,0.21526744986337265,0.0016238306399185554,0.5302615420511523,0.14463851714899612,-0.0030252715695420498
0.08229634421930324,0.7712771651285748,3.234997645481269,1.4860123638573337,2.461232188070782,1.4433945574759461,0.17468338632875557,0.218131288787502,0.0020461402998916967,0.6023397531705569,-0.5000502298980556,-0.002522523728807004
0.11201659149644991,0.8205018088899904,3.263865536630788,1.4597652580862845,2.432556813364482,1.3913589242093485,0.18633389646240195,0.20829125144064609,0.00021492622806329464,0.4867416356609559,0.1434592316225658,-0.0022173481155543695
0.1412118966581756,0.8691529451572799,3.291692715114975,1.4317454280991222,2.4017394554165117,1.342135489394302,0.19617186251761742,0.21111898612513968,0.0007136647853300815,0.5544038790750336,-0.437595380172329,-0.0016882046018418455
0.16984680522015805,0.9171877342656102,3.318535424902861,1.4040015128130174,2.3695561137285264,1.2930719485614595,0.2068872497695664,0.20254152190113306,-0.0010648267892370278,0.4412809131084429,0.14511778153867716,-0.0013759444181894462
0.1979268354764184,0.9645788565401807,3.34439686387409,1.3749888683387832,2.3355216611861085,1.245892716406706,0.21582976852403624,0.20538763774911617,-0.00048369358448985267,0.504302930605001,-0.3784186983171548,-0.0008502054142760315
0.22542661284319407,1.011289289763903,3.369314718202224,1.347343463992408,2.300466317629117,1.1982347685902979,0.22557470755194053,0.19799849897447475,-0.0021562856967314303,0.3941523421765556,0.14894285320144235,-0.0005540563194906226
0.2523734821230422,1.0572986161164852,3.39327941357403,1.3186168778510041,2.264163425278346,1.1504832172344541,0.23358925951787546,0.200904367332277,-0.0014877538099691279,0.4535707080374173,-0.3259490654289849,-5.77719105089706e-05
0.2787458196800623,1.102581884622052,3.4162890779187185,1.2905203967860515,2.22721110895798,1.1005447850248828,0.24235314370998529,0.19456269691674288,-0.003028827999940642,0.3476654468048134,0.15176680942622317,0.0002020241666799908
0.3045562276157833,1.1471261068012115,3.438299973619216,1.2620416130409684,2.188694679668425,1.051898438901911,0.24945076931205312,0.1975083585850581,-0.0022823785785011097,0.40441220527955857,-0.27765491262202924,0.0006495454746127581
0.3297970598766027,1.19090000039458,3.4593379423972546,1.2343283238540463,2.148679519215542,1.0054557444522212,0.25726719119869523,0.1921239318668393,-0.0036676241162427736,0.3015287777907881,0.15407555103533432,0.000860157974313344
0.3544836263536836,1.233873590778891,3.4794470572862983,1.2057198828707958,2.1070371816869082,0.9610408159101134,0.26345352003579103,0.19509964988535433,-0.0028519235104154106,0.35330595324098496,-0.23490818662790358,0.001245347497092778
0.3785980240110995,1.2760143344126291,3.4986678736045005,1.1784980710852326,2.0645315381545726,0.9162677841296761,0.2702826154106983,0.19055710360995226,-0.004074550346163441,0.2531266021051861,0.15716335734055142,0.0013980900629053665
0.40216798543280413,1.3173049651757207,3.516993229287094,1.1512226936295409,2.02079724794428,0.8721956305505676,0.2755122374721144,0.19357879003024525,-0.00319237095934799,0.30173276139337524,-0.19713365702438795,0.0017133544732508092
0.42519243930539496,1.3577209101346062,3.534437141898105,1.125269845782051,1.9757592571476643,0.8293262922256999,0.28134309823485726,0.1897754889484191,-0.0042517475643095715,0.2050989679474887,0.15742153896982514,0.0018030237983499295
0.447697836221036,1.3972360952775593,3.551023667742619,1.0992248396192816,1.9297970948367626,0.786535693872272,0.2856196448509447,0.19279012207669322,-0.0033263408646613257,0.2493510041304977,-0.16547897715347976,0.0020443805457599014
0.4696823330134216,1.4358320371742948,3.5667543816200644,1.0744966249291161,1.8826419212313819,0.7455956435848771,0.29043228945091926,0.18960310253199397,-0.004236451725645463,0.15681177301543822,0.15567378070249643,0.0020718384201979744
0.491172265512004,1.4734848755989223,3.581666294491762,1.0499360313631858,1.8343268896398432,0.7059589170566378,0.2937472483972754,0.19257432022264798,-0.0032881611982911174,0.19707785103346673,-0.13892762315330437,0.002242233630197542
0.5121709861392677,1.510171413391719,3.5957854728328944,1.026417541614027,1.7848896462303339,0.6683719142265652,0.2975403041954938,0.18990180097131226,-0.0040640853562994295,0.10771866059135783,0.15166505450037476,0.002213027388770584
0.5326993369715484,1.5458692063163257,3.6091529111174254,1.0031164464664213,1.7347273195860202,0.630497833471781,0.2998737452161997,0.19278884445079392,-0.0031154443670473597,0.14425016031806198,-0.11670073721320201,0.002319080077603709
0.5527616659008768,1.5805637527080463,3.621762867786861,0.9804487141514155,1.6837658806931932,0.5946686653596578,0.30263280548189897,0.19054528682715022,-0.0037727775345488546,0.05898404281686259,0.1463413860718732,0.0022418555593765876
0.5723706401839052,1.6142390703219103,3.633656241094054,0.9581562420546293,1.6320039395218446,0.5604018693056416,0.3039889947254628,0.19332574224716348,-0.002840815225443105,0.09261889804849163,-0.09729838334897623,0.0022925794649729524
0.5915337650249978,1.6468791491123471,3.644864278480167,0.9373308832869438,1.5795081442950254,0.5285659570634496,0.305735904171903,0.191455272379486,-0.0033897766182926503,0.01091609632124059,0.14053811344649114,0.00217686077540337
0.6102803826907367,1.6784693119982477,3.655435597621436,0.9159952954736751,1.5264090744005823,0.49841008912921464,0.306126258123705,0.19412258305061325,-0.0024857142183334346,0.041740057716521804,-0.08289751980550125,0.0021810385863785847
0.6286002886002101,1.708997493486259,3.6654037994040203,0.8955640942040739,1.4732416315100083,0.4692386810000727,0.30687100560725256,0.19252856797955697,-0.002952541707406109,-0.036161006781559785,0.1345269885947157,0.002035220834166363
0.6465115704842916,1.7384623261164593,3.6747885730240215,0.8754937181925304,1.4195696743135413,0.44143938339056815,0.3063137901113757,0.19508111908993753,-0.0020849580036652604,-0.006508157368743085,-0.06921535454644234,0.002003432544975754
0.6640214448481422,1.7668537196027303,3.6836173606918328,0.8567285534709498,1.3656492873453867,0.41460475855948337,0.30610869358532256,0.1937491667248894,-0.002471519159582325,-0.08072191547848262,0.1275017916190413,0.0018368152341659684
0.6811560159175611,1.7941667053496377,3.6919094558630223,0.8378167123443861,1.3113563650431141,0.3897013907890043,0.3046519071086209,0.19616958964210518,-0.0016527155782934955,-0.05296844222534041,-0.05941946117833319,0.0017763002979407153
0.6979123501644489,1.8203938326505,3.6997034836788023,0.8197652002968413,1.2574510380490904,0.3642839067223628,0.30352843335853086,0.19502526762830863,-0.0019816040266302792,-0.1234565908958514,0.11989515067267999,0.001596306166095703
0.7143076541703857,1.8455428534114822,3.7069891618132496,0.8016732100754544,1.2034929657742992,0.34038789683821247,0.30120689535367706,0.197304014896599,-0.0012199919467672515,-0.09612312232723318,-0.05064510637404346,0.0015163194380905423
0.7303411183718949,1.8696127127269682,3.7137969197500142,0.7837511440931763,1.1495625847737154,0.3182550022090032,0.29923015083375226,0.19632771748242783,-0.0014969040488570506,-0.16242700432784632,0.11259589628564234,0.0013312326599761988
0.7460161412537584,1.8926039644224424,3.720162019794194,0.7657959709489331,1.0958351647746354,0.29725422233008403,0.29611869991458395,0.19847171999543178,-0.0007941310553851721,-0.13677336121251862,-0.04134341490938803,0.0012388875134555133
0.761332060672737,1.9145206677179352,3.7261071042407954,0.7484201814056851,1.0422630443434935,0.2784108385408106,0.2933394712821267,0.19767360967439984,-0.0010160772104921278,-0.19861314094543212,0.10722849097171604,0.0010542817733506854
0.7763004643008506,1.935365928604805,3.731675321011612,0.7316001505704111,0.989053955817119,0.26016686331306194,0.2894954513661512,0.1997204742767411,-0.00036307196067619785,-0.17449610781918345,-0.03274824754990402,0.0009532403046521731
0.790932467312259,1.9551470077211475,3.7368786582778735,0.7158256169671403,0.935986286516266,0.24422392568252002,0.28597138101315167,0.19908732130184603,-0.0005351939046023269,-0.23187206918654565,0.10097392294972915,0.0007703509288059831
0.8052489796516018,1.973866733451473,3.7417631367915236,0.7005352801998226,0.8832553402888674,0.22988960711075931,0.28145185928932426,0.20102043872285158,6.103818557878782e-05,-0.20948899079506997,-0.027494854492523257,0.0006623809733499006
0.8192596852555984,1.9915318402572504,3.746360928933739,0.6858159102798806,0.8312431546445833,0.2160760544426509,0.2772335496920806,0.2004884987907598,-8.184696381530188e-05,-0.2628528734931176,0.0929658188640061,0.00048367974216035015
0.8329760034611959,2.0081567033501417,3.750682450022592,0.6711861755414825,0.7800656278066912,0.20209740043919608,0.27208179839467883,0.2022741719362915,0.0004469363344687949,-0.24081726681805804,-0.023799275534213238,0.0003740152449987744
0.8463997269720256,2.023758015906276,3.7547243980313754,0.657282646218749,0.7298405529933604,0.18834506181107058,0.2672406980229054,0.2018136860171751,0.00032371421219989926,-0.289266415754029,0.08561240455298644,0.00020516217467320732
0.8595453798964006,2.0383548269661427,3.7584912992675967,0.6437051490860326,0.6800290509366722,0.17717365233950744,0.26154868990766555,0.2034640712648521,0.0007892757611842605,-0.26726360355447465,-0.020948726002892798,9.959922588033326e-05
0.8724194828781211,2.0519554079848765,3.762034772314387,0.6311605019359737,0.6311170695058458,0.16676150111661164,0.2561814628364121,0.2030588307016199,0.0006806216107642094,-0.3123739594564606,0.07779259626108517,-5.578165880810568e-05
0.8850426929168406,2.064577749374993,3.765370002336719,0.6192613712844889,0.5830106296129978,0.1578404479756453,0.25001493305659306,0.20456418946836497,0.0010820244609104357,-0.29078595769794996,-0.02028296905250629,-0.00015370239172791364
0.8974279203425304,2.076237961967253,3.768526811296232,0.6077356797311507,0.536284957382414,0.1485030860180475,0.24417777308377042,0.2041719031299163,0.0009764776912573048,-0.3318343538279872,0.06796034932149865,-0.0002928175481336268
0.9095826339371533,2.086963661114901,3.7714968730165928,0.5968295860286106,0.49051924458155705,0.13967926404982683,0.23760794831830312,0.2054922070123535,0.0013062445111056142,-0.3096181276125598,-0.020686610206172573,-0.00037912579961886625
0.9215192256577255,2.096774046006532,3.7742904582975894,0.5865903298204723,0.44600819388506296,0.1307949530787883,0.23139375161612552,0.20509188387508104,0.0011992400852856022,-0.3466014620562339,0.058071914084109964,-0.0004977840270626568
0.933251032254135,2.105694209884233,3.7769063573591652,0.5764309738119006,0.4026770511738563,0.12220285388562824,0.22451511346488573,0.20622465034102078,0.001461401752683944,-0.3243921047438064,-0.022789807819398655,-0.0005686036732152747
0.944779651730373,2.11374775090771,3.7793504144368777,0.5658121502038284,0.36021535583359915,0.11606231962386608,0.21800372349354813,0.20578282548384186,0.0013464028035685693,-0.35712174213035375,0.048737978030785695,-0.0006645797631541708
0.9560958947344496,2.1209520580243817,3.781671660829355,0.5553122104299085,0.3186446988514517,0.11179039898777596,0.21090258634534642,0.2067373883276713,0.0015485120420013487,-0.33610381987021787,-0.02222494089851043,-0.0007171752872870603
0.9672021389430477,2.1273249520014104,3.7839074688091108,0.5450582317965674,0.27850035818716595,0.10768288050719832,0.2041580520089883,0.20630574125940626,0.0014391040769612395,-0.36569600718056094,0.04252582287970665,-0.0007896744089104559
0.978103303578979,2.132894959165154,3.7860611264192547,0.5347314984849905,0.23975497260003736,0.1033919258655884,0.19687698319699365,0.20714179623263407,0.001599475429256536,-0.3444688696331173,-0.021378952513795138,-0.0008256913745571827
0.9887979335486788,2.1376900586171548,3.7881289649365666,0.5240792444784179,0.2024429561208422,0.09938506727743299,0.1899666253786818,0.20672570727986228,0.0014974621341670158,-0.3698977349492862,0.03767494764979914,-0.0008789571908892797
0.9992795184382471,2.1417389177395716,3.790116666282115,0.5137485378273883,0.16646386599684004,0.09547268486461642,0.18259488954670555,0.20746897059335856,0.0016251992636999724,-0.34862997059243334,-0.018432294846513583,-0.0009018559324005232
1.009554489194795,2.1450681950595087,3.792026119979407,0.5035867205412404,0.13205031129849376,0.09086255733381077,0.17560446587115797,0.20710972834741925,0.0015386669108972129,-0.3704640732308584,0.03436737416507227,-0.0009399674602011403
1.0196262236056197,2.147709201285479,3.7938433711260835,0.49337365226784136,0.0990625062922407,0.0856582780788751,0.16821652692098388,0.20778978950299276,0.0016424566306874055,-0.3489526897991953,-0.016005742207694323,-0.00095412055541926
1.0294936966509767,2.1496904514113235,3.7955565366876614,0.48356549655329323,0.06731459984466802,0.08178608179087767,0.16122220712082047,0.20747738796145443,0.0015684567685969597,-0.3672749411570496,0.03207913869288443,-0.000981768122095804
1.0391650065820424,2.1510367434082167,3.797192258323479,0.47388527711657635,0.03657101655127966,0.08023904209909782,0.153894308577879,0.20811380253875011,0.0016538983207707858,-0.3464743922155127,-0.013751920641869739,-0.0009901859970167007
1.0486427121243738,2.1517681637392423,3.798797039165461,0.46456999527247606,0.007377891547568394,0.0777987650507974,0.14695178520190355,0.20784505029750822,0.0015908073247987708,-0.3626510464427248,0.029594889365254104,-0.001010535954956506
1.0579341120298233,2.1519157215701936,3.800353014466477,0.45530075748041293,-0.020397843477117098,0.07475499812822092,0.13971282537010188,0.20843352793565328,0.0016589487045672868,-0.3417089613516369,-0.012036168095787923,-0.0010153113204694633
1.0670401271794316,2.1515077647006513,3.801848114429042,0.4467404495786263,-0.04670163881186275,0.07099312056667159,0.13286730285798454,0.2081979779948706,0.0016041310494117056,-0.3548223457005641,0.027233988868183345,-0.0010300962070846
1.0759749361710045,2.150573731924414,3.803267976840375,0.43844893268449414,-0.07203813192418122,0.06986804993464182,0.12578178587495747,0.20874058630408276,0.0016570100179373881,-0.33400214865990263,-0.01150011298256226,-0.0010320863199428864
1.0847439148246942,2.149132969285931,3.8046653378390682,0.4299568321319498,-0.0960651792966735,0.06925054549652021,0.11909129298184062,0.2085149905988617,0.0016065828533773363,-0.3454522516200153,0.023532722102312883,-0.001042280822632145
1.0933430514673335,2.1472116656999978,3.8060503487489985,0.42125087622223917,-0.11892340235914595,0.06984935118915793,0.11218970026715169,0.20898478806724663,0.0016425831211752673,-0.32514126812705035,-0.010243972643365837,-0.0010415725629180975
1.1017680689917784,2.1448331976528148,3.8074473357727814,0.4127755342026976,-0.14040441891426647,0.07008588419763971,0.10567762016947535,0.20878352879788542,0.0015979748687167117,-0.33447383481637116,0.022159811936358177,-0.0010469751800899272
1.1100235796758322,2.1420251092745297,3.808849053456734,0.4041023641975025,-0.16069504293517328,0.07103527532564907,0.09899363646464199,0.20922646130486466,0.0016244764922435095,-0.3144385743772844,-0.008330772064440724,-0.0010436536625151275
1.1181056269597822,2.1388112084158264,3.810269758963247,0.39531892658404816,-0.17963352410282252,0.07137076160680195,0.09269695812485601,0.20906272451930574,0.0015864084764034558,-0.32173399394533614,0.021627617194459096,-0.0010455436011620267
1.1260120054914633,2.13521853793377,3.8116971741953827,0.38630627194633294,-0.19714415900808302,0.06935702449496063,0.08626635554637563,0.20949535539108055,0.0016060540341431562,-0.3019892234639862,-0.005066974679660233,-0.0010406811675285597
1.1337381309303898,2.1312756547536083,3.813084314685282,0.3772806583304823,-0.2135213383686309,0.06845697127445459,0.0802203058307156,0.20939618603133825,0.0015759277784974657,-0.3067668731745059,0.022720083066248967,-0.0010402930735503657
1.1412837440969994,2.1270052279862353,3.8144534541107715,0.36849030544284805,-0.22872705775729837,0.06728875136959646,0.07408829931251004,0.20985079363465964,0.001591952006575692,-0.28782691513940367,-0.0008585401881230359,-0.00103504090353612
1.1486535502058564,2.1224306868310894,3.815799229138163,0.35991076085257956,-0.24271832464841062,0.06544471945060079,0.06832709340666243,0.20983520222097063,0.0015695454292345978,-0.29091570364309216,0.023756024256990887,-0.001033765737970813
1.155851765422908,2.1175763203381215,3.8171081235271744,0.35113451594458883,-0.25557201594225043,0.06289243860557815,0.06251129478332684,0.2103106256509637,0.001581621593361504,-0.2724313247228616,0.0024058093052017754,-0.00102912406094349
1.1628744557417998,2.1124648800192767,3.818365972299286,0.34257622100091994,-0.26732162131217485,0.06023540579998657,0.05705892483555042,0.21035993365653916,0.0015636900589246494,-0.2739932553844145,0.025290693759470517,-0.0010276535639862877
1.1697259801618183,2.107118447593033,3.8195706804152856,0.33431061908488796,-0.27811833476284586,0.0588474040274755,0.05158083746688513,0.21086609646059884,0.0015722036489829172,-0.2561386060526384,0.005907277130585052,-0.0010236034899493006
1.176412192543516,2.1015560808977765,3.820747628495835,0.3268342638551302,-0.2878251812445488,0.05638049035542792,0.04645499300752487,0.21098514036837468,0.0015575250194479473,-0.25670267821258336,0.025975812577873746,-0.0010219870852717968
1.1829488778206187,2.0957995772728855,3.8218752383029435,0.3198497447088797,-0.29661303580344495,0.055002558580349255,0.04132173354237123,0.21150504533203174,0.0015613168568990865,-0.23936732619025536,0.006919322430284328,-0.0010183641238870119
1.1893458727147963,2.0898673165568167,3.8229752894745506,0.3133943890584461,-0.3044976445602075,0.05541133397398223,0.03653124504048311,0.21164415502294265,0.0015463501847836625,-0.23901406980317005,0.02400850031479665,-0.0010162882425931979
1.1956137604959653,2.0837773636656127,3.82408351615403,0.3073531074752475,-0.31139459876114967,0.05380190937504675,0.03175036742482984,0.21212474702413564,0.0015435119582174472,-0.222537372050234,0.00596991203376647,-0.0010122753389364884
1.2017608226454704,2.0775494716903897,3.8251595543415315,0.30154095995983937,-0.317349078659743,0.05066319730571088,0.027296078310463212,0.21224472778231362,0.0015266899031005643,-0.2210720854167915,0.020618753423983015,-0.0010088165849078254
1.2077916418446673,2.071202490117195,3.8261728182876458,0.2957081081008468,-0.322524026675768,0.04958999040504253,0.022872715723677217,0.21265749990131333,0.0015175712949417886,-0.2051820237753356,0.004279447550513148,-0.001003467247038813
1.2137058040066842,2.064752009583679,3.827164618095747,0.29023799277351325,-0.32688935141714703,0.04957208080962224,0.0187651656271699,0.21274352546529096,0.0014990474017202438,-0.20315606808842052,0.017846533884871535,-0.0009979777160376542
1.2195105638621544,2.058214222555336,3.8281560597119393,0.2849079564189531,-0.33043442895407404,0.047684680173162804,0.014699180251291022,0.21310076782393716,0.0014854830272050812,-0.1880426616724944,0.002653930593282408,-0.0009908342942998697
1.2252087229905333,2.0516055339762547,3.829109753315403,0.2796638548243089,-0.333220781899051,0.04670852414641587,0.010934208244141264,0.2131541319802155,0.0014660081408486292,-0.18530243749065334,0.014817706585039808,-0.0009832750845924468
1.2308020000870195,2.0449411183382735,3.8300439237983315,0.2746712624687711,-0.33529094762239503,0.045570102531447346,0.007224604650863942,0.21345068341890672,0.0014492038421392017,-0.17092779646612946,0.0013480350802890645,-0.0009744322732588363
1.2362954253363947,2.0382352993858257,3.8309553258489606,0.2694502745606158,-0.3366590516431236,0.04465607749319232,0.00380186683675543,0.21347778421344366,0.0014294624686059798,-0.16771510212172125,0.011940064235363493,-0.0009650726153493447
1.2416844308276067,2.031502118352963,3.831848447398824,0.26453696120013687,-0.3373684389055023,0.04494325673148108,0.0004435774505990864,0.2137166571536877,0.0014106418159069989,-0.15405725276541282,0.0007959638971482483,-0.0009548438602389542
1.2469751700516094,2.0247547495748535,3.8327473125334537,0.25996048575868175,-0.33742632533839545,0.044515651624568595,-0.002641710686996479,0.21373258490100833,0.0013911075863259903,-0.1504694262318603,0.009796730742636157,-0.0009441189612199688
1.252174379766783,2.0180062230680855,3.8336376255659457,0.25506475298145204,-0.33689901117823995,0.04383147563920758,-0.005655309919106788,0.21392846895045814,0.001371255967471452,-0.13749385511493073,-0.000739726751475718,-0.0009329066874075763
1.2572756748264122,2.0112682428445208,3.8345142550787297,0.25027620082577823,-0.33579927015420025,0.04284447307592323,-0.008409222312285802,0.2139135691350451,0.001352248513805776,-0.13366302432446042,0.008444811406553593,-0.0009212788417186362
1.2622811988429279,2.004552257441437,3.835371144540248,0.24529335753847836,-0.33418355166878916,0.04213801187756367,-0.01108679391411238,0.21408230444851561,0.0013319404498397525,-0.12141196216149142,-0.0009972324499128125,-0.0009094802957824266
1.2671870659936977,1.9978685864080614,3.8362139047777997,0.24018058182543098,-0.33203610375958614,0.04263130654874775,-0.013518939514246764,0.21406215936499207,0.0013135533342114591,-0.11744624854753538,0.007985368979572263,-0.0008973402531788793
1.2719906776302063,1.9912278643328696,3.8370665309087744,0.23485938701748543,-0.32942850666205736,0.04301558811302715,-0.01587223498882029,0.2142216095362257,0.0012929795862928195,-0.10585944757792691,9.516002051523573e-05,-0.0008852621108008075
1.276687865370556,1.9846392941996285,3.8379268426710347,0.2298400416275218,-0.326411349369242,0.04149327140163134,-0.017993281976652398,0.21422323148694078,0.0012748315425001877,-0.10182554753706147,0.008887632698198549,-0.0008728698908435763
1.2812846662031065,1.9781110672122437,3.8387567080990674,0.22438082826399117,-0.3230072542326473,0.03840862950474168,-0.020034286172133875,0.2144006412683095,0.001253695661805665,-0.09106053618566684,0.001244299932424902,-0.0008606431607277602
1.2857722827683866,1.9716509221275909,3.8395248806891624,0.21907237070752053,-0.31919173421453856,0.03636484505820331,-0.0218593527548534,0.21442517744848644,0.0012355727729693733,-0.08706193059075862,0.010451003097663225,-0.0008480475806732496
1.2901537301825372,1.9652670874433003,3.8402521775903264,0.2143946863916177,-0.31500746545311303,0.03520202861291204,-0.02360527905773635,0.21463377684836527,0.0012135426799981808,-0.07694194797551637,0.003393018551638101,-0.000835673411051222
1.2944416239103695,1.958966938134238,3.840956218162585,0.21013368452185985,-0.3105285309023426,0.032882344017031044,-0.025148109557354914,0.21470122382462087,0.0011948021420367105,-0.07293824557697597,0.010208940824530617,-0.0008228206212460677
1.2986442976008066,1.9527563675161914,3.8416138650429255,0.2059550081181662,-0.30570838813756573,0.03173895085219041,-0.02661158142432951,0.21490492427633123,0.0011727095184728142,-0.06361795978795463,0.00304254695693941,-0.0008101529797504694
1.3027633977631699,1.94664219975344,3.8422486440599695,0.20230168145869495,-0.30052261209982933,0.03316524856134312,-0.027887829521132446,0.2149653225319974,0.001154473559542346,-0.05960180045937007,0.009174192759650271,-0.0007970711366520567
1.3068094313923437,1.9406317475114434,3.8429119490311963,0.19943523313992897,-0.2950831462255843,0.034493581526841774,-0.029084461897258773,0.21514829052721485,0.0011329260912353867,-0.05074238737933856,0.0016443207021857274,-0.0007843158826247656
1.3107981360551424,1.9347300845869317,3.8436018206617333,0.19712280955325473,-0.2894684772562015,0.03383273950036643,-0.030102945126651015,0.215180706869043,0.0011158974594467352,-0.04687331481585487,0.005380132483722566,-0.0007712585404961452
1.3147405922462072,1.9289407150418079,3.8442784754517407,0.19491670318012658,-0.2836403723466734,0.03344095472233925,-0.031044489148845944,0.2152877964953781,0.0010968001850018005,-0.03884743305310259,-0.002489823476484434,-0.0007587204399209515
1.3186389263098097,1.9232679075948744,3.8449472945461873,0.19296348845950897,-0.27765539750996454,0.032242885316501324,-0.03182441650206469,0.21523755301374692,0.0010828568632827995,-0.03514058518771424,0.0008879696388378999,-0.0007462285985187385
1.322498196079,1.9177147996446753,3.845592152252517,0.19097867760837922,-0.2714844077410682,0.032482932383648425,-0.032530612966499284,0.2152548285283591,0.0010670090848883262,-0.027837837786369668,-0.006522229386800041,-0.0007346202813883812
1.3263177696311679,1.9122851114898538,3.84624181090019,0.18873563718223438,-0.2651652506954155,0.03315340069724045,-0.03308965277067033,0.2151239750867604,0.001056320474841499,-0.02427967963835897,-0.0031389392354439216,-0.0007233568050478914
1.3300924823748126,1.9069818064759456,3.846904878914135,0.1863316676791578,-0.2587305661855445,0.03446771991033878,-0.03357795195208002,0.21506075204279407,0.0010436460613241216,-0.017583531838364457,-0.008866123629070353,-0.0007132002731910515
1.3338191157283958,1.9018071951522346,3.8475942333123414,0.1842260413177414,-0.25222335893640035,0.03533291473303262,-0.03393143627763395,0.21488305065839697,0.0010351473211422935,-0.014279624944739562,-0.005212383475732406,-0.0007035417174896374
1.3375036365547506,1.8967627279735066,3.8483008916070016,0.1826298952724959,-0.24568038816516966,0.03481423271115749,-0.03421932613501255,0.2147783856434966,0.0010243733947268296,-0.008259209349729894,-0.010918656511665866,-0.0006949422351867812
1.3411562344602006,1.8918491202102032,3.848997176261225,0.18108962037898985,-0.23903265320424305,0.03532593537297452,-0.0343859107097817,0.21455966483785183,0.0010178028425369412,-0.005327508277246975,-0.008754735340222315,-0.0006867573743722287
1.3447780268677805,1.8870684671461182,3.8497036949686843,0.17961411063136695,-0.23236759000560805,0.03587088750626401,-0.0344941404302439,0.21438420143355064,0.0010099145421373912,0.00022852507122957284,-0.013797712270242212,-0.0006795740182109583
1.348370309080408,1.8824211153460058,3.8504211127188097,0.17769205098321778,-0.22569582284755396,0.03626481074825581,-0.034490455323695546,0.21410794260989174,0.001005752791293002,0.002828749680535562,-0.011828656233261603,-0.0006729200968979151
1.3519241501000723,1.8779071988890548,3.8511464089337752,0.17628397054670986,-0.21900390079349646,0.037357326630467085,-0.034435031135634286,0.21387104608958385,0.001000336619584985,0.007767218257831198,-0.015022353500569841,-0.0006672747111343545
1.3554498295110067,1.8735271208731847,3.851893555466385,0.17468727361337205,-0.21237357795886153,0.03710007804995048,-0.03428033698529065,0.2135703176710444,0.000997273099305307,0.010127475259286589,-0.014433014540179175,-0.0006621744333191972
1.3589435749832743,1.8692796493140076,3.8526355570273836,0.17259272265673437,-0.20577081987675586,0.0372032615448983,-0.03407851234517034,0.21328137306963368,0.0009938531250464067,0.014386112008009766,-0.01665005101827887,-0.0006578680428378182
1.3623954294364091,1.8651642329164726,3.8533796222582817,0.1702926896107778,-0.1992204418142827,0.037120365883195144,-0.03379118075022003,0.2129481170985894,0.0009920075692413377,0.016452549349187485,-0.014715561721670184,-0.0006540946904826027
1.3658012832286246,1.8611798240801871,3.854122029575945,0.1684791190387415,-0.1926892195941222,0.03781001408919686,-0.03346280681020852,0.2126535319083942,0.0009888040134655718,0.02017100256666559,-0.016084784477648367,-0.0006509780254874597
1.3691708656093993,1.8573260396883047,3.8548782298577287,0.16667096154223554,-0.1862230733916635,0.03790248307154468,-0.0330598724536868,0.21233158072319291,0.0009865027356270595,0.022036056723196574,-0.015520025846437219,-0.0006481271396001875
1.372504284840244,1.8536015782204713,3.85563627951916,0.16465200719751039,-0.17985187967045413,0.037982302213005754,-0.03261973242415417,0.2120209213557862,0.000983745281948778,0.025273208205387553,-0.016655989832923636,-0.0006456230018248639
1.375797324984194,1.8500045406270622,3.85639592556342,0.16268933681811826,-0.17358872407677062,0.03786280696443104,-0.03211470764921698,0.21168755764466507,0.0009816572876033547,0.026793267614318,-0.015513951237980913,-0.0006433021793793358
1.3790511117205562,1.8465327661455269,3.8571531817027087,0.16055981126797528,-0.16743877052281686,0.03704869388439011,-0.03157946479785645,0.2113770254917724,0.000978694550600956,0.029522772014106642,-0.016597026553966457,-0.0006412282833539661
1.3822623079459158,1.8431839907350707,3.8578941555803965,0.1584117293047651,-0.16140136061086519,0.035692124208014445,-0.030989510924606112,0.2110448455372671,0.0009763039330996648,0.03071982149454746,-0.015069491707518444,-0.0006391943430103735
1.385430542532011,1.8399559635228533,3.858607998064557,0.15637374618115424,-0.15547589536184148,0.03415297181105976,-0.030375851317470115,0.2107432043083719,0.0009727865717472639,0.033012463745610045,-0.015928061451237405,-0.000637284434233856
1.3885580174556342,1.8368464456156166,3.859291057500778,0.15435791156694573,-0.14963556420106294,0.03302643593554775,-0.029716257647844024,0.2104244029334419,0.0009696525043025872,0.033949748539415625,-0.014779355468268397,-0.0006352813622896193
1.3916451756869732,1.8338537343315953,3.8599515862194895,0.15228644618308879,-0.14394647201202743,0.031481317720727035,-0.029038099415342966,0.21012856881632658,0.0009656465751741727,0.03594393337931885,-0.015537038295299881,-0.0006332719894681766
1.3946909046106348,1.8309748048913546,3.860581212573904,0.14984044137562585,-0.13837026229315139,0.03016244062240924,-0.0283199966590173,0.2098175913226492,0.0009619267061951042,0.03656541011501876,-0.01429878579337715,-0.0006311142927669406
1.3976877134381471,1.8282073996454915,3.8611844613863524,0.1469285801269838,-0.13296998884798253,0.028175313786403373,-0.027589650887011263,0.2095313728632422,0.0009573058910139487,0.03823964420901014,-0.013959557435594235,-0.0006288931607859996
1.4006262850406868,1.825547999868532,3.86174796766208,0.14380629586418606,-0.1276877451928124,0.027765003758269076,-0.026825893890374708,0.20925194099155098,0.0009523256994339313,0.03853261365940549,-0.01162549771626649,-0.000626476325997102
1.4035024109579701,1.8229942449646757,3.8623032677372455,0.1402605361393736,-0.12252465830199892,0.028126239407104358,-0.026056577041932982,0.20901917861717578,0.0009458969880760115,0.039924923601633897,-0.010776899525317261,-0.0006238544131396421
1.4063076216807577,1.8205437517986358,3.8628657925253878,0.13699692599807212,-0.11754063516788114,0.027863813527849553,-0.025259533123010325,0.20880338871834825,0.000938887111341824,0.040083942049589615,-0.007604409242526226,-0.0006208410125300052
1.409047560200719,1.8181929390952782,3.8634230687959445,0.13305136980579743,-0.11268469830108446,0.028998684504283983,-0.024459670531817856,0.20865103544066566,0.0009301252086424405,0.04107645680249813,-0.007583266337756492,-0.0006174400601980843
1.4117085875968352,1.8159392451292566,3.86400304248603,0.12944733450573917,-0.10800033976535028,0.029325251226193227,-0.02363996987476069,0.2084991134629801,0.000921297963180745,0.04110389705126366,-0.0029886063091681438,-0.0006134616068307624
1.41429753428695,1.8137792383339497,3.8645895475105543,0.12604107832295938,-0.10350302606298015,0.028345870432943572,-0.02282018812897446,0.20843906802052725,0.000910204790555369,0.041765606111462676,-0.0038665574188575403,-0.0006090419232098883
1.416818355853409,1.8117091778126901,3.8651564649192136,0.12225752910468629,-0.09913998846725369,0.028444400192491465,-0.02198707849526116,0.2083614790618986,0.0008995613047715345,0.0415326048205181,-0.0002444327070217269,-0.0006039200687199457
1.4192635064355028,1.809726378043345,3.865725352923063,0.11868192650392523,-0.09491974937922137,0.029272583906948826,-0.02115895679479385,0.20835632604201315,0.0008873287249637762,0.04200136631871367,-3.337196176473071e-05,-0.0005983488998600285
1.4216371449655814,1.8078279830557604,3.8663108046012025,0.11507299127460789,-0.09084731432283402,0.030683009735324066,-0.02032145603121016,0.20835540556230203,0.0008751143779015536,0.04165140303258107,0.002695472368206457,-0.000592181033244895
1.4239386047910736,1.8060110367693039,3.8669244647959093,0.1112954439386768,-0.08695828591566279,0.03110433024872689,-0.019491163078756202,0.20840906321573227,0.0008618917869767095,0.04191408383322833,0.003008536839107942,-0.0005855713951697601
1.4261645136698469,1.8042718710509906,3.867546551400884,0.107154695682453,-0.08327289974142871,0.029204772132669574,-0.018655605669307906,0.20846899426838306,0.0008487249472475256,0.04135489356967299,0.0059263400949084305,-0.0005784663688703252
1.4283076075834957,1.802606413056162,3.8681306468435377,0.10294982118286836,-0.07974121436429142,0.0275599299567707,-0.01783142250856251,0.2085872846250516,0.0008346416535434109,0.04129259611311781,0.007172329016879994,-0.0005710012672986817
1.4303666040071532,1.8010115887688765,3.8686818454426732,0.09882082098233423,-0.07637181712444688,0.02555526670001574,-0.017008528815591895,0.20873050477637678,0.0008203560746484762,0.040626363140540835,0.009970988192520604,-0.0005631167944922242
1.4323430204268,1.7994841524263876,3.869192950776673,0.09541646667510306,-0.07315090196988394,0.023794902600900558,-0.01619910515598244,0.208929704149317,0.0008053786050030709,0.04038015340324289,0.010920977418804732,-0.000554886401085684
1.4342513497603022,1.79802113438699,3.869668848828691,0.09294564381235033,-0.07007125148444363,0.02264601923041586,-0.015394604911436627,0.20914791527507193,0.0007904189662837346,0.0396279774309159,0.011620286266310648,-0.0005462841809632139
1.4361102626365492,1.796619709357301,3.8701217692132994,0.090023843865829,-0.06713884125720027,0.022033170918189602,-0.014605123447497093,0.20938012527163785,0.0007755938582874045,0.03926632412753623,0.010186838332050713,-0.0005374077407581815
1.4379107395138657,1.795276932532157,3.870562432631663,0.08695563882209868,-0.06434595491325326,0.022494851367492824,-0.013822712921355063,0.2095836833366107,0.0007615649631227406,0.038432778831631334,0.01212544294382744,-0.0005283490605797948
1.4396498522903076,1.7939900134338918,3.871012329659013,0.08355488099311918,-0.061699938313747524,0.023517542574813925,-0.013057017803275617,0.20982602296839215,0.0007473355953062644,0.03796444110904976,0.01133711296640892,-0.0005192857049122827
1.44132094991017,1.792756014667617,3.871482680510509,0.08070734277764614,-0.059202668377102016,0.024301583171973604,-0.012300571008564187,0.210052610297236,0.0007336910084663195,0.037053189891580796,0.014030634552331226,-0.0005101858390451395
1.4429350967657228,1.7915719613000747,3.8719687121739486,0.07769039903421632,-0.05685840804022333,0.02471151771368117,-0.01156241832679461,0.21033307625125452,0.000719729581399875,0.03645944606400134,0.011996583512893861,-0.0005011550933237773
1.444488904746407,1.7904347931392703,3.872462942528222,0.074707724591486,-0.05466433163492561,0.024355338879756088,-0.010835961351858714,0.210572875994802,0.0007066446477290711,0.035456794020615384,0.014964188486730772,-0.0004921236742818292
