%!PS-Adobe-3.0 EPSF-3.0
%%Title: C:/Users/wlkob/OneDrive/8_Masterarbeit/Programs Masterarbeit/xExperiment/Figures/Env_Sim.eps
%%Creator: matplotlib version 3.0.1, http://matplotlib.org/
%%CreationDate: Mon Mar 30 03:57:26 2020
%%Orientation: portrait
%%BoundingBox: 18 180 594 612
%%EndComments
%%BeginProlog
/mpldict 8 dict def
mpldict begin
/m { moveto } bind def
/l { lineto } bind def
/r { rlineto } bind def
/c { curveto } bind def
/cl { closepath } bind def
/box {
m
1 index 0 r
0 exch r
neg 0 r
cl
} bind def
/clipbox {
box
clip
newpath
} bind def
%!PS-Adobe-3.0 Resource-Font
%%Title: DejaVu Sans
%%Copyright: Copyright (c) 2003 by Bitstream, Inc. All Rights Reserved. Copyright (c) 2006 by Tavmjong Bah. All Rights Reserved. DejaVu changes are in public domain 
%%Creator: Converted from TrueType to type 3 by PPR
25 dict begin
/_d{bind def}bind def
/_m{moveto}_d
/_l{lineto}_d
/_cl{closepath eofill}_d
/_c{curveto}_d
/_sc{7 -1 roll{setcachedevice}{pop pop pop pop pop pop}ifelse}_d
/_e{exec}_d
/FontName /DejaVuSans def
/PaintType 0 def
/FontMatrix[.001 0 0 .001 0 0]def
/FontBBox[-1021 -463 1793 1232]def
/FontType 3 def
/Encoding [ /space /zero /one /two /three /four /five /X /Y /Z /bracketleft /bracketright /m /minus ] def
/FontInfo 10 dict dup begin
/FamilyName (DejaVu Sans) def
/FullName (DejaVu Sans) def
/Notice (Copyright (c) 2003 by Bitstream, Inc. All Rights Reserved. Copyright (c) 2006 by Tavmjong Bah. All Rights Reserved. DejaVu changes are in public domain ) def
/Weight (Book) def
/Version (Version 2.35) def
/ItalicAngle 0.0 def
/isFixedPitch false def
/UnderlinePosition -130 def
/UnderlineThickness 90 def
end readonly def
/CharStrings 15 dict dup begin
/.notdef 0 def
/space{318 0 0 0 0 0 _sc
}_d
/zero{636 0 66 -13 570 742 _sc
318 664 _m
267 664 229 639 203 589 _c
177 539 165 464 165 364 _c
165 264 177 189 203 139 _c
229 89 267 64 318 64 _c
369 64 407 89 433 139 _c
458 189 471 264 471 364 _c
471 464 458 539 433 589 _c
407 639 369 664 318 664 _c
318 742 _m
399 742 461 709 505 645 _c
548 580 570 486 570 364 _c
570 241 548 147 505 83 _c
461 19 399 -13 318 -13 _c
236 -13 173 19 130 83 _c
87 147 66 241 66 364 _c
66 486 87 580 130 645 _c
173 709 236 742 318 742 _c
_cl}_d
/one{636 0 110 0 544 729 _sc
124 83 _m
285 83 _l
285 639 _l
110 604 _l
110 694 _l
284 729 _l
383 729 _l
383 83 _l
544 83 _l
544 0 _l
124 0 _l
124 83 _l
_cl}_d
/two{{636 0 73 0 536 742 _sc
192 83 _m
536 83 _l
536 0 _l
73 0 _l
73 83 _l
110 121 161 173 226 239 _c
290 304 331 346 348 365 _c
380 400 402 430 414 455 _c
426 479 433 504 433 528 _c
433 566 419 598 392 622 _c
365 646 330 659 286 659 _c
255 659 222 653 188 643 _c
154 632 117 616 78 594 _c
78 694 _l
118 710 155 722 189 730 _c
223 738 255 742 284 742 _c
}_e{359 742 419 723 464 685 _c
509 647 532 597 532 534 _c
532 504 526 475 515 449 _c
504 422 484 390 454 354 _c
446 344 420 317 376 272 _c
332 227 271 164 192 83 _c
_cl}_e}_d
/three{{636 0 76 -13 556 742 _sc
406 393 _m
453 383 490 362 516 330 _c
542 298 556 258 556 212 _c
556 140 531 84 482 45 _c
432 6 362 -13 271 -13 _c
240 -13 208 -10 176 -4 _c
144 1 110 10 76 22 _c
76 117 _l
103 101 133 89 166 81 _c
198 73 232 69 268 69 _c
330 69 377 81 409 105 _c
441 129 458 165 458 212 _c
458 254 443 288 413 312 _c
383 336 341 349 287 349 _c
}_e{202 349 _l
202 430 _l
291 430 _l
339 430 376 439 402 459 _c
428 478 441 506 441 543 _c
441 580 427 609 401 629 _c
374 649 336 659 287 659 _c
260 659 231 656 200 650 _c
169 644 135 635 98 623 _c
98 711 _l
135 721 170 729 203 734 _c
235 739 266 742 296 742 _c
370 742 429 725 473 691 _c
517 657 539 611 539 553 _c
539 513 527 479 504 451 _c
481 423 448 403 406 393 _c
_cl}_e}_d
/four{636 0 49 0 580 729 _sc
378 643 _m
129 254 _l
378 254 _l
378 643 _l
352 729 _m
476 729 _l
476 254 _l
580 254 _l
580 172 _l
476 172 _l
476 0 _l
378 0 _l
378 172 _l
49 172 _l
49 267 _l
352 729 _l
_cl}_d
/five{{636 0 77 -13 549 729 _sc
108 729 _m
495 729 _l
495 646 _l
198 646 _l
198 467 _l
212 472 227 476 241 478 _c
255 480 270 482 284 482 _c
365 482 429 459 477 415 _c
525 370 549 310 549 234 _c
549 155 524 94 475 51 _c
426 8 357 -13 269 -13 _c
238 -13 207 -10 175 -6 _c
143 -1 111 6 77 17 _c
77 116 _l
106 100 136 88 168 80 _c
199 72 232 69 267 69 _c
}_e{323 69 368 83 401 113 _c
433 143 450 183 450 234 _c
450 284 433 324 401 354 _c
368 384 323 399 267 399 _c
241 399 214 396 188 390 _c
162 384 135 375 108 363 _c
108 729 _l
_cl}_e}_d
/X{685 0 30 0 654 729 _sc
63 729 _m
169 729 _l
350 458 _l
532 729 _l
638 729 _l
404 379 _l
654 0 _l
548 0 _l
343 310 _l
136 0 _l
30 0 _l
290 389 _l
63 729 _l
_cl}_d
/Y{611 0 -1 0 613 729 _sc
-1 729 _m
104 729 _l
306 429 _l
507 729 _l
613 729 _l
355 347 _l
355 0 _l
256 0 _l
256 347 _l
-1 729 _l
_cl}_d
/Z{685 0 45 0 640 729 _sc
56 729 _m
629 729 _l
629 654 _l
168 83 _l
640 83 _l
640 0 _l
45 0 _l
45 75 _l
506 646 _l
56 646 _l
56 729 _l
_cl}_d
/bracketleft{390 0 86 -131 293 760 _sc
86 760 _m
293 760 _l
293 690 _l
176 690 _l
176 -61 _l
293 -61 _l
293 -131 _l
86 -131 _l
86 760 _l
_cl}_d
/bracketright{390 0 97 -131 304 760 _sc
304 760 _m
304 -131 _l
97 -131 _l
97 -61 _l
214 -61 _l
214 690 _l
97 690 _l
97 760 _l
304 760 _l
_cl}_d
/m{{974 0 91 0 889 560 _sc
520 442 _m
542 482 569 511 600 531 _c
631 550 668 560 711 560 _c
767 560 811 540 842 500 _c
873 460 889 403 889 330 _c
889 0 _l
799 0 _l
799 327 _l
799 379 789 418 771 444 _c
752 469 724 482 686 482 _c
639 482 602 466 575 435 _c
548 404 535 362 535 309 _c
535 0 _l
445 0 _l
445 327 _l
445 379 435 418 417 444 _c
398 469 369 482 331 482 _c
}_e{285 482 248 466 221 435 _c
194 404 181 362 181 309 _c
181 0 _l
91 0 _l
91 547 _l
181 547 _l
181 462 _l
201 495 226 520 255 536 _c
283 552 317 560 357 560 _c
397 560 430 550 458 530 _c
486 510 506 480 520 442 _c
_cl}_e}_d
/minus{838 0 106 272 732 355 _sc
106 355 _m
732 355 _l
732 272 _l
106 272 _l
106 355 _l
_cl}_d
end readonly def

/BuildGlyph
 {exch begin
 CharStrings exch
 2 copy known not{pop /.notdef}if
 true 3 1 roll get exec
 end}_d

/BuildChar {
 1 index /Encoding get exch get
 1 index /BuildGlyph get exec
}_d

FontName currentdict end definefont pop
end
%%EndProlog
mpldict begin
18 180 translate
576 432 0 0 clipbox
gsave
0 0 m
576 0 l
576 432 l
0 432 l
cl
1.000 setgray
fill
grestore
gsave
0 0 m
576 0 l
576 432 l
0 432 l
cl
1.000 setgray
fill
grestore
1.000 setlinewidth
0 setlinejoin
0 setlinecap
[] 0 setdash
0.950 setgray
gsave
71.618115 99.129242 m
259.778682 177.149373 l
258.425861 390.466018 l
62.51008 326.636056 l
gsave
fill
grestore
stroke
grestore
0.900 setgray
gsave
259.778682 177.149373 m
514.890615 123.404088 l
523.584228 346.536115 l
258.425861 390.466018 l
gsave
fill
grestore
stroke
grestore
0.925 setgray
gsave
71.618115 99.129242 m
336.869126 36.384632 l
514.890615 123.404088 l
259.778682 177.149373 l
gsave
fill
grestore
stroke
grestore
0.800 setlinewidth
1 setlinejoin
2 setlinecap
[] 0 setdash
0.000 setgray
gsave
71.618115 99.129242 m
336.869126 36.384632 l
stroke
grestore
/DejaVuSans findfont
12.000 scalefont
setfont
gsave
165.031198 39.349946 translate
346.691423 rotate
0.000000 0.000000 m /X glyphshow
8.220703 0.000000 m /space glyphshow
12.035156 0.000000 m /bracketleft glyphshow
16.716797 0.000000 m /m glyphshow
28.406250 0.000000 m /bracketright glyphshow
grestore
0 setlinecap
0.690 setgray
gsave
76.636274 97.942207 m
264.625057 176.128371 l
263.453085 389.633137 l
stroke
grestore
gsave
117.183814 88.350765 m
303.756109 167.884501 l
304.058541 382.90586 l
stroke
grestore
gsave
158.460157 78.586926 m
343.538587 159.503393 l
345.365832 376.062307 l
stroke
grestore
gsave
200.485131 68.646001 m
383.988894 150.981591 l
387.393313 369.099437 l
stroke
grestore
gsave
243.279288 58.523126 m
425.123988 142.315523 l
430.159983 362.014103 l
stroke
grestore
gsave
286.863942 48.213261 m
466.961408 133.501494 l
473.685518 354.803044 l
stroke
grestore
gsave
331.2612 37.711177 m
509.519294 124.535682 l
517.990297 347.462885 l
stroke
grestore
2 setlinecap
0.000 setgray
gsave
78.256912 98.616244 m
73.3889 96.591596 l
stroke
grestore
gsave
59.264868 75.514543 translate
0.000000 rotate
0.000000 0.000000 m /minus glyphshow
10.054688 0.000000 m /three glyphshow
grestore
gsave
118.793272 89.036859 m
113.958789 86.975972 l
stroke
grestore
gsave
99.806772 65.787760 translate
0.000000 rotate
0.000000 0.000000 m /minus glyphshow
10.054688 0.000000 m /two glyphshow
grestore
gsave
160.05777 79.285404 m
155.258813 77.187296 l
stroke
grestore
gsave
141.078655 55.885842 translate
0.000000 rotate
0.000000 0.000000 m /minus glyphshow
10.054688 0.000000 m /one glyphshow
grestore
gsave
202.070202 69.3572 m
197.308863 67.220853 l
stroke
grestore
gsave
188.131660 45.804015 translate
0.000000 rotate
0.000000 0.000000 m /zero glyphshow
grestore
gsave
244.851089 59.247398 m
240.129556 57.071758 l
stroke
grestore
gsave
230.923912 35.537331 translate
0.000000 rotate
0.000000 0.000000 m /one glyphshow
grestore
gsave
288.42171 48.950969 m
283.742273 46.734942 l
stroke
grestore
gsave
274.508047 25.080659 translate
0.000000 rotate
0.000000 0.000000 m /two glyphshow
grestore
gsave
332.804137 38.462698 m
328.169194 36.205148 l
stroke
grestore
gsave
318.906253 14.428676 translate
0.000000 rotate
0.000000 0.000000 m /three glyphshow
grestore
gsave
514.890615 123.404088 m
336.869126 36.384632 l
stroke
grestore
gsave
442.107743 44.608719 translate
26.050047 rotate
0.000000 0.000000 m /Y glyphshow
7.330078 0.000000 m /space glyphshow
11.144531 0.000000 m /bracketleft glyphshow
15.826172 0.000000 m /m glyphshow
27.515625 0.000000 m /bracketright glyphshow
grestore
0 setlinecap
0.690 setgray
gsave
66.740391 328.014304 m
75.669291 100.809048 l
340.717869 38.265953 l
stroke
grestore
gsave
100.094289 338.881106 m
107.628809 114.060952 l
371.055841 53.095589 l
stroke
grestore
gsave
132.602961 349.472531 m
138.809238 126.98981 l
400.612295 67.543207 l
stroke
grestore
gsave
164.298134 359.798916 m
169.238725 139.607292 l
429.417045 81.623382 l
stroke
grestore
gsave
195.209966 369.870086 m
198.944075 151.924513 l
457.49841 95.349955 l
stroke
grestore
gsave
225.367143 379.695386 m
227.950833 163.952065 l
484.8833 108.736082 l
stroke
grestore
gsave
254.796967 389.283713 m
256.283355 175.700047 l
511.597309 121.794273 l
stroke
grestore
2 setlinecap
0.000 setgray
gsave
338.475045 38.795189 m
345.209793 37.206001 l
stroke
grestore
gsave
344.082040 16.222050 translate
0.000000 rotate
0.000000 0.000000 m /minus glyphshow
10.054688 0.000000 m /three glyphshow
grestore
gsave
368.828325 53.611106 m
375.517023 52.06313 l
stroke
grestore
gsave
374.282792 31.231274 translate
0.000000 rotate
0.000000 0.000000 m /minus glyphshow
10.054688 0.000000 m /two glyphshow
grestore
gsave
398.400048 68.045533 m
405.042819 66.537185 l
stroke
grestore
gsave
403.704997 45.853575 translate
0.000000 rotate
0.000000 0.000000 m /minus glyphshow
10.054688 0.000000 m /one glyphshow
grestore
gsave
427.220016 82.113017 m
433.817017 80.642795 l
stroke
grestore
gsave
437.409628 60.103724 translate
0.000000 rotate
0.000000 0.000000 m /zero glyphshow
grestore
gsave
455.316536 95.827374 m
461.867956 94.39385 l
stroke
grestore
gsave
465.362411 73.995749 translate
0.000000 rotate
0.000000 0.000000 m /one glyphshow
grestore
gsave
482.716509 109.201735 m
489.222567 107.803553 l
stroke
grestore
gsave
492.621426 87.542984 translate
0.000000 rotate
0.000000 0.000000 m /two glyphshow
grestore
gsave
509.445523 122.248591 m
515.90646 120.884459 l
stroke
grestore
gsave
519.212183 100.758107 translate
0.000000 rotate
0.000000 0.000000 m /three glyphshow
grestore
gsave
514.890615 123.404088 m
523.584228 346.536115 l
stroke
grestore
gsave
563.783767 218.196000 translate
87.768785 rotate
0.000000 0.000000 m /Z glyphshow
8.220703 0.000000 m /space glyphshow
12.035156 0.000000 m /bracketleft glyphshow
16.716797 0.000000 m /m glyphshow
28.406250 0.000000 m /bracketright glyphshow
grestore
0 setlinecap
0.690 setgray
gsave
515.05798 127.699698 m
259.752587 181.264191 l
71.44293 103.505138 l
stroke
grestore
gsave
516.677784 169.273917 m
259.500131 221.072058 l
69.747116 145.864364 l
stroke
grestore
gsave
518.321697 211.466934 m
259.244113 261.441694 l
68.025468 188.868863 l
stroke
grestore
gsave
519.990262 254.292669 m
258.984457 302.385077 l
66.277393 232.533492 l
stroke
grestore
gsave
521.684038 297.765461 m
258.721084 343.914524 l
64.502277 276.873569 l
stroke
grestore
gsave
523.4036 341.900086 m
258.453913 386.04271 l
62.699488 321.904888 l
stroke
grestore
2 setlinecap
0.000 setgray
gsave
512.906349 128.151122 m
519.366814 126.795681 l
stroke
grestore
/DejaVuSans findfont
10.000 scalefont
setfont
gsave
530.855157 121.140937 translate
0.000000 rotate
0.000000 0.000000 m /zero glyphshow
grestore
gsave
514.509562 169.710618 m
521.019884 168.399375 l
stroke
grestore
gsave
532.613393 162.681397 translate
0.000000 rotate
0.000000 0.000000 m /one glyphshow
grestore
gsave
516.136627 211.888423 m
522.697581 210.622849 l
stroke
grestore
gsave
534.397773 204.839533 translate
0.000000 rotate
0.000000 0.000000 m /two glyphshow
grestore
gsave
517.788081 254.698439 m
524.400458 253.480056 l
stroke
grestore
gsave
536.208883 247.629224 translate
0.000000 rotate
0.000000 0.000000 m /three glyphshow
grestore
gsave
519.464475 298.154987 m
526.129087 296.985371 l
stroke
grestore
gsave
538.047330 291.064769 translate
0.000000 rotate
0.000000 0.000000 m /four glyphshow
grestore
gsave
521.16638 342.272824 m
527.884056 341.153609 l
stroke
grestore
gsave
539.913737 335.160902 translate
0.000000 rotate
0.000000 0.000000 m /five glyphshow
grestore
3.000 setlinewidth
0.000 0.000 1.000 setrgbcolor
gsave
576 432 0 0 clipbox
325.547905 194.220106 m
351.357147 188.949033 l
stroke
grestore
1.000 0.000 0.000 setrgbcolor
gsave
576 432 0 0 clipbox
329.532125 187.837809 m
347.236407 195.317012 l
stroke
grestore
1.500 setlinewidth
0.000 0.502 0.000 setrgbcolor
gsave
576 432 0 0 clipbox
338.417934 191.591634 m
stroke
grestore
1.000 setlinewidth
0 setlinecap
gsave
576 432 0 0 clipbox
/o {
gsave
newpath
translate
1.0 setlinewidth
1 setlinejoin
0 setlinecap
0 -3 m
0.795609 -3 1.55874 -2.683901 2.12132 -2.12132 c
2.683901 -1.55874 3 -0.795609 3 0 c
3 0.795609 2.683901 1.55874 2.12132 2.12132 c
1.55874 2.683901 0.795609 3 0 3 c
-0.795609 3 -1.55874 2.683901 -2.12132 2.12132 c
-2.683901 1.55874 -3 0.795609 -3 0 c
-3 -0.795609 -2.683901 -1.55874 -2.12132 -2.12132 c
-1.55874 -2.683901 -0.795609 -3 0 -3 c
cl

gsave
0.000 0.502 0.000 setrgbcolor
fill
grestore
stroke
grestore
} bind def
338.418 191.592 o
grestore

end
showpage
