%!PS-Adobe-3.0 EPSF-3.0
%%Title: C:\Users\wlkob\OneDrive\8_Masterarbeit\Programs Masterarbeit\xExperiment\Figures\Goal_Wind.eps
%%Creator: matplotlib version 3.0.1, http://matplotlib.org/
%%CreationDate: Fri Mar 27 19:00:04 2020
%%Orientation: portrait
%%BoundingBox: -126 108 738 684
%%EndComments
%%BeginProlog
/mpldict 8 dict def
mpldict begin
/m { moveto } bind def
/l { lineto } bind def
/r { rlineto } bind def
/c { curveto } bind def
/cl { closepath } bind def
/box {
m
1 index 0 r
0 exch r
neg 0 r
cl
} bind def
/clipbox {
box
clip
newpath
} bind def
%!PS-Adobe-3.0 Resource-Font
%%Title: DejaVu Sans
%%Copyright: Copyright (c) 2003 by Bitstream, Inc. All Rights Reserved. Copyright (c) 2006 by Tavmjong Bah. All Rights Reserved. DejaVu changes are in public domain 
%%Creator: Converted from TrueType to type 3 by PPR
25 dict begin
/_d{bind def}bind def
/_m{moveto}_d
/_l{lineto}_d
/_cl{closepath eofill}_d
/_c{curveto}_d
/_sc{7 -1 roll{setcachedevice}{pop pop pop pop pop pop}ifelse}_d
/_e{exec}_d
/FontName /DejaVuSans def
/PaintType 0 def
/FontMatrix[.001 0 0 .001 0 0]def
/FontBBox[-1021 -463 1793 1232]def
/FontType 3 def
/Encoding [ /space /zero /one /two /four /six /eight /A /C /F /I /L /M /N /Q /R /S /W /a /b /c /d /e /f /g /h /i /l /m /n /o /p /r /s /t /u /v /w ] def
/FontInfo 10 dict dup begin
/FamilyName (DejaVu Sans) def
/FullName (DejaVu Sans) def
/Notice (Copyright (c) 2003 by Bitstream, Inc. All Rights Reserved. Copyright (c) 2006 by Tavmjong Bah. All Rights Reserved. DejaVu changes are in public domain ) def
/Weight (Book) def
/Version (Version 2.35) def
/ItalicAngle 0.0 def
/isFixedPitch false def
/UnderlinePosition -130 def
/UnderlineThickness 90 def
end readonly def
/CharStrings 39 dict dup begin
/.notdef 0 def
/space{318 0 0 0 0 0 _sc
}_d
/zero{636 0 66 -13 570 742 _sc
318 664 _m
267 664 229 639 203 589 _c
177 539 165 464 165 364 _c
165 264 177 189 203 139 _c
229 89 267 64 318 64 _c
369 64 407 89 433 139 _c
458 189 471 264 471 364 _c
471 464 458 539 433 589 _c
407 639 369 664 318 664 _c
318 742 _m
399 742 461 709 505 645 _c
548 580 570 486 570 364 _c
570 241 548 147 505 83 _c
461 19 399 -13 318 -13 _c
236 -13 173 19 130 83 _c
87 147 66 241 66 364 _c
66 486 87 580 130 645 _c
173 709 236 742 318 742 _c
_cl}_d
/one{636 0 110 0 544 729 _sc
124 83 _m
285 83 _l
285 639 _l
110 604 _l
110 694 _l
284 729 _l
383 729 _l
383 83 _l
544 83 _l
544 0 _l
124 0 _l
124 83 _l
_cl}_d
/two{{636 0 73 0 536 742 _sc
192 83 _m
536 83 _l
536 0 _l
73 0 _l
73 83 _l
110 121 161 173 226 239 _c
290 304 331 346 348 365 _c
380 400 402 430 414 455 _c
426 479 433 504 433 528 _c
433 566 419 598 392 622 _c
365 646 330 659 286 659 _c
255 659 222 653 188 643 _c
154 632 117 616 78 594 _c
78 694 _l
118 710 155 722 189 730 _c
223 738 255 742 284 742 _c
}_e{359 742 419 723 464 685 _c
509 647 532 597 532 534 _c
532 504 526 475 515 449 _c
504 422 484 390 454 354 _c
446 344 420 317 376 272 _c
332 227 271 164 192 83 _c
_cl}_e}_d
/four{636 0 49 0 580 729 _sc
378 643 _m
129 254 _l
378 254 _l
378 643 _l
352 729 _m
476 729 _l
476 254 _l
580 254 _l
580 172 _l
476 172 _l
476 0 _l
378 0 _l
378 172 _l
49 172 _l
49 267 _l
352 729 _l
_cl}_d
/six{{636 0 70 -13 573 742 _sc
330 404 _m
286 404 251 388 225 358 _c
199 328 186 286 186 234 _c
186 181 199 139 225 109 _c
251 79 286 64 330 64 _c
374 64 409 79 435 109 _c
461 139 474 181 474 234 _c
474 286 461 328 435 358 _c
409 388 374 404 330 404 _c
526 713 _m
526 623 _l
501 635 476 644 451 650 _c
425 656 400 659 376 659 _c
310 659 260 637 226 593 _c
}_e{192 549 172 482 168 394 _c
187 422 211 444 240 459 _c
269 474 301 482 336 482 _c
409 482 467 459 509 415 _c
551 371 573 310 573 234 _c
573 159 550 99 506 54 _c
462 9 403 -13 330 -13 _c
246 -13 181 19 137 83 _c
92 147 70 241 70 364 _c
70 479 97 571 152 639 _c
206 707 280 742 372 742 _c
396 742 421 739 447 735 _c
472 730 498 723 526 713 _c
_cl}_e}_d
/eight{{636 0 68 -13 568 742 _sc
318 346 _m
271 346 234 333 207 308 _c
180 283 167 249 167 205 _c
167 161 180 126 207 101 _c
234 76 271 64 318 64 _c
364 64 401 76 428 102 _c
455 127 469 161 469 205 _c
469 249 455 283 429 308 _c
402 333 365 346 318 346 _c
219 388 _m
177 398 144 418 120 447 _c
96 476 85 511 85 553 _c
85 611 105 657 147 691 _c
188 725 245 742 318 742 _c
}_e{390 742 447 725 489 691 _c
530 657 551 611 551 553 _c
551 511 539 476 515 447 _c
491 418 459 398 417 388 _c
464 377 501 355 528 323 _c
554 291 568 251 568 205 _c
568 134 546 80 503 43 _c
459 5 398 -13 318 -13 _c
237 -13 175 5 132 43 _c
89 80 68 134 68 205 _c
68 251 81 291 108 323 _c
134 355 171 377 219 388 _c
183 544 _m
183 506 194 476 218 455 _c
}_e{242 434 275 424 318 424 _c
360 424 393 434 417 455 _c
441 476 453 506 453 544 _c
453 582 441 611 417 632 _c
393 653 360 664 318 664 _c
275 664 242 653 218 632 _c
194 611 183 582 183 544 _c
_cl}_e}_d
/A{684 0 8 0 676 729 _sc
342 632 _m
208 269 _l
476 269 _l
342 632 _l
286 729 _m
398 729 _l
676 0 _l
573 0 _l
507 187 _l
178 187 _l
112 0 _l
8 0 _l
286 729 _l
_cl}_d
/C{{698 0 56 -13 644 742 _sc
644 673 _m
644 569 _l
610 599 575 622 537 638 _c
499 653 460 661 418 661 _c
334 661 270 635 226 584 _c
182 533 160 460 160 364 _c
160 268 182 194 226 143 _c
270 92 334 67 418 67 _c
460 67 499 74 537 90 _c
575 105 610 128 644 159 _c
644 56 _l
609 32 572 15 534 4 _c
496 -7 455 -13 412 -13 _c
302 -13 215 20 151 87 _c
}_e{87 154 56 246 56 364 _c
56 481 87 573 151 641 _c
215 708 302 742 412 742 _c
456 742 497 736 535 725 _c
573 713 610 696 644 673 _c
_cl}_e}_d
/F{575 0 98 0 517 729 _sc
98 729 _m
517 729 _l
517 646 _l
197 646 _l
197 431 _l
486 431 _l
486 348 _l
197 348 _l
197 0 _l
98 0 _l
98 729 _l
_cl}_d
/I{295 0 98 0 197 729 _sc
98 729 _m
197 729 _l
197 0 _l
98 0 _l
98 729 _l
_cl}_d
/L{557 0 98 0 552 729 _sc
98 729 _m
197 729 _l
197 83 _l
552 83 _l
552 0 _l
98 0 _l
98 729 _l
_cl}_d
/M{863 0 98 0 765 729 _sc
98 729 _m
245 729 _l
431 233 _l
618 729 _l
765 729 _l
765 0 _l
669 0 _l
669 640 _l
481 140 _l
382 140 _l
194 640 _l
194 0 _l
98 0 _l
98 729 _l
_cl}_d
/N{748 0 98 0 650 729 _sc
98 729 _m
231 729 _l
554 119 _l
554 729 _l
650 729 _l
650 0 _l
517 0 _l
194 610 _l
194 0 _l
98 0 _l
98 729 _l
_cl}_d
/Q{{787 0 56 -128 731 742 _sc
394 662 _m
322 662 265 635 223 582 _c
181 528 160 456 160 364 _c
160 272 181 199 223 146 _c
265 92 322 66 394 66 _c
465 66 522 92 564 146 _c
606 199 627 272 627 364 _c
627 456 606 528 564 582 _c
522 635 465 662 394 662 _c
532 13 _m
662 -128 _l
543 -128 _l
435 -11 _l
424 -11 416 -12 410 -12 _c
404 -12 399 -13 394 -13 _c
291 -13 209 21 148 89 _c
}_e{86 157 56 248 56 364 _c
56 479 86 571 148 639 _c
209 707 291 742 394 742 _c
496 742 577 707 639 639 _c
700 571 731 479 731 364 _c
731 279 714 206 680 146 _c
646 86 596 41 532 13 _c
_cl}_e}_d
/R{{695 0 98 0 666 729 _sc
444 342 _m
465 334 486 319 506 296 _c
526 272 546 240 566 199 _c
666 0 _l
560 0 _l
467 187 _l
443 235 419 268 397 284 _c
374 300 343 308 304 308 _c
197 308 _l
197 0 _l
98 0 _l
98 729 _l
321 729 _l
404 729 466 711 507 677 _c
548 642 569 589 569 519 _c
569 473 558 434 537 404 _c
515 374 484 353 444 342 _c
197 648 _m
197 389 _l
321 389 _l
}_e{368 389 404 400 428 422 _c
452 444 465 476 465 519 _c
465 561 452 593 428 615 _c
404 637 368 648 321 648 _c
197 648 _l
_cl}_e}_d
/S{{635 0 66 -13 579 742 _sc
535 705 _m
535 609 _l
497 627 462 640 429 649 _c
395 657 363 662 333 662 _c
279 662 237 651 208 631 _c
179 610 165 580 165 542 _c
165 510 174 485 194 469 _c
213 452 250 439 304 429 _c
364 417 _l
437 403 491 378 526 343 _c
561 307 579 260 579 201 _c
579 130 555 77 508 41 _c
460 5 391 -13 300 -13 _c
265 -13 228 -9 189 -2 _c
}_e{150 5 110 16 69 32 _c
69 134 _l
109 111 148 94 186 83 _c
224 71 262 66 300 66 _c
356 66 399 77 430 99 _c
460 121 476 152 476 194 _c
476 230 465 258 443 278 _c
421 298 385 313 335 323 _c
275 335 _l
201 349 148 372 115 404 _c
82 435 66 478 66 534 _c
66 598 88 649 134 686 _c
179 723 242 742 322 742 _c
356 742 390 739 426 733 _c
461 727 497 717 535 705 _c
}_e{_cl}_e}_d
/W{989 0 33 0 956 729 _sc
33 729 _m
133 729 _l
286 113 _l
439 729 _l
550 729 _l
703 113 _l
856 729 _l
956 729 _l
773 0 _l
649 0 _l
495 633 _l
340 0 _l
216 0 _l
33 729 _l
_cl}_d
/a{{613 0 60 -13 522 560 _sc
343 275 _m
270 275 220 266 192 250 _c
164 233 150 205 150 165 _c
150 133 160 107 181 89 _c
202 70 231 61 267 61 _c
317 61 357 78 387 114 _c
417 149 432 196 432 255 _c
432 275 _l
343 275 _l
522 312 _m
522 0 _l
432 0 _l
432 83 _l
411 49 385 25 355 10 _c
325 -5 287 -13 243 -13 _c
187 -13 142 2 109 33 _c
76 64 60 106 60 159 _c
}_e{60 220 80 266 122 298 _c
163 329 224 345 306 345 _c
432 345 _l
432 354 _l
432 395 418 427 391 450 _c
364 472 326 484 277 484 _c
245 484 215 480 185 472 _c
155 464 127 453 100 439 _c
100 522 _l
132 534 164 544 195 550 _c
226 556 256 560 286 560 _c
365 560 424 539 463 498 _c
502 457 522 395 522 312 _c
_cl}_e}_d
/b{{635 0 91 -13 580 760 _sc
487 273 _m
487 339 473 390 446 428 _c
418 466 381 485 334 485 _c
286 485 249 466 222 428 _c
194 390 181 339 181 273 _c
181 207 194 155 222 117 _c
249 79 286 61 334 61 _c
381 61 418 79 446 117 _c
473 155 487 207 487 273 _c
181 464 _m
199 496 223 520 252 536 _c
281 552 316 560 356 560 _c
422 560 476 533 518 481 _c
559 428 580 359 580 273 _c
}_e{580 187 559 117 518 65 _c
476 13 422 -13 356 -13 _c
316 -13 281 -5 252 10 _c
223 25 199 49 181 82 _c
181 0 _l
91 0 _l
91 760 _l
181 760 _l
181 464 _l
_cl}_e}_d
/c{{550 0 55 -13 488 560 _sc
488 526 _m
488 442 _l
462 456 437 466 411 473 _c
385 480 360 484 334 484 _c
276 484 230 465 198 428 _c
166 391 150 339 150 273 _c
150 206 166 154 198 117 _c
230 80 276 62 334 62 _c
360 62 385 65 411 72 _c
437 79 462 90 488 104 _c
488 21 _l
462 9 436 0 410 -5 _c
383 -10 354 -13 324 -13 _c
242 -13 176 12 128 64 _c
}_e{79 115 55 185 55 273 _c
55 362 79 432 128 483 _c
177 534 244 560 330 560 _c
358 560 385 557 411 551 _c
437 545 463 537 488 526 _c
_cl}_e}_d
/d{{635 0 55 -13 544 760 _sc
454 464 _m
454 760 _l
544 760 _l
544 0 _l
454 0 _l
454 82 _l
435 49 411 25 382 10 _c
353 -5 319 -13 279 -13 _c
213 -13 159 13 117 65 _c
75 117 55 187 55 273 _c
55 359 75 428 117 481 _c
159 533 213 560 279 560 _c
319 560 353 552 382 536 _c
411 520 435 496 454 464 _c
148 273 _m
148 207 161 155 188 117 _c
215 79 253 61 301 61 _c
}_e{348 61 385 79 413 117 _c
440 155 454 207 454 273 _c
454 339 440 390 413 428 _c
385 466 348 485 301 485 _c
253 485 215 466 188 428 _c
161 390 148 339 148 273 _c
_cl}_e}_d
/e{{615 0 55 -13 562 560 _sc
562 296 _m
562 252 _l
149 252 _l
153 190 171 142 205 110 _c
238 78 284 62 344 62 _c
378 62 412 66 444 74 _c
476 82 509 95 541 113 _c
541 28 _l
509 14 476 3 442 -3 _c
408 -9 373 -13 339 -13 _c
251 -13 182 12 131 62 _c
80 112 55 181 55 268 _c
55 357 79 428 127 481 _c
175 533 241 560 323 560 _c
397 560 455 536 498 489 _c
}_e{540 441 562 377 562 296 _c
472 322 _m
471 371 457 410 431 440 _c
404 469 368 484 324 484 _c
274 484 234 469 204 441 _c
174 413 156 373 152 322 _c
472 322 _l
_cl}_e}_d
/f{352 0 23 0 371 760 _sc
371 760 _m
371 685 _l
285 685 _l
253 685 230 678 218 665 _c
205 652 199 629 199 595 _c
199 547 _l
347 547 _l
347 477 _l
199 477 _l
199 0 _l
109 0 _l
109 477 _l
23 477 _l
23 547 _l
109 547 _l
109 585 _l
109 645 123 690 151 718 _c
179 746 224 760 286 760 _c
371 760 _l
_cl}_d
/g{{635 0 55 -207 544 560 _sc
454 280 _m
454 344 440 395 414 431 _c
387 467 349 485 301 485 _c
253 485 215 467 188 431 _c
161 395 148 344 148 280 _c
148 215 161 165 188 129 _c
215 93 253 75 301 75 _c
349 75 387 93 414 129 _c
440 165 454 215 454 280 _c
544 68 _m
544 -24 523 -93 482 -139 _c
440 -184 377 -207 292 -207 _c
260 -207 231 -204 203 -200 _c
175 -195 147 -188 121 -178 _c
}_e{121 -91 _l
147 -105 173 -115 199 -122 _c
225 -129 251 -133 278 -133 _c
336 -133 380 -117 410 -87 _c
439 -56 454 -10 454 52 _c
454 96 _l
435 64 411 40 382 24 _c
353 8 319 0 279 0 _c
211 0 157 25 116 76 _c
75 127 55 195 55 280 _c
55 364 75 432 116 483 _c
157 534 211 560 279 560 _c
319 560 353 552 382 536 _c
411 520 435 496 454 464 _c
454 547 _l
544 547 _l
}_e{544 68 _l
_cl}_e}_d
/h{634 0 91 0 549 760 _sc
549 330 _m
549 0 _l
459 0 _l
459 327 _l
459 379 448 417 428 443 _c
408 469 378 482 338 482 _c
289 482 251 466 223 435 _c
195 404 181 362 181 309 _c
181 0 _l
91 0 _l
91 760 _l
181 760 _l
181 462 _l
202 494 227 519 257 535 _c
286 551 320 560 358 560 _c
420 560 468 540 500 501 _c
532 462 549 405 549 330 _c
_cl}_d
/i{278 0 94 0 184 760 _sc
94 547 _m
184 547 _l
184 0 _l
94 0 _l
94 547 _l
94 760 _m
184 760 _l
184 646 _l
94 646 _l
94 760 _l
_cl}_d
/l{278 0 94 0 184 760 _sc
94 760 _m
184 760 _l
184 0 _l
94 0 _l
94 760 _l
_cl}_d
/m{{974 0 91 0 889 560 _sc
520 442 _m
542 482 569 511 600 531 _c
631 550 668 560 711 560 _c
767 560 811 540 842 500 _c
873 460 889 403 889 330 _c
889 0 _l
799 0 _l
799 327 _l
799 379 789 418 771 444 _c
752 469 724 482 686 482 _c
639 482 602 466 575 435 _c
548 404 535 362 535 309 _c
535 0 _l
445 0 _l
445 327 _l
445 379 435 418 417 444 _c
398 469 369 482 331 482 _c
}_e{285 482 248 466 221 435 _c
194 404 181 362 181 309 _c
181 0 _l
91 0 _l
91 547 _l
181 547 _l
181 462 _l
201 495 226 520 255 536 _c
283 552 317 560 357 560 _c
397 560 430 550 458 530 _c
486 510 506 480 520 442 _c
_cl}_e}_d
/n{634 0 91 0 549 560 _sc
549 330 _m
549 0 _l
459 0 _l
459 327 _l
459 379 448 417 428 443 _c
408 469 378 482 338 482 _c
289 482 251 466 223 435 _c
195 404 181 362 181 309 _c
181 0 _l
91 0 _l
91 547 _l
181 547 _l
181 462 _l
202 494 227 519 257 535 _c
286 551 320 560 358 560 _c
420 560 468 540 500 501 _c
532 462 549 405 549 330 _c
_cl}_d
/o{612 0 55 -13 557 560 _sc
306 484 _m
258 484 220 465 192 427 _c
164 389 150 338 150 273 _c
150 207 163 156 191 118 _c
219 80 257 62 306 62 _c
354 62 392 80 420 118 _c
448 156 462 207 462 273 _c
462 337 448 389 420 427 _c
392 465 354 484 306 484 _c
306 560 _m
384 560 445 534 490 484 _c
534 433 557 363 557 273 _c
557 183 534 113 490 63 _c
445 12 384 -13 306 -13 _c
227 -13 165 12 121 63 _c
77 113 55 183 55 273 _c
55 363 77 433 121 484 _c
165 534 227 560 306 560 _c
_cl}_d
/p{{635 0 91 -207 580 560 _sc
181 82 _m
181 -207 _l
91 -207 _l
91 547 _l
181 547 _l
181 464 _l
199 496 223 520 252 536 _c
281 552 316 560 356 560 _c
422 560 476 533 518 481 _c
559 428 580 359 580 273 _c
580 187 559 117 518 65 _c
476 13 422 -13 356 -13 _c
316 -13 281 -5 252 10 _c
223 25 199 49 181 82 _c
487 273 _m
487 339 473 390 446 428 _c
418 466 381 485 334 485 _c
}_e{286 485 249 466 222 428 _c
194 390 181 339 181 273 _c
181 207 194 155 222 117 _c
249 79 286 61 334 61 _c
381 61 418 79 446 117 _c
473 155 487 207 487 273 _c
_cl}_e}_d
/r{411 0 91 0 411 560 _sc
411 463 _m
401 469 390 473 378 476 _c
366 478 353 480 339 480 _c
288 480 249 463 222 430 _c
194 397 181 350 181 288 _c
181 0 _l
91 0 _l
91 547 _l
181 547 _l
181 462 _l
199 495 224 520 254 536 _c
284 552 321 560 365 560 _c
371 560 378 559 386 559 _c
393 558 401 557 411 555 _c
411 463 _l
_cl}_d
/s{{521 0 54 -13 472 560 _sc
443 531 _m
443 446 _l
417 458 391 468 364 475 _c
336 481 308 485 279 485 _c
234 485 200 478 178 464 _c
156 450 145 430 145 403 _c
145 382 153 366 169 354 _c
185 342 217 330 265 320 _c
296 313 _l
360 299 405 279 432 255 _c
458 230 472 195 472 151 _c
472 100 452 60 412 31 _c
372 1 316 -13 246 -13 _c
216 -13 186 -10 154 -5 _c
}_e{122 0 89 8 54 20 _c
54 113 _l
87 95 120 82 152 74 _c
184 65 216 61 248 61 _c
290 61 323 68 346 82 _c
368 96 380 117 380 144 _c
380 168 371 187 355 200 _c
339 213 303 226 247 238 _c
216 245 _l
160 257 119 275 95 299 _c
70 323 58 356 58 399 _c
58 450 76 490 112 518 _c
148 546 200 560 268 560 _c
301 560 332 557 362 552 _c
391 547 418 540 443 531 _c
}_e{_cl}_e}_d
/t{392 0 27 0 368 702 _sc
183 702 _m
183 547 _l
368 547 _l
368 477 _l
183 477 _l
183 180 _l
183 135 189 106 201 94 _c
213 81 238 75 276 75 _c
368 75 _l
368 0 _l
276 0 _l
206 0 158 13 132 39 _c
106 65 93 112 93 180 _c
93 477 _l
27 477 _l
27 547 _l
93 547 _l
93 702 _l
183 702 _l
_cl}_d
/u{634 0 85 -13 543 560 _sc
85 216 _m
85 547 _l
175 547 _l
175 219 _l
175 167 185 129 205 103 _c
225 77 255 64 296 64 _c
344 64 383 79 411 110 _c
439 141 453 183 453 237 _c
453 547 _l
543 547 _l
543 0 _l
453 0 _l
453 84 _l
431 50 405 26 377 10 _c
348 -5 315 -13 277 -13 _c
214 -13 166 6 134 45 _c
101 83 85 140 85 216 _c
311 560 _m
311 560 _l
_cl}_d
/v{592 0 30 0 562 547 _sc
30 547 _m
125 547 _l
296 88 _l
467 547 _l
562 547 _l
357 0 _l
235 0 _l
30 547 _l
_cl}_d
/w{818 0 42 0 776 547 _sc
42 547 _m
132 547 _l
244 120 _l
356 547 _l
462 547 _l
574 120 _l
686 547 _l
776 547 _l
633 0 _l
527 0 _l
409 448 _l
291 0 _l
185 0 _l
42 547 _l
_cl}_d
end readonly def

/BuildGlyph
 {exch begin
 CharStrings exch
 2 copy known not{pop /.notdef}if
 true 3 1 roll get exec
 end}_d

/BuildChar {
 1 index /Encoding get exch get
 1 index /BuildGlyph get exec
}_d

FontName currentdict end definefont pop
end
%%EndProlog
mpldict begin
-126 108 translate
864 576 0 0 clipbox
gsave
0 0 m
864 0 l
864 576 l
0 576 l
cl
1.000 setgray
fill
grestore
gsave
108 72 m
777.6 72 l
777.6 506.88 l
108 506.88 l
cl
1.000 setgray
fill
grestore
gsave
669.6 434.9 108 72 clipbox
138.436364 459.798492 m
138.436364 459.79148 l
142.549386 459.815177 l
146.662408 459.892066 l
150.77543 460.081706 l
154.888452 460.425892 l
159.001474 460.660093 l
163.114496 460.70014 l
167.227518 460.457256 l
171.340541 460.194362 l
175.453563 459.728882 l
179.566585 459.244399 l
183.679607 458.9241 l
187.792629 458.434609 l
191.905651 457.149493 l
196.018673 456.089489 l
200.131695 454.200661 l
204.244717 452.900726 l
208.35774 450.78039 l
212.470762 447.093671 l
216.583784 441.61401 l
220.696806 434.917725 l
224.809828 425.064737 l
228.92285 412.712641 l
233.035872 399.956237 l
237.148894 388.864852 l
241.261916 374.243429 l
245.374939 357.824179 l
249.487961 341.84821 l
253.600983 325.858722 l
257.714005 308.961511 l
261.827027 294.228454 l
265.940049 279.579364 l
270.053071 265.896922 l
274.166093 252.988101 l
278.279115 240.628456 l
282.392138 227.674926 l
286.50516 214.346013 l
290.618182 198.759065 l
294.731204 183.617259 l
298.844226 170.674907 l
302.957248 161.142006 l
307.07027 154.547536 l
311.183292 148.925474 l
315.296314 143.937639 l
319.409337 140.78464 l
323.522359 139.153 l
327.635381 137.600022 l
331.748403 135.865384 l
335.861425 133.789535 l
339.974447 131.904476 l
344.087469 129.519723 l
348.200491 128.674617 l
352.313514 127.663515 l
356.426536 127.549807 l
360.539558 126.653119 l
364.65258 125.109333 l
368.765602 124.520219 l
372.878624 123.799938 l
376.991646 122.701078 l
381.104668 122.255032 l
385.21769 121.435196 l
389.330713 120.145581 l
393.443735 118.779765 l
397.556757 116.583772 l
401.669779 115.005571 l
405.782801 114.174482 l
409.895823 112.513398 l
414.008845 111.19713 l
418.121867 109.880425 l
422.234889 109.214789 l
426.347912 109.07112 l
430.460934 108.725571 l
434.573956 107.664789 l
438.686978 106.696106 l
442.8 106.056723 l
446.913022 105.919316 l
451.026044 105.806157 l
455.139066 105.504644 l
459.252088 104.728521 l
463.365111 103.704726 l
467.478133 102.104772 l
471.591155 100.621304 l
475.704177 99.728482 l
479.817199 98.788638 l
483.930221 98.111407 l
488.043243 97.838045 l
492.156265 97.756551 l
496.269287 97.581055 l
500.38231 97.219892 l
504.495332 95.895525 l
508.608354 94.624894 l
512.721376 93.577412 l
516.834398 92.965001 l
520.94742 92.655313 l
525.060442 92.556757 l
529.173464 92.430762 l
533.286486 92.121851 l
537.399509 91.850048 l
541.512531 92.361487 l
545.625553 93.058856 l
549.738575 93.706678 l
553.851597 94.123148 l
557.964619 94.023383 l
562.077641 93.18075 l
566.190663 93.152215 l
570.303686 93.025513 l
574.416708 93.354292 l
578.52973 93.780806 l
582.642752 94.147694 l
586.755774 94.2531 l
590.868796 93.899156 l
594.981818 93.511533 l
599.09484 93.243182 l
603.207862 93.099814 l
607.320885 93.031343 l
611.433907 92.898314 l
615.546929 92.904026 l
619.659951 92.678449 l
623.772973 92.526717 l
627.885995 92.453864 l
631.999017 92.847117 l
636.112039 93.010492 l
640.225061 92.854341 l
644.338084 92.788589 l
648.451106 92.622471 l
652.564128 92.436006 l
656.67715 92.36746 l
660.790172 92.196757 l
664.903194 92.097454 l
669.016216 92.063442 l
673.129238 92.080885 l
677.24226 92.188675 l
681.355283 92.232873 l
685.468305 92.35458 l
689.581327 92.343077 l
693.694349 92.282758 l
697.807371 92.182049 l
701.920393 92.134446 l
706.033415 92.13128 l
710.146437 92.155258 l
714.259459 92.270235 l
718.372482 92.1918 l
722.485504 92.179411 l
726.598526 92.285193 l
730.711548 92.169362 l
734.82457 92.111866 l
738.937592 91.985318 l
743.050614 91.783806 l
747.163636 91.767273 l
747.163636 98.989774 l
747.163636 98.989774 l
743.050614 98.917076 l
738.937592 98.875167 l
734.82457 99.008508 l
730.711548 99.150203 l
726.598526 99.188166 l
722.485504 99.004139 l
718.372482 98.664055 l
714.259459 98.753418 l
710.146437 98.751725 l
706.033415 98.603296 l
701.920393 98.738262 l
697.807371 98.783746 l
693.694349 98.904776 l
689.581327 99.265176 l
685.468305 99.529503 l
681.355283 99.613293 l
677.24226 99.68292 l
673.129238 99.640186 l
669.016216 99.628636 l
664.903194 99.828214 l
660.790172 99.905915 l
656.67715 99.890101 l
652.564128 99.826599 l
648.451106 99.837179 l
644.338084 99.920363 l
640.225061 100.364166 l
636.112039 100.879816 l
631.999017 101.397206 l
627.885995 102.231221 l
623.772973 102.711369 l
619.659951 102.746742 l
615.546929 102.463193 l
611.433907 101.949154 l
607.320885 101.472396 l
603.207862 101.242227 l
599.09484 101.554678 l
594.981818 101.769202 l
590.868796 102.151349 l
586.755774 102.708903 l
582.642752 103.815955 l
578.52973 104.900796 l
574.416708 107.703967 l
570.303686 108.150357 l
566.190663 109.151013 l
562.077641 110.507351 l
557.964619 107.162469 l
553.851597 107.267043 l
549.738575 109.244369 l
545.625553 112.314762 l
541.512531 116.177337 l
537.399509 120.504998 l
533.286486 122.581026 l
529.173464 123.168841 l
525.060442 123.73599 l
520.94742 122.738863 l
516.834398 122.178632 l
512.721376 120.702249 l
508.608354 118.825749 l
504.495332 116.742159 l
500.38231 116.766404 l
496.269287 118.340922 l
492.156265 121.39323 l
488.043243 123.91771 l
483.930221 125.532976 l
479.817199 125.394989 l
475.704177 124.873756 l
471.591155 124.587419 l
467.478133 123.657296 l
463.365111 123.760751 l
459.252088 124.34278 l
455.139066 125.019509 l
451.026044 125.285231 l
446.913022 125.733423 l
442.8 126.562748 l
438.686978 127.648597 l
434.573956 129.913803 l
430.460934 132.904945 l
426.347912 135.737155 l
422.234889 138.186513 l
418.121867 139.644107 l
414.008845 140.389301 l
409.895823 141.600879 l
405.782801 143.362481 l
401.669779 146.206652 l
397.556757 148.65021 l
393.443735 151.840814 l
389.330713 156.416875 l
385.21769 161.069911 l
381.104668 165.04769 l
376.991646 168.748541 l
372.878624 170.709492 l
368.765602 172.897594 l
364.65258 177.39909 l
360.539558 182.143365 l
356.426536 189.589134 l
352.313514 198.420632 l
348.200491 207.400586 l
344.087469 215.877493 l
339.974447 222.297707 l
335.861425 228.46334 l
331.748403 236.164596 l
327.635381 244.611807 l
323.522359 252.744484 l
319.409337 263.798448 l
315.296314 275.641013 l
311.183292 287.732445 l
307.07027 297.337717 l
302.957248 306.164978 l
298.844226 311.003658 l
294.731204 316.093949 l
290.618182 319.93497 l
286.50516 325.655081 l
282.392138 333.253495 l
278.279115 344.589013 l
274.166093 357.041453 l
270.053071 369.696769 l
265.940049 383.269475 l
261.827027 397.252316 l
257.714005 411.150736 l
253.600983 422.817845 l
249.487961 437.329264 l
245.374939 452.281587 l
241.261916 465.608825 l
237.148894 476.136517 l
233.035872 481.591589 l
228.92285 482.853199 l
224.809828 480.277555 l
220.696806 476.841225 l
216.583784 471.894714 l
212.470762 469.226224 l
208.35774 467.319761 l
204.244717 466.221322 l
200.131695 465.761797 l
196.018673 464.61185 l
191.905651 463.047502 l
187.792629 461.35686 l
183.679607 460.566885 l
179.566585 461.126911 l
175.453563 461.517125 l
171.340541 461.842964 l
167.227518 461.954646 l
163.114496 461.698557 l
159.001474 461.209471 l
154.888452 460.827054 l
150.77543 460.430012 l
146.662408 460.083119 l
142.549386 459.868137 l
138.436364 459.798492 l
cl
0.122 0.467 0.706 setrgbcolor
fill
grestore
gsave
669.6 434.9 108 72 clipbox
138.436364 459.841485 m
138.436364 459.81059 l
142.549386 459.893215 l
146.662408 459.989015 l
150.77543 460.107698 l
154.888452 460.211684 l
159.001474 460.232316 l
163.114496 460.024815 l
167.227518 460.289775 l
171.340541 460.84191 l
175.453563 461.832813 l
179.566585 462.681245 l
183.679607 463.811041 l
187.792629 463.925422 l
191.905651 463.058136 l
196.018673 461.175764 l
200.131695 457.739805 l
204.244717 454.357338 l
208.35774 451.125205 l
212.470762 446.084015 l
216.583784 437.53399 l
220.696806 426.353395 l
224.809828 413.126011 l
228.92285 398.002006 l
233.035872 381.120354 l
237.148894 363.832818 l
241.261916 346.417844 l
245.374939 327.362059 l
249.487961 309.447588 l
253.600983 293.324353 l
257.714005 280.440487 l
261.827027 270.772432 l
265.940049 260.606004 l
270.053071 251.034614 l
274.166093 242.219752 l
278.279115 233.218064 l
282.392138 225.069825 l
286.50516 218.021828 l
290.618182 211.357349 l
294.731204 205.190229 l
298.844226 199.662809 l
302.957248 193.503061 l
307.07027 187.688467 l
311.183292 182.976162 l
315.296314 179.095281 l
319.409337 176.343278 l
323.522359 173.742607 l
327.635381 171.422529 l
331.748403 168.860906 l
335.861425 166.25472 l
339.974447 164.810636 l
344.087469 163.284236 l
348.200491 162.225706 l
352.313514 161.104123 l
356.426536 159.934238 l
360.539558 158.355423 l
364.65258 156.786653 l
368.765602 155.118803 l
372.878624 153.288446 l
376.991646 151.436537 l
381.104668 150.179908 l
385.21769 149.275978 l
389.330713 147.523267 l
393.443735 145.465808 l
397.556757 143.540749 l
401.669779 141.575422 l
405.782801 139.61897 l
409.895823 137.96331 l
414.008845 136.764655 l
418.121867 136.026377 l
422.234889 135.441141 l
426.347912 134.430383 l
430.460934 133.468427 l
434.573956 132.758749 l
438.686978 131.77662 l
442.8 130.856019 l
446.913022 130.19943 l
451.026044 129.828414 l
455.139066 129.279734 l
459.252088 129.077429 l
463.365111 128.890279 l
467.478133 128.497178 l
471.591155 127.947068 l
475.704177 127.306317 l
479.817199 126.273178 l
483.930221 125.336614 l
488.043243 124.732063 l
492.156265 124.324084 l
496.269287 123.919759 l
500.38231 123.554371 l
504.495332 123.151642 l
508.608354 122.72265 l
512.721376 122.336932 l
516.834398 121.995445 l
520.94742 121.82783 l
525.060442 121.610348 l
529.173464 121.474963 l
533.286486 121.291589 l
537.399509 121.06328 l
541.512531 120.580077 l
545.625553 120.317855 l
549.738575 119.912273 l
553.851597 119.286134 l
557.964619 118.597068 l
562.077641 118.25242 l
566.190663 117.825346 l
570.303686 117.4361 l
574.416708 117.039306 l
578.52973 116.761187 l
582.642752 116.472533 l
586.755774 116.188728 l
590.868796 116.080405 l
594.981818 115.62276 l
599.09484 115.220935 l
603.207862 114.836964 l
607.320885 114.655184 l
611.433907 114.426154 l
615.546929 114.148058 l
619.659951 113.953502 l
623.772973 113.704564 l
627.885995 113.289197 l
631.999017 112.939745 l
636.112039 112.908086 l
640.225061 112.939281 l
644.338084 113.05712 l
648.451106 112.907823 l
652.564128 113.093761 l
656.67715 113.223713 l
660.790172 113.690629 l
664.903194 113.835605 l
669.016216 114.123579 l
673.129238 114.418266 l
677.24226 114.610489 l
681.355283 114.200255 l
685.468305 113.361578 l
689.581327 112.508856 l
693.694349 111.835865 l
697.807371 111.53101 l
701.920393 111.580225 l
706.033415 111.630018 l
710.146437 110.895208 l
714.259459 110.101507 l
718.372482 109.417615 l
722.485504 108.875595 l
726.598526 109.112349 l
730.711548 109.571821 l
734.82457 109.867582 l
738.937592 109.97392 l
743.050614 110.279284 l
747.163636 110.568463 l
747.163636 114.814478 l
747.163636 114.814478 l
743.050614 115.102009 l
738.937592 115.553102 l
734.82457 115.953356 l
730.711548 116.609733 l
726.598526 117.835209 l
722.485504 119.274151 l
718.372482 119.723868 l
714.259459 120.976582 l
710.146437 121.788647 l
706.033415 121.757791 l
701.920393 122.57843 l
697.807371 123.46002 l
693.694349 123.583207 l
689.581327 122.594702 l
685.468305 121.36868 l
681.355283 119.824817 l
677.24226 118.79296 l
673.129238 118.18024 l
669.016216 118.374188 l
664.903194 118.55218 l
660.790172 118.761572 l
656.67715 118.995274 l
652.564128 119.028837 l
648.451106 119.31644 l
644.338084 119.839151 l
640.225061 120.581847 l
636.112039 120.856852 l
631.999017 121.100039 l
627.885995 121.441465 l
623.772973 121.780307 l
619.659951 122.068801 l
615.546929 122.405313 l
611.433907 122.864604 l
607.320885 123.324939 l
603.207862 123.743581 l
599.09484 124.124539 l
594.981818 124.571706 l
590.868796 124.922788 l
586.755774 125.199154 l
582.642752 125.631522 l
578.52973 126.045442 l
574.416708 126.677303 l
570.303686 127.202801 l
566.190663 127.487188 l
562.077641 127.776102 l
557.964619 128.060316 l
553.851597 128.402673 l
549.738575 128.70518 l
545.625553 129.07017 l
541.512531 129.583257 l
537.399509 130.093096 l
533.286486 130.727481 l
529.173464 131.500968 l
525.060442 132.270004 l
520.94742 133.039379 l
516.834398 133.412885 l
512.721376 133.969621 l
508.608354 134.316324 l
504.495332 134.801562 l
500.38231 135.313504 l
496.269287 136.063653 l
492.156265 136.720836 l
488.043243 137.509421 l
483.930221 138.213181 l
479.817199 138.730051 l
475.704177 139.324244 l
471.591155 140.345155 l
467.478133 141.101021 l
463.365111 142.321889 l
459.252088 143.713985 l
455.139066 144.294499 l
451.026044 144.531063 l
446.913022 144.651454 l
442.8 145.154145 l
438.686978 146.120963 l
434.573956 147.231371 l
430.460934 148.902266 l
426.347912 150.257561 l
422.234889 151.329315 l
418.121867 152.684438 l
414.008845 154.497616 l
409.895823 155.613612 l
405.782801 156.364017 l
401.669779 157.641712 l
397.556757 159.203709 l
393.443735 161.039419 l
389.330713 163.177093 l
385.21769 165.312657 l
381.104668 167.084896 l
376.991646 169.833262 l
372.878624 172.445628 l
368.765602 174.850024 l
364.65258 177.29801 l
360.539558 180.022752 l
356.426536 182.651644 l
352.313514 186.301131 l
348.200491 189.901068 l
344.087469 193.378271 l
339.974447 196.681001 l
335.861425 199.91831 l
331.748403 201.80868 l
327.635381 203.711902 l
323.522359 206.392826 l
319.409337 209.437466 l
315.296314 212.718952 l
311.183292 215.664695 l
307.07027 219.019674 l
302.957248 223.196299 l
298.844226 227.511891 l
294.731204 232.058815 l
290.618182 237.285909 l
286.50516 242.704002 l
282.392138 247.609439 l
278.279115 253.370856 l
274.166093 262.421204 l
270.053071 274.678522 l
265.940049 287.058033 l
261.827027 299.998566 l
257.714005 316.029876 l
253.600983 331.020471 l
249.487961 346.123776 l
245.374939 363.367742 l
241.261916 381.364935 l
237.148894 397.640987 l
233.035872 410.903064 l
228.92285 421.012108 l
224.809828 433.042391 l
220.696806 443.56514 l
216.583784 452.24528 l
212.470762 460.303314 l
208.35774 467.646683 l
204.244717 469.705446 l
200.131695 471.007786 l
196.018673 471.184281 l
191.905651 470.728471 l
187.792629 469.226196 l
183.679607 468.357214 l
179.566585 466.899417 l
175.453563 464.951244 l
171.340541 463.734709 l
167.227518 462.720426 l
163.114496 461.934584 l
159.001474 461.426189 l
154.888452 460.999048 l
150.77543 460.621714 l
146.662408 460.285997 l
142.549386 460.022116 l
138.436364 459.841485 l
cl
1.000 0.498 0.055 setrgbcolor
fill
grestore
gsave
669.6 434.9 108 72 clipbox
138.436364 459.862743 m
138.436364 459.821301 l
142.549386 459.906826 l
146.662408 460.028059 l
150.77543 460.171152 l
154.888452 460.364132 l
159.001474 460.585837 l
163.114496 460.821068 l
167.227518 460.922406 l
171.340541 461.145245 l
175.453563 461.218402 l
179.566585 461.743938 l
183.679607 462.131825 l
187.792629 461.939301 l
191.905651 461.837009 l
196.018673 461.806871 l
200.131695 461.555375 l
204.244717 460.192163 l
208.35774 458.445604 l
212.470762 454.712639 l
216.583784 447.427649 l
220.696806 438.095367 l
224.809828 430.158903 l
228.92285 418.427175 l
233.035872 405.78693 l
237.148894 390.31559 l
241.261916 370.151802 l
245.374939 345.271377 l
249.487961 323.995608 l
253.600983 304.466897 l
257.714005 287.154487 l
261.827027 271.894667 l
265.940049 257.426896 l
270.053071 244.821774 l
274.166093 233.520672 l
278.279115 223.457347 l
282.392138 213.255889 l
286.50516 203.309125 l
290.618182 195.539226 l
294.731204 189.122469 l
298.844226 183.670655 l
302.957248 179.138709 l
307.07027 174.152063 l
311.183292 170.108007 l
315.296314 166.35101 l
319.409337 163.333951 l
323.522359 160.289499 l
327.635381 157.218834 l
331.748403 154.489606 l
335.861425 151.431767 l
339.974447 148.130802 l
344.087469 145.109093 l
348.200491 142.515479 l
352.313514 140.121186 l
356.426536 137.988747 l
360.539558 136.354938 l
364.65258 134.795081 l
368.765602 133.516845 l
372.878624 131.803035 l
376.991646 130.354022 l
381.104668 129.1902 l
385.21769 127.842915 l
389.330713 126.469137 l
393.443735 125.007033 l
397.556757 124.264977 l
401.669779 122.881029 l
405.782801 121.504598 l
409.895823 120.043135 l
414.008845 118.827082 l
418.121867 117.843955 l
422.234889 117.005136 l
426.347912 115.947449 l
430.460934 115.113773 l
434.573956 114.423245 l
438.686978 113.636093 l
442.8 113.145525 l
446.913022 113.083552 l
451.026044 112.644 l
455.139066 112.06099 l
459.252088 111.45232 l
463.365111 111.129227 l
467.478133 110.644159 l
471.591155 110.031718 l
475.704177 109.61471 l
479.817199 108.776394 l
483.930221 107.611448 l
488.043243 106.178639 l
492.156265 104.906231 l
496.269287 104.317828 l
500.38231 104.375863 l
504.495332 104.285878 l
508.608354 103.911691 l
512.721376 103.619244 l
516.834398 103.415714 l
520.94742 103.570838 l
525.060442 104.159141 l
529.173464 105.257939 l
533.286486 104.990796 l
537.399509 104.546454 l
541.512531 103.328664 l
545.625553 102.31727 l
549.738575 101.756168 l
553.851597 101.476852 l
557.964619 101.534959 l
562.077641 102.610005 l
566.190663 103.844698 l
570.303686 105.658738 l
574.416708 107.130073 l
578.52973 107.617448 l
582.642752 106.97525 l
586.755774 105.675854 l
590.868796 103.948387 l
594.981818 102.577275 l
599.09484 101.164855 l
603.207862 99.616657 l
607.320885 98.228438 l
611.433907 97.749024 l
615.546929 98.170975 l
619.659951 98.847955 l
623.772973 99.076879 l
627.885995 99.368848 l
631.999017 99.594068 l
636.112039 99.307908 l
640.225061 99.035114 l
644.338084 98.978554 l
648.451106 98.951846 l
652.564128 98.713013 l
656.67715 98.174502 l
660.790172 97.685562 l
664.903194 97.517003 l
669.016216 97.503891 l
673.129238 97.424558 l
677.24226 97.513147 l
681.355283 97.512829 l
685.468305 97.402807 l
689.581327 97.229876 l
693.694349 97.041154 l
697.807371 96.923659 l
701.920393 96.824078 l
706.033415 96.640533 l
710.146437 96.57633 l
714.259459 96.576818 l
718.372482 96.519383 l
722.485504 96.409296 l
726.598526 96.353578 l
730.711548 96.362608 l
734.82457 96.399961 l
738.937592 96.368642 l
743.050614 96.358342 l
747.163636 96.448468 l
747.163636 102.752951 l
747.163636 102.752951 l
743.050614 102.783783 l
738.937592 102.504456 l
734.82457 102.317044 l
730.711548 102.285831 l
726.598526 102.418108 l
722.485504 102.645785 l
718.372482 102.864772 l
714.259459 103.210907 l
710.146437 103.716564 l
706.033415 103.889848 l
701.920393 103.818926 l
697.807371 103.659253 l
693.694349 103.573552 l
689.581327 103.574435 l
685.468305 103.776177 l
681.355283 104.152594 l
677.24226 104.723977 l
673.129238 105.066315 l
669.016216 105.229877 l
664.903194 105.33318 l
660.790172 105.877876 l
656.67715 106.055417 l
652.564128 106.124795 l
648.451106 106.440823 l
644.338084 107.130633 l
640.225061 107.795497 l
636.112039 108.62404 l
631.999017 109.867295 l
627.885995 111.120016 l
623.772973 111.91239 l
619.659951 114.098051 l
615.546929 116.892259 l
611.433907 119.261338 l
607.320885 121.773288 l
603.207862 123.697951 l
599.09484 124.501044 l
594.981818 125.508825 l
590.868796 126.694857 l
586.755774 127.55864 l
582.642752 128.107775 l
578.52973 127.565902 l
574.416708 128.572191 l
570.303686 129.400258 l
566.190663 128.399258 l
562.077641 126.839641 l
557.964619 124.834416 l
553.851597 120.699519 l
549.738575 116.386797 l
545.625553 112.830501 l
541.512531 110.294283 l
537.399509 109.313167 l
533.286486 109.968632 l
529.173464 111.364893 l
525.060442 114.047335 l
520.94742 116.083942 l
516.834398 118.305613 l
512.721376 120.57124 l
508.608354 123.399017 l
504.495332 125.580545 l
500.38231 127.837554 l
496.269287 129.340637 l
492.156265 129.005019 l
488.043243 126.311993 l
483.930221 123.018774 l
479.817199 120.456381 l
475.704177 117.743813 l
471.591155 117.438773 l
467.478133 117.610966 l
463.365111 117.472903 l
459.252088 117.56876 l
455.139066 118.56823 l
451.026044 119.395841 l
446.913022 120.307504 l
442.8 121.269637 l
438.686978 122.268168 l
434.573956 123.97783 l
430.460934 125.455038 l
426.347912 127.287253 l
422.234889 128.82574 l
418.121867 130.523813 l
414.008845 131.763597 l
409.895823 132.662017 l
405.782801 134.109906 l
401.669779 134.980998 l
397.556757 136.095905 l
393.443735 137.672807 l
389.330713 138.974761 l
385.21769 141.034454 l
381.104668 143.058437 l
376.991646 145.246264 l
372.878624 147.896662 l
368.765602 150.125737 l
364.65258 151.776877 l
360.539558 153.516073 l
356.426536 155.781588 l
352.313514 158.322218 l
348.200491 161.29706 l
344.087469 164.424333 l
339.974447 168.111106 l
335.861425 171.733728 l
331.748403 175.475054 l
327.635381 179.161183 l
323.522359 183.487401 l
319.409337 188.268226 l
315.296314 194.055551 l
311.183292 200.13288 l
307.07027 206.24149 l
302.957248 210.894458 l
298.844226 216.921641 l
294.731204 222.119785 l
290.618182 228.14619 l
286.50516 234.671745 l
282.392138 241.523427 l
278.279115 250.956422 l
274.166093 264.64715 l
270.053071 279.086191 l
265.940049 295.241108 l
261.827027 313.554988 l
257.714005 332.852637 l
253.600983 351.966601 l
249.487961 368.601135 l
245.374939 385.088609 l
241.261916 399.145843 l
237.148894 412.786048 l
233.035872 429.44813 l
228.92285 444.107318 l
224.809828 455.777253 l
220.696806 459.242004 l
216.583784 463.633286 l
212.470762 467.025684 l
208.35774 472.157116 l
204.244717 474.727152 l
200.131695 477.522394 l
196.018673 478.516015 l
191.905651 477.197566 l
187.792629 474.433924 l
183.679607 470.849068 l
179.566585 467.804132 l
175.453563 465.246074 l
171.340541 463.673893 l
167.227518 462.560859 l
163.114496 461.770495 l
159.001474 461.361102 l
154.888452 461.096512 l
150.77543 460.852325 l
146.662408 460.478957 l
142.549386 460.102888 l
138.436364 459.862743 l
cl
0.173 0.627 0.173 setrgbcolor
fill
grestore
0.800 setlinewidth
1 setlinejoin
0 setlinecap
[] 0 setdash
0.000 setgray
gsave
/o {
gsave
newpath
translate
0.8 setlinewidth
1 setlinejoin
0 setlinecap
0 0 m
0 -3.5 l

gsave
0.000 setgray
fill
grestore
stroke
grestore
} bind def
138.436 72 o
grestore
/DejaVuSans findfont
16.000 scalefont
setfont
gsave
133.342614 52.843750 translate
0.000000 rotate
0.000000 0.000000 m /zero glyphshow
grestore
gsave
/o {
gsave
newpath
translate
0.8 setlinewidth
1 setlinejoin
0 setlinecap
0 0 m
0 -3.5 l

gsave
0.000 setgray
fill
grestore
stroke
grestore
} bind def
220.697 72 o
grestore
gsave
210.509306 52.843750 translate
0.000000 rotate
0.000000 0.000000 m /two glyphshow
10.179688 0.000000 m /zero glyphshow
grestore
gsave
/o {
gsave
newpath
translate
0.8 setlinewidth
1 setlinejoin
0 setlinecap
0 0 m
0 -3.5 l

gsave
0.000 setgray
fill
grestore
stroke
grestore
} bind def
302.957 72 o
grestore
gsave
292.769748 52.843750 translate
0.000000 rotate
0.000000 0.000000 m /four glyphshow
10.179688 0.000000 m /zero glyphshow
grestore
gsave
/o {
gsave
newpath
translate
0.8 setlinewidth
1 setlinejoin
0 setlinecap
0 0 m
0 -3.5 l

gsave
0.000 setgray
fill
grestore
stroke
grestore
} bind def
385.218 72 o
grestore
gsave
375.030190 52.843750 translate
0.000000 rotate
0.000000 0.000000 m /six glyphshow
10.179688 0.000000 m /zero glyphshow
grestore
gsave
/o {
gsave
newpath
translate
0.8 setlinewidth
1 setlinejoin
0 setlinecap
0 0 m
0 -3.5 l

gsave
0.000 setgray
fill
grestore
stroke
grestore
} bind def
467.478 72 o
grestore
gsave
457.290633 52.843750 translate
0.000000 rotate
0.000000 0.000000 m /eight glyphshow
10.179688 0.000000 m /zero glyphshow
grestore
gsave
/o {
gsave
newpath
translate
0.8 setlinewidth
1 setlinejoin
0 setlinecap
0 0 m
0 -3.5 l

gsave
0.000 setgray
fill
grestore
stroke
grestore
} bind def
549.739 72 o
grestore
gsave
534.457325 52.843750 translate
0.000000 rotate
0.000000 0.000000 m /one glyphshow
10.179688 0.000000 m /zero glyphshow
20.359375 0.000000 m /zero glyphshow
grestore
gsave
/o {
gsave
newpath
translate
0.8 setlinewidth
1 setlinejoin
0 setlinecap
0 0 m
0 -3.5 l

gsave
0.000 setgray
fill
grestore
stroke
grestore
} bind def
631.999 72 o
grestore
gsave
616.717767 52.843750 translate
0.000000 rotate
0.000000 0.000000 m /one glyphshow
10.179688 0.000000 m /two glyphshow
20.359375 0.000000 m /zero glyphshow
grestore
gsave
/o {
gsave
newpath
translate
0.8 setlinewidth
1 setlinejoin
0 setlinecap
0 0 m
0 -3.5 l

gsave
0.000 setgray
fill
grestore
stroke
grestore
} bind def
714.259 72 o
grestore
gsave
698.978209 52.843750 translate
0.000000 rotate
0.000000 0.000000 m /one glyphshow
10.179688 0.000000 m /four glyphshow
20.359375 0.000000 m /zero glyphshow
grestore
gsave
365.651563 33.359375 translate
0.000000 rotate
0.000000 0.000000 m /N glyphshow
11.968750 0.000000 m /u glyphshow
22.109375 0.000000 m /m glyphshow
37.695312 0.000000 m /b glyphshow
47.851562 0.000000 m /e glyphshow
57.695312 0.000000 m /r glyphshow
64.273438 0.000000 m /space glyphshow
69.359375 0.000000 m /o glyphshow
79.148438 0.000000 m /f glyphshow
84.781250 0.000000 m /space glyphshow
89.867188 0.000000 m /R glyphshow
100.984375 0.000000 m /o glyphshow
110.773438 0.000000 m /l glyphshow
115.218750 0.000000 m /l glyphshow
119.664062 0.000000 m /o glyphshow
129.453125 0.000000 m /u glyphshow
139.593750 0.000000 m /t glyphshow
145.867188 0.000000 m /s glyphshow
grestore
gsave
/o {
gsave
newpath
translate
0.8 setlinewidth
1 setlinejoin
0 setlinecap
0 0 m
-3.5 0 l

gsave
0.000 setgray
fill
grestore
stroke
grestore
} bind def
108 92.3905 o
grestore
gsave
90.812500 86.312358 translate
0.000000 rotate
0.000000 0.000000 m /zero glyphshow
grestore
gsave
/o {
gsave
newpath
translate
0.8 setlinewidth
1 setlinejoin
0 setlinecap
0 0 m
-3.5 0 l

gsave
0.000 setgray
fill
grestore
stroke
grestore
} bind def
108 159.803 o
grestore
gsave
70.437500 153.724935 translate
0.000000 rotate
0.000000 0.000000 m /two glyphshow
10.179688 0.000000 m /zero glyphshow
20.359375 0.000000 m /zero glyphshow
grestore
gsave
/o {
gsave
newpath
translate
0.8 setlinewidth
1 setlinejoin
0 setlinecap
0 0 m
-3.5 0 l

gsave
0.000 setgray
fill
grestore
stroke
grestore
} bind def
108 227.216 o
grestore
gsave
70.437500 221.137513 translate
0.000000 rotate
0.000000 0.000000 m /four glyphshow
10.179688 0.000000 m /zero glyphshow
20.359375 0.000000 m /zero glyphshow
grestore
gsave
/o {
gsave
newpath
translate
0.8 setlinewidth
1 setlinejoin
0 setlinecap
0 0 m
-3.5 0 l

gsave
0.000 setgray
fill
grestore
stroke
grestore
} bind def
108 294.628 o
grestore
gsave
70.437500 288.550090 translate
0.000000 rotate
0.000000 0.000000 m /six glyphshow
10.179688 0.000000 m /zero glyphshow
20.359375 0.000000 m /zero glyphshow
grestore
gsave
/o {
gsave
newpath
translate
0.8 setlinewidth
1 setlinejoin
0 setlinecap
0 0 m
-3.5 0 l

gsave
0.000 setgray
fill
grestore
stroke
grestore
} bind def
108 362.041 o
grestore
gsave
70.437500 355.962668 translate
0.000000 rotate
0.000000 0.000000 m /eight glyphshow
10.179688 0.000000 m /zero glyphshow
20.359375 0.000000 m /zero glyphshow
grestore
gsave
/o {
gsave
newpath
translate
0.8 setlinewidth
1 setlinejoin
0 setlinecap
0 0 m
-3.5 0 l

gsave
0.000 setgray
fill
grestore
stroke
grestore
} bind def
108 429.453 o
grestore
gsave
60.250000 423.375245 translate
0.000000 rotate
0.000000 0.000000 m /one glyphshow
10.179688 0.000000 m /zero glyphshow
20.359375 0.000000 m /zero glyphshow
30.539062 0.000000 m /zero glyphshow
grestore
gsave
/o {
gsave
newpath
translate
0.8 setlinewidth
1 setlinejoin
0 setlinecap
0 0 m
-3.5 0 l

gsave
0.000 setgray
fill
grestore
stroke
grestore
} bind def
108 496.866 o
grestore
gsave
60.250000 490.787823 translate
0.000000 rotate
0.000000 0.000000 m /one glyphshow
10.179688 0.000000 m /two glyphshow
20.359375 0.000000 m /zero glyphshow
30.539062 0.000000 m /zero glyphshow
grestore
gsave
52.921875 200.072812 translate
90.000000 rotate
0.000000 0.000000 m /A glyphshow
10.945312 0.000000 m /v glyphshow
20.414062 0.000000 m /e glyphshow
30.257812 0.000000 m /r glyphshow
36.835938 0.000000 m /a glyphshow
46.640625 0.000000 m /g glyphshow
56.796875 0.000000 m /e glyphshow
66.640625 0.000000 m /space glyphshow
71.726562 0.000000 m /R glyphshow
82.843750 0.000000 m /u glyphshow
92.984375 0.000000 m /n glyphshow
103.125000 0.000000 m /n glyphshow
113.265625 0.000000 m /i glyphshow
117.710938 0.000000 m /n glyphshow
127.851562 0.000000 m /g glyphshow
138.007812 0.000000 m /space glyphshow
143.093750 0.000000 m /C glyphshow
154.265625 0.000000 m /o glyphshow
164.054688 0.000000 m /s glyphshow
172.390625 0.000000 m /t glyphshow
grestore
1.500 setlinewidth
2 setlinecap
0.122 0.467 0.706 setrgbcolor
gsave
669.6 434.9 108 72 clipbox
138.436364 459.794986 m
146.662408 459.987593 l
154.888452 460.626473 l
163.114496 461.199349 l
167.227518 461.205951 l
171.340541 461.018663 l
183.679607 459.745492 l
191.905651 460.098497 l
196.018673 460.350669 l
204.244717 459.561024 l
208.35774 459.050076 l
212.470762 458.159947 l
216.583784 456.754362 l
220.696806 455.879475 l
224.809828 452.671146 l
228.92285 447.78292 l
233.035872 440.773913 l
237.148894 432.500684 l
241.261916 419.926127 l
245.374939 405.052883 l
253.600983 374.338284 l
265.940049 331.424419 l
270.053071 317.796846 l
274.166093 305.014777 l
282.392138 280.464211 l
290.618182 259.347017 l
294.731204 249.855604 l
298.844226 240.839283 l
302.957248 233.653492 l
311.183292 218.32896 l
315.296314 209.789326 l
319.409337 202.291544 l
323.522359 195.948742 l
327.635381 191.105915 l
331.748403 186.01499 l
335.861425 181.126438 l
339.974447 177.101091 l
344.087469 172.698608 l
348.200491 168.037602 l
352.313514 163.042073 l
356.426536 158.569471 l
360.539558 154.398242 l
364.65258 151.254212 l
368.765602 148.708907 l
376.991646 145.724809 l
381.104668 143.651361 l
385.21769 141.252554 l
393.443735 135.31029 l
397.556757 132.616991 l
401.669779 130.606112 l
405.782801 128.768482 l
409.895823 127.057138 l
414.008845 125.793215 l
422.234889 123.700651 l
426.347912 122.404137 l
430.460934 120.815258 l
434.573956 118.789296 l
438.686978 117.172351 l
442.8 116.309736 l
446.913022 115.826369 l
455.139066 115.262077 l
463.365111 113.732738 l
467.478133 112.881034 l
483.930221 111.822191 l
488.043243 110.877878 l
492.156265 109.574891 l
496.269287 107.960988 l
500.38231 106.993148 l
504.495332 106.318842 l
516.834398 107.571816 l
520.94742 107.697088 l
525.060442 108.146373 l
533.286486 107.351439 l
537.399509 106.177523 l
541.512531 104.269412 l
545.625553 102.686809 l
549.738575 101.475524 l
553.851597 100.695095 l
557.964619 100.592926 l
562.077641 101.844051 l
566.190663 101.151614 l
570.303686 100.587935 l
574.416708 100.52913 l
578.52973 99.340801 l
582.642752 98.981825 l
590.868796 98.025252 l
594.981818 97.640367 l
603.207862 97.17102 l
611.433907 97.423734 l
615.546929 97.68361 l
619.659951 97.712596 l
623.772973 97.619043 l
631.999017 97.122161 l
636.112039 96.945154 l
644.338084 96.354476 l
652.564128 96.131303 l
660.790172 96.051336 l
673.129238 95.860535 l
681.355283 95.923083 l
685.468305 95.942042 l
701.920393 95.436354 l
706.033415 95.367288 l
714.259459 95.511826 l
718.372482 95.427927 l
726.598526 95.736679 l
747.163636 95.378523 l
747.163636 95.378523 l
stroke
grestore
1.000 0.498 0.055 setrgbcolor
gsave
669.6 434.9 108 72 clipbox
138.436364 459.826037 m
146.662408 460.137506 l
163.114496 460.9797 l
167.227518 461.5051 l
171.340541 462.288309 l
175.453563 463.392028 l
183.679607 466.084127 l
187.792629 466.575809 l
191.905651 466.893303 l
196.018673 466.180022 l
200.131695 464.373795 l
204.244717 462.031392 l
208.35774 459.385944 l
212.470762 453.193664 l
216.583784 444.889635 l
220.696806 434.959268 l
224.809828 423.084201 l
233.035872 396.011709 l
237.148894 380.736902 l
241.261916 363.891389 l
245.374939 345.364901 l
249.487961 327.785682 l
253.600983 312.172412 l
257.714005 298.235182 l
261.827027 285.385499 l
265.940049 273.832019 l
270.053071 262.856568 l
274.166093 252.320478 l
278.279115 243.29446 l
282.392138 236.339632 l
290.618182 224.321629 l
294.731204 218.624522 l
298.844226 213.58735 l
302.957248 208.34968 l
307.07027 203.354071 l
311.183292 199.320428 l
315.296314 195.907116 l
319.409337 192.890372 l
323.522359 190.067716 l
327.635381 187.567216 l
339.974447 180.745818 l
344.087469 178.331253 l
352.313514 173.702627 l
356.426536 171.292941 l
372.878624 162.867037 l
376.991646 160.634899 l
381.104668 158.632402 l
385.21769 157.294317 l
389.330713 155.35018 l
393.443735 153.252613 l
401.669779 149.608567 l
405.782801 147.991493 l
418.121867 144.355408 l
426.347912 142.343972 l
438.686978 138.948791 l
442.8 138.005082 l
446.913022 137.425442 l
451.026044 137.179738 l
459.252088 136.395707 l
467.478133 134.799099 l
471.591155 134.146112 l
479.817199 132.501614 l
488.043243 131.120742 l
500.38231 129.433938 l
516.834398 127.704165 l
520.94742 127.433605 l
533.286486 126.009535 l
566.190663 122.656267 l
570.303686 122.31945 l
578.52973 121.403314 l
586.755774 120.693941 l
590.868796 120.501597 l
607.320885 118.990061 l
619.659951 118.011151 l
627.885995 117.365331 l
631.999017 117.019892 l
640.225061 116.760564 l
648.451106 116.112132 l
656.67715 116.109493 l
660.790172 116.2261 l
669.016216 116.248884 l
673.129238 116.299253 l
681.355283 117.012536 l
685.468305 117.365129 l
693.694349 117.709536 l
697.807371 117.495515 l
710.146437 116.341927 l
714.259459 115.539045 l
718.372482 114.570741 l
730.711548 113.090777 l
738.937592 112.763511 l
747.163636 112.691471 l
747.163636 112.691471 l
stroke
grestore
0.173 0.627 0.173 setrgbcolor
gsave
669.6 434.9 108 72 clipbox
138.436364 459.842022 m
146.662408 460.253508 l
163.114496 461.295781 l
167.227518 461.741632 l
171.340541 462.409569 l
175.453563 463.232238 l
179.566585 464.774035 l
187.792629 468.186613 l
191.905651 469.517288 l
196.018673 470.161443 l
200.131695 469.538885 l
208.35774 465.30136 l
212.470762 460.869162 l
216.583784 455.530468 l
220.696806 448.668685 l
224.809828 442.968078 l
228.92285 431.267247 l
233.035872 417.61753 l
237.148894 401.550819 l
241.261916 384.648823 l
245.374939 365.179993 l
249.487961 346.298372 l
257.714005 310.003562 l
261.827027 292.724828 l
265.940049 276.334002 l
270.053071 261.953982 l
274.166093 249.083911 l
278.279115 237.206885 l
282.392138 227.389658 l
286.50516 218.990435 l
290.618182 211.842708 l
294.731204 205.621127 l
302.957248 195.016583 l
307.07027 190.196776 l
315.296314 180.203281 l
319.409337 175.801089 l
323.522359 171.88845 l
327.635381 168.190008 l
331.748403 164.98233 l
344.087469 154.766713 l
348.200491 151.906269 l
352.313514 149.221702 l
356.426536 146.885168 l
360.539558 144.935505 l
364.65258 143.285979 l
368.765602 141.821291 l
376.991646 137.800143 l
389.330713 132.721949 l
393.443735 131.33992 l
405.782801 127.807252 l
409.895823 126.352576 l
418.121867 124.183884 l
438.686978 117.95213 l
442.8 117.207581 l
446.913022 116.695528 l
455.139066 115.31461 l
459.252088 114.51054 l
467.478133 114.127562 l
471.591155 113.735246 l
475.704177 113.679261 l
479.817199 114.616387 l
483.930221 115.315111 l
488.043243 116.245316 l
492.156265 116.955625 l
496.269287 116.829232 l
500.38231 116.106708 l
508.608354 113.655354 l
512.721376 112.095242 l
516.834398 110.860664 l
520.94742 109.82739 l
529.173464 108.311416 l
533.286486 107.479714 l
537.399509 106.92981 l
541.512531 106.811473 l
545.625553 107.573885 l
549.738575 109.071483 l
557.964619 113.184687 l
562.077641 114.724823 l
570.303686 117.529498 l
574.416708 117.851132 l
578.52973 117.591675 l
582.642752 117.541513 l
586.755774 116.617247 l
599.09484 112.83295 l
603.207862 111.657304 l
607.320885 110.000863 l
611.433907 108.505181 l
623.772973 105.494634 l
627.885995 105.244432 l
631.999017 104.730681 l
636.112039 103.965974 l
640.225061 103.415306 l
652.564128 102.418904 l
664.903194 101.425092 l
673.129238 101.245436 l
677.24226 101.118562 l
685.468305 100.589492 l
693.694349 100.307353 l
710.146437 100.146447 l
718.372482 99.692077 l
726.598526 99.385843 l
734.82457 99.358502 l
747.163636 99.600709 l
747.163636 99.600709 l
stroke
grestore
0.839 0.153 0.157 setrgbcolor
gsave
669.6 434.9 108 72 clipbox
138.436364 459.78903 m
142.549386 486.729805 l
146.662408 462.937873 l
150.77543 482.556593 l
154.888452 464.079529 l
159.001474 474.281802 l
163.114496 459.610867 l
167.227518 461.550494 l
171.340541 449.349323 l
175.453563 445.356247 l
179.566585 434.610201 l
183.679607 426.797193 l
191.905651 407.088735 l
196.018673 397.804509 l
200.131695 386.825309 l
204.244717 377.82143 l
208.35774 366.674527 l
212.470762 358.196447 l
216.583784 347.367494 l
220.696806 339.288782 l
224.809828 328.821354 l
228.92285 321.2279 l
233.035872 311.63112 l
237.148894 304.514423 l
241.261916 295.459705 l
245.374939 288.630142 l
249.487961 280.28457 l
253.600983 273.902979 l
257.714005 266.149777 l
261.827027 260.164953 l
265.940049 253.040846 l
270.053071 247.397685 l
274.166093 240.826677 l
278.279115 235.538588 l
282.392138 229.486516 l
286.50516 224.60042 l
290.618182 219.067695 l
294.731204 214.446738 l
298.844226 209.286683 l
302.957248 205.008856 l
307.07027 200.2785 l
311.183292 196.246861 l
315.296314 191.834662 l
319.409337 188.036417 l
323.522359 183.950277 l
327.635381 180.390422 l
331.748403 176.61565 l
335.861425 173.280261 l
339.974447 169.800167 l
352.313514 160.604873 l
356.426536 157.644314 l
364.65258 152.254022 l
372.878624 147.29989 l
381.104668 142.746233 l
389.330713 138.591315 l
397.556757 134.823144 l
405.782801 131.400588 l
414.008845 128.310004 l
422.234889 125.528789 l
430.460934 123.033745 l
438.686978 120.803337 l
446.913022 118.817025 l
455.139066 117.053905 l
463.365111 115.495873 l
471.591155 114.124554 l
479.817199 112.921536 l
492.156265 111.392418 l
504.495332 110.155277 l
516.834398 109.146366 l
533.286486 108.103999 l
553.851597 107.144943 l
574.416708 106.430427 l
607.320885 105.592664 l
644.338084 104.907153 l
685.468305 104.378668 l
734.82457 103.998051 l
747.163636 103.928205 l
747.163636 103.928205 l
stroke
grestore
0.580 0.404 0.741 setrgbcolor
gsave
669.6 434.9 108 72 clipbox
138.436364 459.78903 m
142.549386 487.112727 l
146.662408 463.013683 l
150.77543 483.214726 l
154.888452 464.430118 l
159.001474 475.222988 l
163.114496 460.227046 l
167.227518 462.667775 l
171.340541 450.108409 l
175.453563 446.354116 l
179.566585 435.344629 l
183.679607 427.80208 l
191.905651 408.104727 l
196.018673 398.729986 l
200.131695 387.774112 l
204.244717 378.735363 l
208.35774 367.393263 l
212.470762 358.669726 l
216.583784 347.370315 l
220.696806 338.957974 l
224.809828 328.138805 l
228.92285 320.08073 l
233.035872 309.936513 l
237.148894 302.398654 l
241.261916 292.939462 l
245.374939 285.796598 l
249.487961 277.038367 l
253.600983 270.227254 l
257.714005 262.082002 l
261.827027 255.74321 l
265.940049 248.344242 l
270.053071 242.491322 l
274.166093 235.653141 l
278.279115 230.093539 l
282.392138 223.677441 l
286.50516 218.443778 l
290.618182 212.511819 l
294.731204 207.553389 l
298.844226 202.089874 l
302.957248 197.451566 l
307.07027 192.470619 l
311.183292 188.146503 l
315.296314 183.49003 l
319.409337 179.430472 l
323.522359 175.138974 l
327.635381 171.342573 l
331.748403 167.353289 l
344.087469 156.877294 l
348.200491 153.527185 l
356.426536 147.435228 l
364.65258 141.857682 l
372.878624 136.756655 l
381.104668 132.132866 l
389.330713 127.959103 l
397.556757 124.196686 l
405.782801 120.834319 l
414.008845 117.844619 l
422.234889 115.198147 l
430.460934 112.866737 l
438.686978 110.825318 l
446.913022 109.040856 l
455.139066 107.496408 l
463.365111 106.1611 l
471.591155 105.013352 l
479.817199 104.028177 l
492.156265 102.807177 l
504.495332 101.859871 l
516.834398 101.113939 l
533.286486 100.368738 l
557.964619 99.579637 l
607.320885 98.40372 l
669.016216 96.933736 l
734.82457 95.456247 l
747.163636 95.216822 l
747.163636 95.216822 l
stroke
grestore
0.800 setlinewidth
0 setlinejoin
[] 0 setdash
0.000 setgray
gsave
108 72 m
108 506.88 l
stroke
grestore
gsave
777.6 72 m
777.6 506.88 l
stroke
grestore
gsave
108 72 m
777.6 72 l
stroke
grestore
gsave
108 506.88 m
777.6 506.88 l
stroke
grestore
/DejaVuSans findfont
19.200 scalefont
setfont
gsave
268.253125 512.880000 translate
0.000000 rotate
0.000000 0.000000 m /C glyphshow
13.397522 0.000000 m /o glyphshow
25.136749 0.000000 m /m glyphshow
43.827698 0.000000 m /p glyphshow
56.007263 0.000000 m /a glyphshow
67.765228 0.000000 m /r glyphshow
75.653839 0.000000 m /i glyphshow
80.984741 0.000000 m /s glyphshow
90.981354 0.000000 m /o glyphshow
102.720581 0.000000 m /n glyphshow
114.881409 0.000000 m /space glyphshow
120.980560 0.000000 m /o glyphshow
132.719788 0.000000 m /f glyphshow
139.474762 0.000000 m /space glyphshow
145.573914 0.000000 m /d glyphshow
157.753479 0.000000 m /i glyphshow
163.084381 0.000000 m /f glyphshow
169.839355 0.000000 m /f glyphshow
176.594330 0.000000 m /e glyphshow
188.399139 0.000000 m /r glyphshow
196.287750 0.000000 m /e glyphshow
208.092560 0.000000 m /n glyphshow
220.253387 0.000000 m /t glyphshow
227.776611 0.000000 m /space glyphshow
233.875763 0.000000 m /W glyphshow
252.847778 0.000000 m /i glyphshow
258.178680 0.000000 m /n glyphshow
270.339508 0.000000 m /d glyphshow
282.519073 0.000000 m /space glyphshow
288.618225 0.000000 m /F glyphshow
299.639160 0.000000 m /a glyphshow
311.397125 0.000000 m /c glyphshow
321.946503 0.000000 m /t glyphshow
329.469727 0.000000 m /o glyphshow
341.208954 0.000000 m /r glyphshow
grestore
1.000 setlinewidth
0 setlinecap
0.800 setgray
gsave
502.3875 376.658125 m
766.4 376.658125 l
768.533333 376.658125 769.6 377.724792 769.6 379.858125 c
769.6 495.68 l
769.6 497.813333 768.533333 498.88 766.4 498.88 c
502.3875 498.88 l
500.254167 498.88 499.1875 497.813333 499.1875 495.68 c
499.1875 379.858125 l
499.1875 377.724792 500.254167 376.658125 502.3875 376.658125 c
cl
gsave
1.000 setgray
fill
grestore
stroke
grestore
1.500 setlinewidth
1 setlinejoin
2 setlinecap
[] 0 setdash
0.122 0.467 0.706 setrgbcolor
gsave
505.5875 485.92375 m
537.5875 485.92375 l
stroke
grestore
0.000 setgray
/DejaVuSans findfont
16.000 scalefont
setfont
gsave
550.387500 480.323750 translate
0.000000 rotate
0.000000 0.000000 m /N glyphshow
11.968750 0.000000 m /o glyphshow
21.757812 0.000000 m /space glyphshow
26.843750 0.000000 m /W glyphshow
42.664062 0.000000 m /i glyphshow
47.109375 0.000000 m /n glyphshow
57.250000 0.000000 m /d glyphshow
grestore
1.000 0.498 0.055 setrgbcolor
gsave
505.5875 462.439375 m
537.5875 462.439375 l
stroke
grestore
0.000 setgray
gsave
550.387500 456.839375 translate
0.000000 rotate
0.000000 0.000000 m /S glyphshow
10.156250 0.000000 m /a glyphshow
19.960938 0.000000 m /m glyphshow
35.546875 0.000000 m /p glyphshow
45.703125 0.000000 m /l glyphshow
50.148438 0.000000 m /i glyphshow
54.593750 0.000000 m /n glyphshow
64.734375 0.000000 m /g glyphshow
74.890625 0.000000 m /space glyphshow
79.976562 0.000000 m /w glyphshow
93.062500 0.000000 m /i glyphshow
97.507812 0.000000 m /t glyphshow
103.781250 0.000000 m /h glyphshow
113.921875 0.000000 m /o glyphshow
123.710938 0.000000 m /u glyphshow
133.851562 0.000000 m /t glyphshow
140.125000 0.000000 m /space glyphshow
145.210938 0.000000 m /W glyphshow
161.031250 0.000000 m /i glyphshow
165.476562 0.000000 m /n glyphshow
175.617188 0.000000 m /d glyphshow
grestore
0.173 0.627 0.173 setrgbcolor
gsave
505.5875 438.955 m
537.5875 438.955 l
stroke
grestore
0.000 setgray
gsave
550.387500 433.355000 translate
0.000000 rotate
0.000000 0.000000 m /S glyphshow
10.156250 0.000000 m /a glyphshow
19.960938 0.000000 m /m glyphshow
35.546875 0.000000 m /p glyphshow
45.703125 0.000000 m /l glyphshow
50.148438 0.000000 m /i glyphshow
54.593750 0.000000 m /n glyphshow
64.734375 0.000000 m /g glyphshow
74.890625 0.000000 m /space glyphshow
79.976562 0.000000 m /w glyphshow
93.062500 0.000000 m /i glyphshow
97.507812 0.000000 m /t glyphshow
103.781250 0.000000 m /h glyphshow
113.921875 0.000000 m /space glyphshow
119.007812 0.000000 m /W glyphshow
134.828125 0.000000 m /i glyphshow
139.273438 0.000000 m /n glyphshow
149.414062 0.000000 m /d glyphshow
159.570312 0.000000 m /space glyphshow
164.656250 0.000000 m /M glyphshow
178.460938 0.000000 m /o glyphshow
188.250000 0.000000 m /d glyphshow
198.406250 0.000000 m /e glyphshow
208.250000 0.000000 m /l glyphshow
grestore
0.839 0.153 0.157 setrgbcolor
gsave
505.5875 415.470625 m
537.5875 415.470625 l
stroke
grestore
0.000 setgray
gsave
550.387500 409.870625 translate
0.000000 rotate
0.000000 0.000000 m /L glyphshow
8.914062 0.000000 m /Q glyphshow
21.507812 0.000000 m /R glyphshow
grestore
0.580 0.404 0.741 setrgbcolor
gsave
505.5875 391.98625 m
537.5875 391.98625 l
stroke
grestore
0.000 setgray
gsave
550.387500 386.386250 translate
0.000000 rotate
0.000000 0.000000 m /I glyphshow
4.718750 0.000000 m /n glyphshow
14.859375 0.000000 m /t glyphshow
21.132812 0.000000 m /e glyphshow
30.976562 0.000000 m /g glyphshow
41.132812 0.000000 m /r glyphshow
47.710938 0.000000 m /a glyphshow
57.515625 0.000000 m /l glyphshow
61.960938 0.000000 m /space glyphshow
67.046875 0.000000 m /L glyphshow
75.960938 0.000000 m /Q glyphshow
88.554688 0.000000 m /R glyphshow
grestore

end
showpage
