%!PS-Adobe-3.0 EPSF-3.0
%%Title: C:\Users\wlkob\OneDrive\8_Masterarbeit\Programs Masterarbeit\xExperiment\Figures\Goal_AngleNoise.eps
%%Creator: matplotlib version 3.0.1, http://matplotlib.org/
%%CreationDate: Fri Mar 27 00:16:16 2020
%%Orientation: portrait
%%BoundingBox: -126 108 738 684
%%EndComments
%%BeginProlog
/mpldict 8 dict def
mpldict begin
/m { moveto } bind def
/l { lineto } bind def
/r { rlineto } bind def
/c { curveto } bind def
/cl { closepath } bind def
/box {
m
1 index 0 r
0 exch r
neg 0 r
cl
} bind def
/clipbox {
box
clip
newpath
} bind def
%!PS-Adobe-3.0 Resource-Font
%%Title: DejaVu Sans
%%Copyright: Copyright (c) 2003 by Bitstream, Inc. All Rights Reserved. Copyright (c) 2006 by Tavmjong Bah. All Rights Reserved. DejaVu changes are in public domain 
%%Creator: Converted from TrueType to type 3 by PPR
25 dict begin
/_d{bind def}bind def
/_m{moveto}_d
/_l{lineto}_d
/_cl{closepath eofill}_d
/_c{curveto}_d
/_sc{7 -1 roll{setcachedevice}{pop pop pop pop pop pop}ifelse}_d
/_e{exec}_d
/FontName /DejaVuSans def
/PaintType 0 def
/FontMatrix[.001 0 0 .001 0 0]def
/FontBBox[-1021 -463 1793 1232]def
/FontType 3 def
/Encoding [ /space /period /zero /one /two /three /four /five /six /eight /A /C /L /N /Q /R /a /b /d /e /f /g /i /l /m /n /o /p /r /s /t /u /v ] def
/FontInfo 10 dict dup begin
/FamilyName (DejaVu Sans) def
/FullName (DejaVu Sans) def
/Notice (Copyright (c) 2003 by Bitstream, Inc. All Rights Reserved. Copyright (c) 2006 by Tavmjong Bah. All Rights Reserved. DejaVu changes are in public domain ) def
/Weight (Book) def
/Version (Version 2.35) def
/ItalicAngle 0.0 def
/isFixedPitch false def
/UnderlinePosition -130 def
/UnderlineThickness 90 def
end readonly def
/CharStrings 34 dict dup begin
/.notdef 0 def
/space{318 0 0 0 0 0 _sc
}_d
/period{318 0 107 0 210 124 _sc
107 124 _m
210 124 _l
210 0 _l
107 0 _l
107 124 _l
_cl}_d
/zero{636 0 66 -13 570 742 _sc
318 664 _m
267 664 229 639 203 589 _c
177 539 165 464 165 364 _c
165 264 177 189 203 139 _c
229 89 267 64 318 64 _c
369 64 407 89 433 139 _c
458 189 471 264 471 364 _c
471 464 458 539 433 589 _c
407 639 369 664 318 664 _c
318 742 _m
399 742 461 709 505 645 _c
548 580 570 486 570 364 _c
570 241 548 147 505 83 _c
461 19 399 -13 318 -13 _c
236 -13 173 19 130 83 _c
87 147 66 241 66 364 _c
66 486 87 580 130 645 _c
173 709 236 742 318 742 _c
_cl}_d
/one{636 0 110 0 544 729 _sc
124 83 _m
285 83 _l
285 639 _l
110 604 _l
110 694 _l
284 729 _l
383 729 _l
383 83 _l
544 83 _l
544 0 _l
124 0 _l
124 83 _l
_cl}_d
/two{{636 0 73 0 536 742 _sc
192 83 _m
536 83 _l
536 0 _l
73 0 _l
73 83 _l
110 121 161 173 226 239 _c
290 304 331 346 348 365 _c
380 400 402 430 414 455 _c
426 479 433 504 433 528 _c
433 566 419 598 392 622 _c
365 646 330 659 286 659 _c
255 659 222 653 188 643 _c
154 632 117 616 78 594 _c
78 694 _l
118 710 155 722 189 730 _c
223 738 255 742 284 742 _c
}_e{359 742 419 723 464 685 _c
509 647 532 597 532 534 _c
532 504 526 475 515 449 _c
504 422 484 390 454 354 _c
446 344 420 317 376 272 _c
332 227 271 164 192 83 _c
_cl}_e}_d
/three{{636 0 76 -13 556 742 _sc
406 393 _m
453 383 490 362 516 330 _c
542 298 556 258 556 212 _c
556 140 531 84 482 45 _c
432 6 362 -13 271 -13 _c
240 -13 208 -10 176 -4 _c
144 1 110 10 76 22 _c
76 117 _l
103 101 133 89 166 81 _c
198 73 232 69 268 69 _c
330 69 377 81 409 105 _c
441 129 458 165 458 212 _c
458 254 443 288 413 312 _c
383 336 341 349 287 349 _c
}_e{202 349 _l
202 430 _l
291 430 _l
339 430 376 439 402 459 _c
428 478 441 506 441 543 _c
441 580 427 609 401 629 _c
374 649 336 659 287 659 _c
260 659 231 656 200 650 _c
169 644 135 635 98 623 _c
98 711 _l
135 721 170 729 203 734 _c
235 739 266 742 296 742 _c
370 742 429 725 473 691 _c
517 657 539 611 539 553 _c
539 513 527 479 504 451 _c
481 423 448 403 406 393 _c
_cl}_e}_d
/four{636 0 49 0 580 729 _sc
378 643 _m
129 254 _l
378 254 _l
378 643 _l
352 729 _m
476 729 _l
476 254 _l
580 254 _l
580 172 _l
476 172 _l
476 0 _l
378 0 _l
378 172 _l
49 172 _l
49 267 _l
352 729 _l
_cl}_d
/five{{636 0 77 -13 549 729 _sc
108 729 _m
495 729 _l
495 646 _l
198 646 _l
198 467 _l
212 472 227 476 241 478 _c
255 480 270 482 284 482 _c
365 482 429 459 477 415 _c
525 370 549 310 549 234 _c
549 155 524 94 475 51 _c
426 8 357 -13 269 -13 _c
238 -13 207 -10 175 -6 _c
143 -1 111 6 77 17 _c
77 116 _l
106 100 136 88 168 80 _c
199 72 232 69 267 69 _c
}_e{323 69 368 83 401 113 _c
433 143 450 183 450 234 _c
450 284 433 324 401 354 _c
368 384 323 399 267 399 _c
241 399 214 396 188 390 _c
162 384 135 375 108 363 _c
108 729 _l
_cl}_e}_d
/six{{636 0 70 -13 573 742 _sc
330 404 _m
286 404 251 388 225 358 _c
199 328 186 286 186 234 _c
186 181 199 139 225 109 _c
251 79 286 64 330 64 _c
374 64 409 79 435 109 _c
461 139 474 181 474 234 _c
474 286 461 328 435 358 _c
409 388 374 404 330 404 _c
526 713 _m
526 623 _l
501 635 476 644 451 650 _c
425 656 400 659 376 659 _c
310 659 260 637 226 593 _c
}_e{192 549 172 482 168 394 _c
187 422 211 444 240 459 _c
269 474 301 482 336 482 _c
409 482 467 459 509 415 _c
551 371 573 310 573 234 _c
573 159 550 99 506 54 _c
462 9 403 -13 330 -13 _c
246 -13 181 19 137 83 _c
92 147 70 241 70 364 _c
70 479 97 571 152 639 _c
206 707 280 742 372 742 _c
396 742 421 739 447 735 _c
472 730 498 723 526 713 _c
_cl}_e}_d
/eight{{636 0 68 -13 568 742 _sc
318 346 _m
271 346 234 333 207 308 _c
180 283 167 249 167 205 _c
167 161 180 126 207 101 _c
234 76 271 64 318 64 _c
364 64 401 76 428 102 _c
455 127 469 161 469 205 _c
469 249 455 283 429 308 _c
402 333 365 346 318 346 _c
219 388 _m
177 398 144 418 120 447 _c
96 476 85 511 85 553 _c
85 611 105 657 147 691 _c
188 725 245 742 318 742 _c
}_e{390 742 447 725 489 691 _c
530 657 551 611 551 553 _c
551 511 539 476 515 447 _c
491 418 459 398 417 388 _c
464 377 501 355 528 323 _c
554 291 568 251 568 205 _c
568 134 546 80 503 43 _c
459 5 398 -13 318 -13 _c
237 -13 175 5 132 43 _c
89 80 68 134 68 205 _c
68 251 81 291 108 323 _c
134 355 171 377 219 388 _c
183 544 _m
183 506 194 476 218 455 _c
}_e{242 434 275 424 318 424 _c
360 424 393 434 417 455 _c
441 476 453 506 453 544 _c
453 582 441 611 417 632 _c
393 653 360 664 318 664 _c
275 664 242 653 218 632 _c
194 611 183 582 183 544 _c
_cl}_e}_d
/A{684 0 8 0 676 729 _sc
342 632 _m
208 269 _l
476 269 _l
342 632 _l
286 729 _m
398 729 _l
676 0 _l
573 0 _l
507 187 _l
178 187 _l
112 0 _l
8 0 _l
286 729 _l
_cl}_d
/C{{698 0 56 -13 644 742 _sc
644 673 _m
644 569 _l
610 599 575 622 537 638 _c
499 653 460 661 418 661 _c
334 661 270 635 226 584 _c
182 533 160 460 160 364 _c
160 268 182 194 226 143 _c
270 92 334 67 418 67 _c
460 67 499 74 537 90 _c
575 105 610 128 644 159 _c
644 56 _l
609 32 572 15 534 4 _c
496 -7 455 -13 412 -13 _c
302 -13 215 20 151 87 _c
}_e{87 154 56 246 56 364 _c
56 481 87 573 151 641 _c
215 708 302 742 412 742 _c
456 742 497 736 535 725 _c
573 713 610 696 644 673 _c
_cl}_e}_d
/L{557 0 98 0 552 729 _sc
98 729 _m
197 729 _l
197 83 _l
552 83 _l
552 0 _l
98 0 _l
98 729 _l
_cl}_d
/N{748 0 98 0 650 729 _sc
98 729 _m
231 729 _l
554 119 _l
554 729 _l
650 729 _l
650 0 _l
517 0 _l
194 610 _l
194 0 _l
98 0 _l
98 729 _l
_cl}_d
/Q{{787 0 56 -128 731 742 _sc
394 662 _m
322 662 265 635 223 582 _c
181 528 160 456 160 364 _c
160 272 181 199 223 146 _c
265 92 322 66 394 66 _c
465 66 522 92 564 146 _c
606 199 627 272 627 364 _c
627 456 606 528 564 582 _c
522 635 465 662 394 662 _c
532 13 _m
662 -128 _l
543 -128 _l
435 -11 _l
424 -11 416 -12 410 -12 _c
404 -12 399 -13 394 -13 _c
291 -13 209 21 148 89 _c
}_e{86 157 56 248 56 364 _c
56 479 86 571 148 639 _c
209 707 291 742 394 742 _c
496 742 577 707 639 639 _c
700 571 731 479 731 364 _c
731 279 714 206 680 146 _c
646 86 596 41 532 13 _c
_cl}_e}_d
/R{{695 0 98 0 666 729 _sc
444 342 _m
465 334 486 319 506 296 _c
526 272 546 240 566 199 _c
666 0 _l
560 0 _l
467 187 _l
443 235 419 268 397 284 _c
374 300 343 308 304 308 _c
197 308 _l
197 0 _l
98 0 _l
98 729 _l
321 729 _l
404 729 466 711 507 677 _c
548 642 569 589 569 519 _c
569 473 558 434 537 404 _c
515 374 484 353 444 342 _c
197 648 _m
197 389 _l
321 389 _l
}_e{368 389 404 400 428 422 _c
452 444 465 476 465 519 _c
465 561 452 593 428 615 _c
404 637 368 648 321 648 _c
197 648 _l
_cl}_e}_d
/a{{613 0 60 -13 522 560 _sc
343 275 _m
270 275 220 266 192 250 _c
164 233 150 205 150 165 _c
150 133 160 107 181 89 _c
202 70 231 61 267 61 _c
317 61 357 78 387 114 _c
417 149 432 196 432 255 _c
432 275 _l
343 275 _l
522 312 _m
522 0 _l
432 0 _l
432 83 _l
411 49 385 25 355 10 _c
325 -5 287 -13 243 -13 _c
187 -13 142 2 109 33 _c
76 64 60 106 60 159 _c
}_e{60 220 80 266 122 298 _c
163 329 224 345 306 345 _c
432 345 _l
432 354 _l
432 395 418 427 391 450 _c
364 472 326 484 277 484 _c
245 484 215 480 185 472 _c
155 464 127 453 100 439 _c
100 522 _l
132 534 164 544 195 550 _c
226 556 256 560 286 560 _c
365 560 424 539 463 498 _c
502 457 522 395 522 312 _c
_cl}_e}_d
/b{{635 0 91 -13 580 760 _sc
487 273 _m
487 339 473 390 446 428 _c
418 466 381 485 334 485 _c
286 485 249 466 222 428 _c
194 390 181 339 181 273 _c
181 207 194 155 222 117 _c
249 79 286 61 334 61 _c
381 61 418 79 446 117 _c
473 155 487 207 487 273 _c
181 464 _m
199 496 223 520 252 536 _c
281 552 316 560 356 560 _c
422 560 476 533 518 481 _c
559 428 580 359 580 273 _c
}_e{580 187 559 117 518 65 _c
476 13 422 -13 356 -13 _c
316 -13 281 -5 252 10 _c
223 25 199 49 181 82 _c
181 0 _l
91 0 _l
91 760 _l
181 760 _l
181 464 _l
_cl}_e}_d
/d{{635 0 55 -13 544 760 _sc
454 464 _m
454 760 _l
544 760 _l
544 0 _l
454 0 _l
454 82 _l
435 49 411 25 382 10 _c
353 -5 319 -13 279 -13 _c
213 -13 159 13 117 65 _c
75 117 55 187 55 273 _c
55 359 75 428 117 481 _c
159 533 213 560 279 560 _c
319 560 353 552 382 536 _c
411 520 435 496 454 464 _c
148 273 _m
148 207 161 155 188 117 _c
215 79 253 61 301 61 _c
}_e{348 61 385 79 413 117 _c
440 155 454 207 454 273 _c
454 339 440 390 413 428 _c
385 466 348 485 301 485 _c
253 485 215 466 188 428 _c
161 390 148 339 148 273 _c
_cl}_e}_d
/e{{615 0 55 -13 562 560 _sc
562 296 _m
562 252 _l
149 252 _l
153 190 171 142 205 110 _c
238 78 284 62 344 62 _c
378 62 412 66 444 74 _c
476 82 509 95 541 113 _c
541 28 _l
509 14 476 3 442 -3 _c
408 -9 373 -13 339 -13 _c
251 -13 182 12 131 62 _c
80 112 55 181 55 268 _c
55 357 79 428 127 481 _c
175 533 241 560 323 560 _c
397 560 455 536 498 489 _c
}_e{540 441 562 377 562 296 _c
472 322 _m
471 371 457 410 431 440 _c
404 469 368 484 324 484 _c
274 484 234 469 204 441 _c
174 413 156 373 152 322 _c
472 322 _l
_cl}_e}_d
/f{352 0 23 0 371 760 _sc
371 760 _m
371 685 _l
285 685 _l
253 685 230 678 218 665 _c
205 652 199 629 199 595 _c
199 547 _l
347 547 _l
347 477 _l
199 477 _l
199 0 _l
109 0 _l
109 477 _l
23 477 _l
23 547 _l
109 547 _l
109 585 _l
109 645 123 690 151 718 _c
179 746 224 760 286 760 _c
371 760 _l
_cl}_d
/g{{635 0 55 -207 544 560 _sc
454 280 _m
454 344 440 395 414 431 _c
387 467 349 485 301 485 _c
253 485 215 467 188 431 _c
161 395 148 344 148 280 _c
148 215 161 165 188 129 _c
215 93 253 75 301 75 _c
349 75 387 93 414 129 _c
440 165 454 215 454 280 _c
544 68 _m
544 -24 523 -93 482 -139 _c
440 -184 377 -207 292 -207 _c
260 -207 231 -204 203 -200 _c
175 -195 147 -188 121 -178 _c
}_e{121 -91 _l
147 -105 173 -115 199 -122 _c
225 -129 251 -133 278 -133 _c
336 -133 380 -117 410 -87 _c
439 -56 454 -10 454 52 _c
454 96 _l
435 64 411 40 382 24 _c
353 8 319 0 279 0 _c
211 0 157 25 116 76 _c
75 127 55 195 55 280 _c
55 364 75 432 116 483 _c
157 534 211 560 279 560 _c
319 560 353 552 382 536 _c
411 520 435 496 454 464 _c
454 547 _l
544 547 _l
}_e{544 68 _l
_cl}_e}_d
/i{278 0 94 0 184 760 _sc
94 547 _m
184 547 _l
184 0 _l
94 0 _l
94 547 _l
94 760 _m
184 760 _l
184 646 _l
94 646 _l
94 760 _l
_cl}_d
/l{278 0 94 0 184 760 _sc
94 760 _m
184 760 _l
184 0 _l
94 0 _l
94 760 _l
_cl}_d
/m{{974 0 91 0 889 560 _sc
520 442 _m
542 482 569 511 600 531 _c
631 550 668 560 711 560 _c
767 560 811 540 842 500 _c
873 460 889 403 889 330 _c
889 0 _l
799 0 _l
799 327 _l
799 379 789 418 771 444 _c
752 469 724 482 686 482 _c
639 482 602 466 575 435 _c
548 404 535 362 535 309 _c
535 0 _l
445 0 _l
445 327 _l
445 379 435 418 417 444 _c
398 469 369 482 331 482 _c
}_e{285 482 248 466 221 435 _c
194 404 181 362 181 309 _c
181 0 _l
91 0 _l
91 547 _l
181 547 _l
181 462 _l
201 495 226 520 255 536 _c
283 552 317 560 357 560 _c
397 560 430 550 458 530 _c
486 510 506 480 520 442 _c
_cl}_e}_d
/n{634 0 91 0 549 560 _sc
549 330 _m
549 0 _l
459 0 _l
459 327 _l
459 379 448 417 428 443 _c
408 469 378 482 338 482 _c
289 482 251 466 223 435 _c
195 404 181 362 181 309 _c
181 0 _l
91 0 _l
91 547 _l
181 547 _l
181 462 _l
202 494 227 519 257 535 _c
286 551 320 560 358 560 _c
420 560 468 540 500 501 _c
532 462 549 405 549 330 _c
_cl}_d
/o{612 0 55 -13 557 560 _sc
306 484 _m
258 484 220 465 192 427 _c
164 389 150 338 150 273 _c
150 207 163 156 191 118 _c
219 80 257 62 306 62 _c
354 62 392 80 420 118 _c
448 156 462 207 462 273 _c
462 337 448 389 420 427 _c
392 465 354 484 306 484 _c
306 560 _m
384 560 445 534 490 484 _c
534 433 557 363 557 273 _c
557 183 534 113 490 63 _c
445 12 384 -13 306 -13 _c
227 -13 165 12 121 63 _c
77 113 55 183 55 273 _c
55 363 77 433 121 484 _c
165 534 227 560 306 560 _c
_cl}_d
/p{{635 0 91 -207 580 560 _sc
181 82 _m
181 -207 _l
91 -207 _l
91 547 _l
181 547 _l
181 464 _l
199 496 223 520 252 536 _c
281 552 316 560 356 560 _c
422 560 476 533 518 481 _c
559 428 580 359 580 273 _c
580 187 559 117 518 65 _c
476 13 422 -13 356 -13 _c
316 -13 281 -5 252 10 _c
223 25 199 49 181 82 _c
487 273 _m
487 339 473 390 446 428 _c
418 466 381 485 334 485 _c
}_e{286 485 249 466 222 428 _c
194 390 181 339 181 273 _c
181 207 194 155 222 117 _c
249 79 286 61 334 61 _c
381 61 418 79 446 117 _c
473 155 487 207 487 273 _c
_cl}_e}_d
/r{411 0 91 0 411 560 _sc
411 463 _m
401 469 390 473 378 476 _c
366 478 353 480 339 480 _c
288 480 249 463 222 430 _c
194 397 181 350 181 288 _c
181 0 _l
91 0 _l
91 547 _l
181 547 _l
181 462 _l
199 495 224 520 254 536 _c
284 552 321 560 365 560 _c
371 560 378 559 386 559 _c
393 558 401 557 411 555 _c
411 463 _l
_cl}_d
/s{{521 0 54 -13 472 560 _sc
443 531 _m
443 446 _l
417 458 391 468 364 475 _c
336 481 308 485 279 485 _c
234 485 200 478 178 464 _c
156 450 145 430 145 403 _c
145 382 153 366 169 354 _c
185 342 217 330 265 320 _c
296 313 _l
360 299 405 279 432 255 _c
458 230 472 195 472 151 _c
472 100 452 60 412 31 _c
372 1 316 -13 246 -13 _c
216 -13 186 -10 154 -5 _c
}_e{122 0 89 8 54 20 _c
54 113 _l
87 95 120 82 152 74 _c
184 65 216 61 248 61 _c
290 61 323 68 346 82 _c
368 96 380 117 380 144 _c
380 168 371 187 355 200 _c
339 213 303 226 247 238 _c
216 245 _l
160 257 119 275 95 299 _c
70 323 58 356 58 399 _c
58 450 76 490 112 518 _c
148 546 200 560 268 560 _c
301 560 332 557 362 552 _c
391 547 418 540 443 531 _c
}_e{_cl}_e}_d
/t{392 0 27 0 368 702 _sc
183 702 _m
183 547 _l
368 547 _l
368 477 _l
183 477 _l
183 180 _l
183 135 189 106 201 94 _c
213 81 238 75 276 75 _c
368 75 _l
368 0 _l
276 0 _l
206 0 158 13 132 39 _c
106 65 93 112 93 180 _c
93 477 _l
27 477 _l
27 547 _l
93 547 _l
93 702 _l
183 702 _l
_cl}_d
/u{634 0 85 -13 543 560 _sc
85 216 _m
85 547 _l
175 547 _l
175 219 _l
175 167 185 129 205 103 _c
225 77 255 64 296 64 _c
344 64 383 79 411 110 _c
439 141 453 183 453 237 _c
453 547 _l
543 547 _l
543 0 _l
453 0 _l
453 84 _l
431 50 405 26 377 10 _c
348 -5 315 -13 277 -13 _c
214 -13 166 6 134 45 _c
101 83 85 140 85 216 _c
311 560 _m
311 560 _l
_cl}_d
/v{592 0 30 0 562 547 _sc
30 547 _m
125 547 _l
296 88 _l
467 547 _l
562 547 _l
357 0 _l
235 0 _l
30 547 _l
_cl}_d
end readonly def

/BuildGlyph
 {exch begin
 CharStrings exch
 2 copy known not{pop /.notdef}if
 true 3 1 roll get exec
 end}_d

/BuildChar {
 1 index /Encoding get exch get
 1 index /BuildGlyph get exec
}_d

FontName currentdict end definefont pop
end
%%EndProlog
mpldict begin
-126 108 translate
864 576 0 0 clipbox
gsave
0 0 m
864 0 l
864 576 l
0 576 l
cl
1.000 setgray
fill
grestore
gsave
108 72 m
777.6 72 l
777.6 506.88 l
108 506.88 l
cl
1.000 setgray
fill
grestore
gsave
669.6 434.9 108 72 clipbox
138.436364 226.034529 m
138.436364 226.02353 l
142.549386 226.060608 l
146.662408 226.097104 l
150.77543 226.123562 l
154.888452 226.193412 l
159.001474 226.283341 l
163.114496 226.353063 l
167.227518 226.537288 l
171.340541 226.827589 l
175.453563 227.31623 l
179.566585 228.189485 l
183.679607 228.969726 l
187.792629 229.417441 l
191.905651 229.64743 l
196.018673 229.533913 l
200.131695 228.584788 l
204.244717 227.164761 l
208.35774 225.504305 l
212.470762 222.513647 l
216.583784 218.857551 l
220.696806 215.664797 l
224.809828 211.096641 l
228.92285 206.500162 l
233.035872 202.234602 l
237.148894 197.89434 l
241.261916 192.412397 l
245.374939 187.168207 l
249.487961 182.270298 l
253.600983 178.103005 l
257.714005 174.101036 l
261.827027 170.670356 l
265.940049 167.682161 l
270.053071 165.148092 l
274.166093 162.387133 l
278.279115 159.99309 l
282.392138 158.130792 l
286.50516 156.735982 l
290.618182 155.839439 l
294.731204 155.47579 l
298.844226 155.10115 l
302.957248 154.76424 l
307.07027 154.186309 l
311.183292 153.356702 l
315.296314 152.47592 l
319.409337 151.618363 l
323.522359 150.51272 l
327.635381 149.417455 l
331.748403 148.132219 l
335.861425 146.878363 l
339.974447 145.678841 l
344.087469 144.731917 l
348.200491 143.920354 l
352.313514 143.377776 l
356.426536 142.876381 l
360.539558 142.351101 l
364.65258 141.743978 l
368.765602 141.165447 l
372.878624 140.74641 l
376.991646 140.480883 l
381.104668 140.109921 l
385.21769 139.628662 l
389.330713 139.03599 l
393.443735 138.295616 l
397.556757 137.206455 l
401.669779 135.981534 l
405.782801 134.649813 l
409.895823 132.830886 l
414.008845 131.278456 l
418.121867 129.744018 l
422.234889 128.047283 l
426.347912 126.716497 l
430.460934 125.683352 l
434.573956 124.47893 l
438.686978 123.885106 l
442.8 123.243581 l
446.913022 122.640189 l
451.026044 121.715344 l
455.139066 120.925382 l
459.252088 120.067855 l
463.365111 119.385589 l
467.478133 118.46941 l
471.591155 117.917356 l
475.704177 117.26698 l
479.817199 116.453925 l
483.930221 115.648557 l
488.043243 115.035718 l
492.156265 114.222396 l
496.269287 113.370195 l
500.38231 112.614721 l
504.495332 111.902249 l
508.608354 111.065445 l
512.721376 110.338932 l
516.834398 109.660844 l
520.94742 109.203075 l
525.060442 108.769552 l
529.173464 108.244436 l
533.286486 107.970809 l
537.399509 107.678668 l
541.512531 107.094701 l
545.625553 106.591453 l
549.738575 106.350116 l
553.851597 106.042514 l
557.964619 105.609158 l
562.077641 105.333675 l
566.190663 105.086267 l
570.303686 104.749427 l
574.416708 104.50994 l
578.52973 104.41939 l
582.642752 104.303521 l
586.755774 104.167997 l
590.868796 104.125737 l
594.981818 104.134195 l
599.09484 104.16449 l
603.207862 104.18531 l
607.320885 104.192317 l
611.433907 104.183906 l
615.546929 104.228276 l
619.659951 104.288877 l
623.772973 104.268259 l
627.885995 104.275105 l
631.999017 104.37445 l
636.112039 104.3749 l
640.225061 104.338327 l
644.338084 104.204241 l
648.451106 104.015694 l
652.564128 103.759649 l
656.67715 103.716344 l
660.790172 104.006755 l
664.903194 104.338096 l
669.016216 104.430981 l
673.129238 103.896037 l
677.24226 103.272998 l
681.355283 102.909233 l
685.468305 102.729311 l
689.581327 102.406389 l
693.694349 101.899794 l
697.807371 101.293557 l
701.920393 100.749619 l
706.033415 100.450292 l
710.146437 100.143343 l
714.259459 100.014107 l
718.372482 99.931097 l
722.485504 99.997813 l
726.598526 99.946329 l
730.711548 99.93243 l
734.82457 99.922074 l
738.937592 100.034088 l
743.050614 99.931531 l
747.163636 99.880941 l
747.163636 106.966524 l
747.163636 106.966524 l
743.050614 107.055685 l
738.937592 107.101527 l
734.82457 107.091308 l
730.711548 107.177372 l
726.598526 107.159189 l
722.485504 107.098853 l
718.372482 107.104046 l
714.259459 107.172251 l
710.146437 107.197292 l
706.033415 107.206534 l
701.920393 107.245947 l
697.807371 107.372159 l
693.694349 107.523571 l
689.581327 107.714648 l
685.468305 108.152296 l
681.355283 108.646282 l
677.24226 108.805312 l
673.129238 108.600403 l
669.016216 108.279991 l
664.903194 108.207086 l
660.790172 108.571979 l
656.67715 109.042699 l
652.564128 108.776633 l
648.451106 108.170863 l
644.338084 108.007402 l
640.225061 107.986271 l
636.112039 107.899797 l
631.999017 108.040551 l
627.885995 108.036149 l
623.772973 108.032666 l
619.659951 108.046003 l
615.546929 108.05968 l
611.433907 108.077747 l
607.320885 108.143785 l
603.207862 108.210708 l
599.09484 108.30085 l
594.981818 108.369609 l
590.868796 108.448701 l
586.755774 108.552785 l
582.642752 108.691165 l
578.52973 108.780824 l
574.416708 108.887434 l
570.303686 109.068853 l
566.190663 109.358239 l
562.077641 109.671503 l
557.964619 110.01119 l
553.851597 110.7168 l
549.738575 111.279939 l
545.625553 111.593226 l
541.512531 111.634336 l
537.399509 111.788256 l
533.286486 111.818103 l
529.173464 112.236453 l
525.060442 113.494471 l
520.94742 113.608921 l
516.834398 114.027902 l
512.721376 115.051084 l
508.608354 115.648631 l
504.495332 116.277741 l
500.38231 117.286961 l
496.269287 117.958998 l
492.156265 118.483062 l
488.043243 118.82121 l
483.930221 119.148701 l
479.817199 120.006415 l
475.704177 121.3745 l
471.591155 122.455034 l
467.478133 123.698298 l
463.365111 124.710753 l
459.252088 125.656855 l
455.139066 126.615924 l
451.026044 127.496339 l
446.913022 129.00477 l
442.8 130.722801 l
438.686978 132.695403 l
434.573956 134.584747 l
430.460934 136.222349 l
426.347912 137.48393 l
422.234889 138.836764 l
418.121867 139.940361 l
414.008845 141.812364 l
409.895823 143.685597 l
405.782801 145.537862 l
401.669779 147.554749 l
397.556757 149.110318 l
393.443735 149.812087 l
389.330713 150.132829 l
385.21769 150.281075 l
381.104668 150.329266 l
376.991646 150.804194 l
372.878624 151.227464 l
368.765602 151.605646 l
364.65258 151.918456 l
360.539558 151.935823 l
356.426536 152.26854 l
352.313514 152.497298 l
348.200491 152.963303 l
344.087469 153.591366 l
339.974447 154.56385 l
335.861425 155.783899 l
331.748403 157.140813 l
327.635381 158.64123 l
323.522359 160.272926 l
319.409337 161.832984 l
315.296314 162.925414 l
311.183292 163.983338 l
307.07027 164.679924 l
302.957248 164.820931 l
298.844226 165.503019 l
294.731204 166.272201 l
290.618182 166.858375 l
286.50516 166.979006 l
282.392138 167.569971 l
278.279115 168.355979 l
274.166093 169.816236 l
270.053071 172.209909 l
265.940049 175.595697 l
261.827027 179.660366 l
257.714005 184.398202 l
253.600983 189.52982 l
249.487961 193.894822 l
245.374939 198.574733 l
241.261916 202.603769 l
237.148894 207.233392 l
233.035872 211.865776 l
228.92285 217.11341 l
224.809828 221.727676 l
220.696806 225.442215 l
216.583784 228.423359 l
212.470762 229.961319 l
208.35774 231.684965 l
204.244717 233.115769 l
200.131695 234.760904 l
196.018673 235.441328 l
191.905651 235.185116 l
187.792629 233.604595 l
183.679607 231.897922 l
179.566585 230.31906 l
175.453563 228.990065 l
171.340541 228.075634 l
167.227518 227.264546 l
163.114496 226.751739 l
159.001474 226.454969 l
154.888452 226.311065 l
150.77543 226.252217 l
146.662408 226.170652 l
142.549386 226.098288 l
138.436364 226.034529 l
cl
0.122 0.467 0.706 setrgbcolor
fill
grestore
gsave
669.6 434.9 108 72 clipbox
138.436364 226.04265 m
138.436364 226.027031 l
142.549386 226.073349 l
146.662408 226.121596 l
150.77543 226.165613 l
154.888452 226.249116 l
159.001474 226.369426 l
163.114496 226.490853 l
167.227518 226.590169 l
171.340541 226.690261 l
175.453563 226.797371 l
179.566585 227.031386 l
183.679607 227.331503 l
187.792629 227.614618 l
191.905651 227.734497 l
196.018673 226.974803 l
200.131695 226.036333 l
204.244717 224.407007 l
208.35774 222.165582 l
212.470762 220.266225 l
216.583784 218.148601 l
220.696806 215.020924 l
224.809828 211.063385 l
228.92285 206.145421 l
233.035872 199.223791 l
237.148894 191.104656 l
241.261916 183.576121 l
245.374939 177.89508 l
249.487961 172.648304 l
253.600983 168.041777 l
257.714005 163.836242 l
261.827027 158.97813 l
265.940049 154.677049 l
270.053071 151.661264 l
274.166093 148.627198 l
278.279115 145.885241 l
282.392138 143.152644 l
286.50516 140.611398 l
290.618182 138.538714 l
294.731204 136.581547 l
298.844226 134.94428 l
302.957248 133.129333 l
307.07027 131.435194 l
311.183292 129.678126 l
315.296314 128.014923 l
319.409337 126.636143 l
323.522359 125.636166 l
327.635381 124.788401 l
331.748403 124.029209 l
335.861425 123.050824 l
339.974447 122.811373 l
344.087469 121.667995 l
348.200491 120.548031 l
352.313514 118.959451 l
356.426536 117.684327 l
360.539558 116.678304 l
364.65258 115.765238 l
368.765602 114.844857 l
372.878624 113.969314 l
376.991646 113.177961 l
381.104668 112.253396 l
385.21769 111.733734 l
389.330713 111.254727 l
393.443735 110.878661 l
397.556757 110.542628 l
401.669779 110.165438 l
405.782801 109.911958 l
409.895823 109.563142 l
414.008845 109.349343 l
418.121867 109.091581 l
422.234889 108.792298 l
426.347912 108.593144 l
430.460934 108.498629 l
434.573956 108.295885 l
438.686978 108.212865 l
442.8 108.006385 l
446.913022 107.909398 l
451.026044 107.873294 l
455.139066 107.776118 l
459.252088 107.445719 l
463.365111 107.135354 l
467.478133 106.997531 l
471.591155 106.840915 l
475.704177 106.648893 l
479.817199 106.673103 l
483.930221 106.627941 l
488.043243 106.511054 l
492.156265 106.403635 l
496.269287 106.111215 l
500.38231 105.873121 l
504.495332 105.598548 l
508.608354 105.645221 l
512.721376 105.621254 l
516.834398 105.602937 l
520.94742 105.418816 l
525.060442 105.219631 l
529.173464 105.052341 l
533.286486 104.973153 l
537.399509 104.877077 l
541.512531 104.790289 l
545.625553 104.736873 l
549.738575 104.661637 l
553.851597 104.327472 l
557.964619 103.928241 l
562.077641 103.638531 l
566.190663 103.289747 l
570.303686 102.924913 l
574.416708 102.650448 l
578.52973 102.472159 l
582.642752 102.374325 l
586.755774 102.263889 l
590.868796 102.076077 l
594.981818 101.908214 l
599.09484 102.007384 l
603.207862 102.086098 l
607.320885 101.903219 l
611.433907 101.60905 l
615.546929 101.117614 l
619.659951 100.905068 l
623.772973 100.74433 l
627.885995 100.576042 l
631.999017 100.485943 l
636.112039 100.480488 l
640.225061 100.560035 l
644.338084 100.645259 l
648.451106 100.511886 l
652.564128 100.28198 l
656.67715 100.138127 l
660.790172 100.137195 l
664.903194 100.064816 l
669.016216 100.138395 l
673.129238 100.210247 l
677.24226 100.338349 l
681.355283 100.328242 l
685.468305 100.455385 l
689.581327 100.56763 l
693.694349 100.758432 l
697.807371 100.85197 l
701.920393 100.774376 l
706.033415 100.673448 l
710.146437 100.709206 l
714.259459 100.74966 l
718.372482 100.730877 l
722.485504 100.771044 l
726.598526 100.781045 l
730.711548 100.797248 l
734.82457 100.726224 l
738.937592 100.657258 l
743.050614 100.511444 l
747.163636 100.21937 l
747.163636 104.801166 l
747.163636 104.801166 l
743.050614 105.027537 l
738.937592 105.308504 l
734.82457 105.367194 l
730.711548 105.368999 l
726.598526 105.335845 l
722.485504 105.39606 l
718.372482 105.540859 l
714.259459 105.887632 l
710.146437 106.241675 l
706.033415 106.453857 l
701.920393 106.511942 l
697.807371 106.335586 l
693.694349 106.171127 l
689.581327 106.020877 l
685.468305 105.975641 l
681.355283 105.955814 l
677.24226 105.995358 l
673.129238 105.986521 l
669.016216 106.043231 l
664.903194 106.092441 l
660.790172 106.051537 l
656.67715 106.054648 l
652.564128 106.134597 l
648.451106 106.236921 l
644.338084 106.353942 l
640.225061 106.445441 l
636.112039 106.538929 l
631.999017 106.788739 l
627.885995 107.0651 l
623.772973 107.258194 l
619.659951 107.674879 l
615.546929 107.956971 l
611.433907 107.720685 l
607.320885 107.692106 l
603.207862 108.0207 l
599.09484 108.711127 l
594.981818 109.152394 l
590.868796 108.781828 l
586.755774 108.376684 l
582.642752 108.131946 l
578.52973 107.948754 l
574.416708 107.932896 l
570.303686 108.004961 l
566.190663 108.039362 l
562.077641 108.053591 l
557.964619 108.090173 l
553.851597 108.184674 l
549.738575 108.394616 l
545.625553 108.580567 l
541.512531 108.84272 l
537.399509 109.226489 l
533.286486 109.375528 l
529.173464 109.394912 l
525.060442 109.447208 l
520.94742 109.403042 l
516.834398 109.517784 l
512.721376 109.787894 l
508.608354 110.052679 l
504.495332 110.236087 l
500.38231 110.473707 l
496.269287 110.640499 l
492.156265 110.921319 l
488.043243 111.111822 l
483.930221 111.197973 l
479.817199 111.395893 l
475.704177 111.748092 l
471.591155 112.108346 l
467.478133 112.55471 l
463.365111 112.856405 l
459.252088 112.900787 l
455.139066 112.89968 l
451.026044 113.139543 l
446.913022 113.307063 l
442.8 113.645834 l
438.686978 114.027437 l
434.573956 114.460788 l
430.460934 114.835236 l
426.347912 115.185268 l
422.234889 115.496889 l
418.121867 115.738374 l
414.008845 116.086464 l
409.895823 116.441236 l
405.782801 116.887962 l
401.669779 117.494722 l
397.556757 118.145764 l
393.443735 118.96272 l
389.330713 119.84074 l
385.21769 120.907234 l
381.104668 122.068088 l
376.991646 122.894957 l
372.878624 123.336899 l
368.765602 123.961805 l
364.65258 124.671392 l
360.539558 125.554193 l
356.426536 126.568772 l
352.313514 127.598155 l
348.200491 128.552367 l
344.087469 129.340067 l
339.974447 129.939846 l
335.861425 130.447953 l
331.748403 131.33462 l
327.635381 132.141636 l
323.522359 133.076076 l
319.409337 134.270201 l
315.296314 135.829855 l
311.183292 137.226268 l
307.07027 138.750377 l
302.957248 140.289526 l
298.844226 142.094851 l
294.731204 144.205278 l
290.618182 146.25639 l
286.50516 148.320444 l
282.392138 150.326235 l
278.279115 152.575032 l
274.166093 155.133618 l
270.053071 159.01877 l
265.940049 163.701981 l
261.827027 168.43108 l
257.714005 173.429657 l
253.600983 178.742221 l
249.487961 183.683799 l
245.374939 189.685233 l
241.261916 195.968878 l
237.148894 202.168329 l
233.035872 209.026296 l
228.92285 214.570497 l
224.809828 219.660475 l
220.696806 224.512023 l
216.583784 228.087918 l
212.470762 230.404603 l
208.35774 232.356299 l
204.244717 233.219515 l
200.131695 233.39541 l
196.018673 232.357685 l
191.905651 231.395691 l
187.792629 230.236685 l
183.679607 229.358823 l
179.566585 228.43169 l
175.453563 227.693645 l
171.340541 227.109198 l
167.227518 226.817939 l
163.114496 226.680719 l
159.001474 226.65487 l
154.888452 226.572768 l
150.77543 226.439466 l
146.662408 226.289134 l
142.549386 226.138616 l
138.436364 226.04265 l
cl
1.000 0.498 0.055 setrgbcolor
fill
grestore
gsave
669.6 434.9 108 72 clipbox
138.436364 226.039618 m
138.436364 226.024892 l
142.549386 226.068735 l
146.662408 226.119192 l
150.77543 226.207636 l
154.888452 226.33486 l
159.001474 226.424451 l
163.114496 226.524836 l
167.227518 226.548821 l
171.340541 226.500262 l
175.453563 226.316334 l
179.566585 226.368614 l
183.679607 226.105523 l
187.792629 225.656179 l
191.905651 225.063903 l
196.018673 224.468889 l
200.131695 223.409755 l
204.244717 222.38734 l
208.35774 220.901558 l
212.470762 218.707961 l
216.583784 214.845233 l
220.696806 210.099877 l
224.809828 205.109187 l
228.92285 199.787553 l
233.035872 194.426475 l
237.148894 190.395866 l
241.261916 186.789526 l
245.374939 182.597205 l
249.487961 177.782143 l
253.600983 173.548588 l
257.714005 169.037963 l
261.827027 164.115613 l
265.940049 159.392539 l
270.053071 155.465195 l
274.166093 152.181122 l
278.279115 148.99824 l
282.392138 145.915787 l
286.50516 143.626187 l
290.618182 141.66111 l
294.731204 139.731806 l
298.844226 137.712626 l
302.957248 136.062782 l
307.07027 134.641169 l
311.183292 133.029698 l
315.296314 130.958981 l
319.409337 128.97405 l
323.522359 127.434276 l
327.635381 125.903628 l
331.748403 124.52833 l
335.861425 123.434807 l
339.974447 122.21812 l
344.087469 121.236386 l
348.200491 120.297691 l
352.313514 118.870425 l
356.426536 117.455637 l
360.539558 116.512221 l
364.65258 115.717958 l
368.765602 115.322527 l
372.878624 114.914537 l
376.991646 114.173338 l
381.104668 113.580996 l
385.21769 113.00423 l
389.330713 112.360357 l
393.443735 111.478892 l
397.556757 110.899013 l
401.669779 110.453383 l
405.782801 110.095255 l
409.895823 109.631614 l
414.008845 109.351345 l
418.121867 109.182333 l
422.234889 109.235676 l
426.347912 109.123127 l
430.460934 108.926626 l
434.573956 108.528677 l
438.686978 108.206283 l
442.8 107.731186 l
446.913022 107.48797 l
451.026044 107.142985 l
455.139066 106.936903 l
459.252088 106.657527 l
463.365111 106.48362 l
467.478133 106.280596 l
471.591155 106.290389 l
475.704177 106.561413 l
479.817199 106.556476 l
483.930221 106.520736 l
488.043243 106.56286 l
492.156265 106.455283 l
496.269287 106.211901 l
500.38231 106.245244 l
504.495332 106.473221 l
508.608354 106.36684 l
512.721376 105.780309 l
516.834398 105.496735 l
520.94742 105.397201 l
525.060442 105.200733 l
529.173464 104.732938 l
533.286486 104.419123 l
537.399509 104.601989 l
541.512531 104.812502 l
545.625553 105.128084 l
549.738575 105.102251 l
553.851597 104.532407 l
557.964619 103.86992 l
562.077641 103.187594 l
566.190663 102.394699 l
570.303686 101.872099 l
574.416708 101.072843 l
578.52973 100.698742 l
582.642752 100.420097 l
586.755774 100.0651 l
590.868796 99.832956 l
594.981818 99.650104 l
599.09484 99.853009 l
603.207862 100.017194 l
607.320885 100.113489 l
611.433907 99.868632 l
615.546929 99.570523 l
619.659951 99.613977 l
623.772973 99.450719 l
627.885995 99.344183 l
631.999017 99.291743 l
636.112039 99.152288 l
640.225061 98.724665 l
644.338084 98.297514 l
648.451106 98.007828 l
652.564128 97.923124 l
656.67715 97.498481 l
660.790172 97.204481 l
664.903194 96.925403 l
669.016216 96.757861 l
673.129238 96.591798 l
677.24226 96.507593 l
681.355283 96.413417 l
685.468305 96.695766 l
689.581327 97.102142 l
693.694349 97.284622 l
697.807371 97.179473 l
701.920393 96.893819 l
706.033415 96.675426 l
710.146437 96.964689 l
714.259459 97.319878 l
718.372482 97.66937 l
722.485504 97.709882 l
726.598526 97.663727 l
730.711548 97.54107 l
734.82457 97.479785 l
738.937592 97.386623 l
743.050614 97.291238 l
747.163636 97.284985 l
747.163636 100.99587 l
747.163636 100.99587 l
743.050614 100.717629 l
738.937592 100.468263 l
734.82457 100.151179 l
730.711548 100.024414 l
726.598526 100.054409 l
722.485504 100.290388 l
718.372482 101.054224 l
714.259459 101.98183 l
710.146437 103.127135 l
706.033415 104.879196 l
701.920393 105.408284 l
697.807371 105.150804 l
693.694349 105.129394 l
689.581327 105.346496 l
685.468305 105.632734 l
681.355283 106.279486 l
677.24226 106.636985 l
673.129238 107.20731 l
669.016216 107.459317 l
664.903194 107.344365 l
660.790172 107.21088 l
656.67715 106.615247 l
652.564128 106.131167 l
648.451106 105.849578 l
644.338084 106.250827 l
640.225061 106.934726 l
636.112039 107.688067 l
631.999017 107.97259 l
627.885995 108.154229 l
623.772973 108.135727 l
619.659951 108.138403 l
615.546929 108.35376 l
611.433907 108.684752 l
607.320885 108.626305 l
603.207862 108.104478 l
599.09484 107.756824 l
594.981818 107.244135 l
590.868796 106.848632 l
586.755774 106.858194 l
582.642752 107.109529 l
578.52973 107.700695 l
574.416708 108.314725 l
570.303686 108.683179 l
566.190663 110.021055 l
562.077641 110.265584 l
557.964619 110.505679 l
553.851597 111.432125 l
549.738575 111.658149 l
545.625553 112.036629 l
541.512531 113.32085 l
537.399509 114.623732 l
533.286486 115.449024 l
529.173464 114.106376 l
525.060442 113.263812 l
520.94742 112.818138 l
516.834398 112.880454 l
512.721376 112.669924 l
508.608354 112.369815 l
504.495332 112.03744 l
500.38231 112.313649 l
496.269287 112.367119 l
492.156265 112.222713 l
488.043243 111.556129 l
483.930221 110.822068 l
479.817199 110.257646 l
475.704177 110.420518 l
471.591155 110.955613 l
467.478133 111.181999 l
463.365111 111.745373 l
459.252088 111.691731 l
455.139066 111.607841 l
451.026044 111.59248 l
446.913022 111.89011 l
442.8 112.530425 l
438.686978 113.497363 l
434.573956 113.994003 l
430.460934 114.665876 l
426.347912 115.036323 l
422.234889 115.674603 l
418.121867 115.596974 l
414.008845 115.414283 l
409.895823 115.532884 l
405.782801 115.679891 l
401.669779 115.950997 l
397.556757 116.592596 l
393.443735 117.119522 l
389.330713 117.674428 l
385.21769 118.195592 l
381.104668 118.948775 l
376.991646 119.178762 l
372.878624 119.630748 l
368.765602 120.655973 l
364.65258 122.08682 l
360.539558 123.540297 l
356.426536 124.981248 l
352.313514 126.267405 l
348.200491 127.054303 l
344.087469 128.144946 l
339.974447 129.577939 l
335.861425 131.030506 l
331.748403 132.267342 l
327.635381 133.979077 l
323.522359 135.308144 l
319.409337 136.849011 l
315.296314 137.97855 l
311.183292 139.550164 l
307.07027 141.493695 l
302.957248 143.691689 l
298.844226 146.006491 l
294.731204 148.511948 l
290.618182 151.201002 l
286.50516 153.437422 l
282.392138 156.00046 l
278.279115 158.846278 l
274.166093 161.480168 l
270.053071 164.837821 l
265.940049 169.028062 l
261.827027 174.039996 l
257.714005 178.884615 l
253.600983 182.976747 l
249.487961 187.151643 l
245.374939 191.350346 l
241.261916 196.721667 l
237.148894 202.408065 l
233.035872 209.308789 l
228.92285 214.251786 l
224.809828 219.196543 l
220.696806 222.082433 l
216.583784 224.802146 l
212.470762 227.147947 l
208.35774 229.468465 l
204.244717 230.839621 l
200.131695 231.522396 l
196.018673 231.612578 l
191.905651 230.765219 l
187.792629 230.055483 l
183.679607 229.360372 l
179.566585 228.63073 l
175.453563 227.995198 l
171.340541 227.514201 l
167.227518 227.097606 l
163.114496 226.944616 l
159.001474 226.897652 l
154.888452 226.665884 l
150.77543 226.49938 l
146.662408 226.318721 l
142.549386 226.143825 l
138.436364 226.039618 l
cl
0.173 0.627 0.173 setrgbcolor
fill
grestore
gsave
669.6 434.9 108 72 clipbox
138.436364 226.05304 m
138.436364 226.030852 l
142.549386 226.086973 l
146.662408 226.167059 l
150.77543 226.239044 l
154.888452 226.300501 l
159.001474 226.462133 l
163.114496 226.733618 l
167.227518 226.848941 l
171.340541 227.18773 l
175.453563 227.273554 l
179.566585 226.941563 l
183.679607 226.568354 l
187.792629 226.161289 l
191.905651 225.540296 l
196.018673 224.713513 l
200.131695 223.875646 l
204.244717 222.727812 l
208.35774 220.308231 l
212.470762 217.429484 l
216.583784 214.080174 l
220.696806 210.989122 l
224.809828 207.742933 l
228.92285 204.306594 l
233.035872 200.665029 l
237.148894 196.9249 l
241.261916 192.825398 l
245.374939 188.912601 l
249.487961 185.625463 l
253.600983 183.16377 l
257.714005 180.198013 l
261.827027 176.671975 l
265.940049 173.358484 l
270.053071 169.733523 l
274.166093 167.008835 l
278.279115 164.024174 l
282.392138 161.663551 l
286.50516 158.878115 l
290.618182 155.609688 l
294.731204 153.106342 l
298.844226 150.221431 l
302.957248 147.433222 l
307.07027 145.42353 l
311.183292 143.240374 l
315.296314 140.381873 l
319.409337 138.477609 l
323.522359 135.915021 l
327.635381 133.80303 l
331.748403 132.097082 l
335.861425 130.807914 l
339.974447 130.070753 l
344.087469 128.759198 l
348.200491 127.261595 l
352.313514 126.307653 l
356.426536 125.821104 l
360.539558 125.711269 l
364.65258 124.117771 l
368.765602 122.540907 l
372.878624 121.622443 l
376.991646 120.708153 l
381.104668 119.669812 l
385.21769 118.654744 l
389.330713 118.034169 l
393.443735 116.990222 l
397.556757 116.116872 l
401.669779 116.056739 l
405.782801 116.052798 l
409.895823 115.506567 l
414.008845 114.539639 l
418.121867 114.125135 l
422.234889 113.641975 l
426.347912 112.725443 l
430.460934 112.337864 l
434.573956 111.592701 l
438.686978 111.039636 l
442.8 109.958947 l
446.913022 109.532889 l
451.026044 109.932398 l
455.139066 110.087292 l
459.252088 109.874112 l
463.365111 109.746165 l
467.478133 110.235032 l
471.591155 109.790876 l
475.704177 108.976313 l
479.817199 107.989177 l
483.930221 107.761518 l
488.043243 107.588 l
492.156265 107.225686 l
496.269287 106.533843 l
500.38231 105.717853 l
504.495332 105.476008 l
508.608354 105.205398 l
512.721376 104.400157 l
516.834398 104.554945 l
520.94742 104.760544 l
525.060442 104.479134 l
529.173464 104.05021 l
533.286486 104.126096 l
537.399509 104.238642 l
541.512531 104.0547 l
545.625553 103.91173 l
549.738575 103.519974 l
553.851597 103.310283 l
557.964619 102.464066 l
562.077641 102.119872 l
566.190663 101.967053 l
570.303686 102.433447 l
574.416708 103.136213 l
578.52973 104.037145 l
582.642752 104.513041 l
586.755774 104.269971 l
590.868796 103.59398 l
594.981818 102.582828 l
599.09484 101.762473 l
603.207862 101.834883 l
607.320885 102.110268 l
611.433907 101.627535 l
615.546929 100.739861 l
619.659951 100.621123 l
623.772973 100.128948 l
627.885995 99.275047 l
631.999017 98.231311 l
636.112039 98.416228 l
640.225061 98.434006 l
644.338084 97.955255 l
648.451106 97.834146 l
652.564128 97.573432 l
656.67715 98.204158 l
660.790172 98.360915 l
664.903194 97.728066 l
669.016216 97.80908 l
673.129238 98.214727 l
677.24226 98.219319 l
681.355283 98.335968 l
685.468305 97.522419 l
689.581327 97.3314 l
693.694349 97.804889 l
697.807371 98.009462 l
701.920393 98.118766 l
706.033415 98.216886 l
710.146437 98.499368 l
714.259459 98.897543 l
718.372482 98.973331 l
722.485504 98.311851 l
726.598526 97.679901 l
730.711548 97.887276 l
734.82457 98.403558 l
738.937592 98.232771 l
743.050614 98.015062 l
747.163636 98.046161 l
747.163636 103.967077 l
747.163636 103.967077 l
743.050614 105.1362 l
738.937592 105.679753 l
734.82457 105.205473 l
730.711548 107.765121 l
726.598526 108.446295 l
722.485504 107.318457 l
718.372482 106.004823 l
714.259459 104.114402 l
710.146437 104.804412 l
706.033415 105.714385 l
701.920393 105.77315 l
697.807371 105.466387 l
693.694349 105.703543 l
689.581327 106.319757 l
685.468305 106.316613 l
681.355283 106.618364 l
677.24226 108.084502 l
673.129238 109.972977 l
669.016216 111.336594 l
664.903194 111.704455 l
660.790172 111.35709 l
656.67715 112.34155 l
652.564128 114.818188 l
648.451106 113.977682 l
644.338084 113.440999 l
640.225061 113.418372 l
636.112039 114.096616 l
631.999017 115.198798 l
627.885995 114.711034 l
623.772973 114.23409 l
619.659951 116.087139 l
615.546929 115.352458 l
611.433907 114.900462 l
607.320885 114.043513 l
603.207862 114.800591 l
599.09484 114.270335 l
594.981818 113.639254 l
590.868796 112.850972 l
586.755774 114.583489 l
582.642752 115.554184 l
578.52973 115.212417 l
574.416708 116.064437 l
570.303686 116.210233 l
566.190663 117.693627 l
562.077641 118.584841 l
557.964619 118.49261 l
553.851597 116.523349 l
549.738575 114.652451 l
545.625553 113.034494 l
541.512531 113.199684 l
537.399509 113.682631 l
533.286486 114.841233 l
529.173464 115.754063 l
525.060442 117.269319 l
520.94742 118.229056 l
516.834398 120.562333 l
512.721376 121.349845 l
508.608354 119.614507 l
504.495332 118.616158 l
500.38231 117.747269 l
496.269287 116.560809 l
492.156265 115.717117 l
488.043243 115.583069 l
483.930221 114.691937 l
479.817199 115.417804 l
475.704177 115.72549 l
471.591155 115.89562 l
467.478133 115.596741 l
463.365111 115.206981 l
459.252088 115.77898 l
455.139066 117.163744 l
451.026044 120.579963 l
446.913022 123.295432 l
442.8 124.185421 l
438.686978 123.400032 l
434.573956 123.031281 l
430.460934 122.448952 l
426.347912 122.061031 l
422.234889 121.264343 l
418.121867 121.296491 l
414.008845 121.881711 l
409.895823 121.648481 l
405.782801 122.324169 l
401.669779 122.872528 l
397.556757 123.07942 l
393.443735 123.624627 l
389.330713 123.890396 l
385.21769 124.701678 l
381.104668 125.419679 l
376.991646 125.71138 l
372.878624 126.154501 l
368.765602 127.253685 l
364.65258 128.638754 l
360.539558 130.142816 l
356.426536 131.959458 l
352.313514 134.100832 l
348.200491 135.312266 l
344.087469 136.84197 l
339.974447 138.795183 l
335.861425 139.926328 l
331.748403 141.927092 l
327.635381 143.821092 l
323.522359 145.346096 l
319.409337 147.102133 l
315.296314 149.340212 l
311.183292 150.9517 l
307.07027 153.161191 l
302.957248 155.750339 l
298.844226 158.095728 l
294.731204 160.428981 l
290.618182 162.814188 l
286.50516 166.04038 l
282.392138 169.096142 l
278.279115 173.08308 l
274.166093 177.653199 l
270.053071 182.104141 l
265.940049 186.175867 l
261.827027 189.623676 l
257.714005 193.330324 l
253.600983 197.818922 l
249.487961 202.263234 l
245.374939 206.853674 l
241.261916 211.485462 l
237.148894 215.16739 l
233.035872 218.802958 l
228.92285 220.429138 l
224.809828 222.50261 l
220.696806 223.417297 l
216.583784 224.459195 l
212.470762 225.800672 l
208.35774 226.829596 l
204.244717 227.870915 l
200.131695 229.994982 l
196.018673 232.181962 l
191.905651 231.880037 l
187.792629 231.238181 l
183.679607 230.757145 l
179.566585 230.294844 l
175.453563 230.052977 l
171.340541 229.693186 l
167.227518 229.501804 l
163.114496 229.161157 l
159.001474 228.743494 l
154.888452 227.983049 l
150.77543 227.192491 l
146.662408 226.575772 l
142.549386 226.196357 l
138.436364 226.05304 l
cl
0.839 0.153 0.157 setrgbcolor
fill
grestore
gsave
669.6 434.9 108 72 clipbox
138.436364 226.195137 m
138.436364 226.061738 l
142.549386 226.077176 l
146.662408 226.172016 l
150.77543 226.71964 l
154.888452 227.403897 l
159.001474 227.679895 l
163.114496 227.831751 l
167.227518 228.492785 l
171.340541 228.875744 l
175.453563 229.29213 l
179.566585 230.102763 l
183.679607 230.308648 l
187.792629 230.217553 l
191.905651 231.367887 l
196.018673 234.038333 l
200.131695 235.625774 l
204.244717 235.17038 l
208.35774 235.15992 l
212.470762 235.143204 l
216.583784 237.879936 l
220.696806 239.028014 l
224.809828 237.707868 l
228.92285 233.052967 l
233.035872 230.770751 l
237.148894 229.095372 l
241.261916 229.498225 l
245.374939 228.081233 l
249.487961 227.132387 l
253.600983 225.145374 l
257.714005 220.636396 l
261.827027 215.910503 l
265.940049 214.31573 l
270.053071 216.129591 l
274.166093 214.148881 l
278.279115 211.216725 l
282.392138 211.288046 l
286.50516 207.132767 l
290.618182 201.489718 l
294.731204 197.438886 l
298.844226 192.595802 l
302.957248 191.224884 l
307.07027 188.785126 l
311.183292 186.248715 l
315.296314 182.87729 l
319.409337 180.225966 l
323.522359 177.230744 l
327.635381 171.214102 l
331.748403 167.413828 l
335.861425 164.326648 l
339.974447 162.916829 l
344.087469 160.445913 l
348.200491 157.684486 l
352.313514 155.498158 l
356.426536 152.407835 l
360.539558 152.411126 l
364.65258 148.751067 l
368.765602 146.310233 l
372.878624 148.426532 l
376.991646 150.559993 l
381.104668 151.863707 l
385.21769 152.956828 l
389.330713 153.21499 l
393.443735 150.183026 l
397.556757 147.075156 l
401.669779 143.098078 l
405.782801 136.37482 l
409.895823 133.461242 l
414.008845 135.247758 l
418.121867 134.756184 l
422.234889 135.1742 l
426.347912 133.03793 l
430.460934 132.785369 l
434.573956 132.290086 l
438.686978 132.844226 l
442.8 128.418815 l
446.913022 124.249192 l
451.026044 122.126907 l
455.139066 123.147024 l
459.252088 124.616911 l
463.365111 123.611068 l
467.478133 119.481994 l
471.591155 118.481478 l
475.704177 117.413229 l
479.817199 119.44001 l
483.930221 120.183483 l
488.043243 118.026202 l
492.156265 115.403285 l
496.269287 116.26312 l
500.38231 121.639539 l
504.495332 124.500937 l
508.608354 125.144911 l
512.721376 119.231051 l
516.834398 113.590048 l
520.94742 113.35971 l
525.060442 114.3037 l
529.173464 116.12911 l
533.286486 116.40005 l
537.399509 111.804321 l
541.512531 110.651902 l
545.625553 109.030384 l
549.738575 105.379042 l
553.851597 107.036627 l
557.964619 107.690913 l
562.077641 109.651931 l
566.190663 112.54658 l
570.303686 113.992855 l
574.416708 114.50137 l
578.52973 113.395173 l
582.642752 109.8913 l
586.755774 109.718157 l
590.868796 110.775675 l
594.981818 110.065239 l
599.09484 105.018175 l
603.207862 99.840577 l
607.320885 93.554715 l
611.433907 91.767273 l
615.546929 95.301734 l
619.659951 95.782425 l
623.772973 99.487215 l
627.885995 102.164901 l
631.999017 101.284441 l
636.112039 105.228601 l
640.225061 109.550592 l
644.338084 111.811193 l
648.451106 109.508818 l
652.564128 106.029875 l
656.67715 104.576543 l
660.790172 105.241204 l
664.903194 104.353453 l
669.016216 103.39433 l
673.129238 103.639489 l
677.24226 108.294679 l
681.355283 110.898336 l
685.468305 108.449615 l
689.581327 104.519211 l
693.694349 101.82613 l
697.807371 102.202103 l
701.920393 104.530818 l
706.033415 108.749092 l
710.146437 111.956789 l
714.259459 114.664643 l
718.372482 118.257453 l
722.485504 114.36323 l
726.598526 111.31832 l
730.711548 109.313351 l
734.82457 107.702642 l
738.937592 106.514068 l
743.050614 104.108271 l
747.163636 103.530464 l
747.163636 174.059289 l
747.163636 174.059289 l
743.050614 172.029393 l
738.937592 170.826241 l
734.82457 167.562344 l
730.711548 170.789619 l
726.598526 174.216277 l
722.485504 176.626441 l
718.372482 184.851655 l
714.259459 182.92009 l
710.146437 177.60935 l
706.033415 175.882677 l
701.920393 169.215361 l
697.807371 164.781523 l
693.694349 163.44109 l
689.581327 164.25951 l
685.468305 166.207803 l
681.355283 168.780641 l
677.24226 170.976375 l
673.129238 172.519001 l
669.016216 172.530905 l
664.903194 173.85512 l
660.790172 170.721632 l
656.67715 167.745407 l
652.564128 168.923754 l
648.451106 175.830201 l
644.338084 178.664471 l
640.225061 176.414654 l
636.112039 177.798811 l
631.999017 175.329088 l
627.885995 175.677654 l
623.772973 180.952646 l
619.659951 187.256768 l
615.546929 188.749898 l
611.433907 189.284461 l
607.320885 181.947914 l
603.207862 173.108545 l
599.09484 169.562926 l
594.981818 172.354153 l
590.868796 170.6986 l
586.755774 168.89526 l
582.642752 168.670826 l
578.52973 170.647384 l
574.416708 173.942079 l
570.303686 175.088592 l
566.190663 172.370201 l
562.077641 171.464702 l
557.964619 170.304684 l
553.851597 167.752576 l
549.738575 169.055694 l
545.625553 169.797192 l
541.512531 171.237412 l
537.399509 172.759597 l
533.286486 173.100304 l
529.173464 171.565738 l
525.060442 170.430608 l
520.94742 171.813046 l
516.834398 173.075772 l
512.721376 172.842666 l
508.608354 174.18717 l
504.495332 174.577044 l
500.38231 177.052931 l
496.269287 177.435949 l
492.156265 176.368329 l
488.043243 177.795334 l
483.930221 178.18674 l
479.817199 177.145256 l
475.704177 179.057855 l
471.591155 181.958548 l
467.478133 182.075781 l
463.365111 182.001005 l
459.252088 180.235721 l
455.139066 185.048573 l
451.026044 186.118481 l
446.913022 187.619959 l
442.8 188.477067 l
438.686978 196.205406 l
434.573956 202.861157 l
430.460934 202.397894 l
426.347912 199.758242 l
422.234889 197.311313 l
418.121867 199.626869 l
414.008845 204.747871 l
409.895823 209.0112 l
405.782801 209.717518 l
401.669779 212.092621 l
397.556757 211.963714 l
393.443735 212.354581 l
389.330713 209.811254 l
385.21769 210.296428 l
381.104668 210.037876 l
376.991646 216.095665 l
372.878624 222.879725 l
368.765602 229.404939 l
364.65258 230.661909 l
360.539558 227.970421 l
356.426536 230.059344 l
352.313514 228.123114 l
348.200491 227.838843 l
344.087469 231.923713 l
339.974447 232.944811 l
335.861425 238.073841 l
331.748403 243.120809 l
327.635381 242.952673 l
323.522359 237.71556 l
319.409337 234.887259 l
315.296314 232.262878 l
311.183292 232.71375 l
307.07027 235.299923 l
302.957248 241.699666 l
298.844226 244.986754 l
294.731204 244.055794 l
290.618182 242.177494 l
286.50516 245.12416 l
282.392138 247.139114 l
278.279115 249.374344 l
274.166093 246.330344 l
270.053071 261.392852 l
265.940049 274.262582 l
261.827027 276.233991 l
257.714005 267.563594 l
253.600983 260.054202 l
249.487961 253.194711 l
245.374939 251.535946 l
241.261916 247.892181 l
237.148894 250.919494 l
233.035872 258.040191 l
228.92285 261.090818 l
224.809828 263.413776 l
220.696806 265.426937 l
216.583784 266.431753 l
212.470762 262.493424 l
208.35774 259.454784 l
204.244717 257.005824 l
200.131695 252.071731 l
196.018673 247.239993 l
191.905651 244.641131 l
187.792629 241.882914 l
183.679607 239.753828 l
179.566585 236.51256 l
175.453563 233.934702 l
171.340541 232.89593 l
167.227518 233.674658 l
163.114496 234.907455 l
159.001474 234.202495 l
154.888452 231.500372 l
150.77543 229.60108 l
146.662408 228.128624 l
142.549386 226.861511 l
138.436364 226.195137 l
cl
0.580 0.404 0.741 setrgbcolor
fill
grestore
gsave
669.6 434.9 108 72 clipbox
138.436364 227.409839 m
138.436364 225.794702 l
142.549386 224.71737 l
146.662408 223.172432 l
150.77543 222.382206 l
154.888452 223.256809 l
159.001474 226.675765 l
163.114496 228.136122 l
167.227518 231.906062 l
171.340541 234.785759 l
175.453563 238.347822 l
179.566585 240.089992 l
183.679607 236.849312 l
187.792629 238.772201 l
191.905651 243.927889 l
196.018673 248.249958 l
200.131695 249.474006 l
204.244717 245.348743 l
208.35774 238.209084 l
212.470762 233.799616 l
216.583784 233.170102 l
220.696806 236.245514 l
224.809828 242.233485 l
228.92285 240.674689 l
233.035872 241.948708 l
237.148894 245.558943 l
241.261916 248.625256 l
245.374939 251.12487 l
249.487961 252.362062 l
253.600983 252.242789 l
257.714005 253.859691 l
261.827027 257.120631 l
265.940049 258.059138 l
270.053071 267.60937 l
274.166093 276.621868 l
278.279115 276.279546 l
282.392138 271.567677 l
286.50516 274.787364 l
290.618182 278.146191 l
294.731204 283.255861 l
298.844226 294.614625 l
298.844226 487.112727 l
298.844226 487.112727 l
294.731204 474.407991 l
290.618182 456.838726 l
286.50516 438.728299 l
282.392138 421.670402 l
278.279115 411.196889 l
274.166093 409.708018 l
270.053071 403.427069 l
265.940049 403.1643 l
261.827027 391.430091 l
257.714005 370.363146 l
253.600983 347.729747 l
249.487961 333.440409 l
245.374939 329.182259 l
241.261916 322.485778 l
237.148894 315.04924 l
233.035872 311.192876 l
228.92285 313.417305 l
224.809828 311.133249 l
220.696806 312.841836 l
216.583784 324.018793 l
212.470762 312.484504 l
208.35774 295.627624 l
204.244717 287.653131 l
200.131695 285.545909 l
196.018673 279.262062 l
191.905651 267.230264 l
187.792629 264.73902 l
183.679607 271.45169 l
179.566585 281.111297 l
175.453563 272.327288 l
171.340541 276.83277 l
167.227518 276.528289 l
163.114496 270.712618 l
159.001474 267.068196 l
154.888452 263.28234 l
150.77543 253.409709 l
146.662408 240.961174 l
142.549386 232.609643 l
138.436364 227.409839 l
cl
0.549 0.337 0.294 setrgbcolor
fill
grestore
0.800 setlinewidth
1 setlinejoin
0 setlinecap
[] 0 setdash
0.000 setgray
gsave
/o {
gsave
newpath
translate
0.8 setlinewidth
1 setlinejoin
0 setlinecap
0 0 m
0 -3.5 l

gsave
0.000 setgray
fill
grestore
stroke
grestore
} bind def
138.436 72 o
grestore
/DejaVuSans findfont
16.000 scalefont
setfont
gsave
133.342614 52.843750 translate
0.000000 rotate
0.000000 0.000000 m /zero glyphshow
grestore
gsave
/o {
gsave
newpath
translate
0.8 setlinewidth
1 setlinejoin
0 setlinecap
0 0 m
0 -3.5 l

gsave
0.000 setgray
fill
grestore
stroke
grestore
} bind def
220.697 72 o
grestore
gsave
210.509306 52.843750 translate
0.000000 rotate
0.000000 0.000000 m /two glyphshow
10.179688 0.000000 m /zero glyphshow
grestore
gsave
/o {
gsave
newpath
translate
0.8 setlinewidth
1 setlinejoin
0 setlinecap
0 0 m
0 -3.5 l

gsave
0.000 setgray
fill
grestore
stroke
grestore
} bind def
302.957 72 o
grestore
gsave
292.769748 52.843750 translate
0.000000 rotate
0.000000 0.000000 m /four glyphshow
10.179688 0.000000 m /zero glyphshow
grestore
gsave
/o {
gsave
newpath
translate
0.8 setlinewidth
1 setlinejoin
0 setlinecap
0 0 m
0 -3.5 l

gsave
0.000 setgray
fill
grestore
stroke
grestore
} bind def
385.218 72 o
grestore
gsave
375.030190 52.843750 translate
0.000000 rotate
0.000000 0.000000 m /six glyphshow
10.179688 0.000000 m /zero glyphshow
grestore
gsave
/o {
gsave
newpath
translate
0.8 setlinewidth
1 setlinejoin
0 setlinecap
0 0 m
0 -3.5 l

gsave
0.000 setgray
fill
grestore
stroke
grestore
} bind def
467.478 72 o
grestore
gsave
457.290633 52.843750 translate
0.000000 rotate
0.000000 0.000000 m /eight glyphshow
10.179688 0.000000 m /zero glyphshow
grestore
gsave
/o {
gsave
newpath
translate
0.8 setlinewidth
1 setlinejoin
0 setlinecap
0 0 m
0 -3.5 l

gsave
0.000 setgray
fill
grestore
stroke
grestore
} bind def
549.739 72 o
grestore
gsave
534.457325 52.843750 translate
0.000000 rotate
0.000000 0.000000 m /one glyphshow
10.179688 0.000000 m /zero glyphshow
20.359375 0.000000 m /zero glyphshow
grestore
gsave
/o {
gsave
newpath
translate
0.8 setlinewidth
1 setlinejoin
0 setlinecap
0 0 m
0 -3.5 l

gsave
0.000 setgray
fill
grestore
stroke
grestore
} bind def
631.999 72 o
grestore
gsave
616.717767 52.843750 translate
0.000000 rotate
0.000000 0.000000 m /one glyphshow
10.179688 0.000000 m /two glyphshow
20.359375 0.000000 m /zero glyphshow
grestore
gsave
/o {
gsave
newpath
translate
0.8 setlinewidth
1 setlinejoin
0 setlinecap
0 0 m
0 -3.5 l

gsave
0.000 setgray
fill
grestore
stroke
grestore
} bind def
714.259 72 o
grestore
gsave
698.978209 52.843750 translate
0.000000 rotate
0.000000 0.000000 m /one glyphshow
10.179688 0.000000 m /four glyphshow
20.359375 0.000000 m /zero glyphshow
grestore
gsave
365.651563 33.359375 translate
0.000000 rotate
0.000000 0.000000 m /N glyphshow
11.968750 0.000000 m /u glyphshow
22.109375 0.000000 m /m glyphshow
37.695312 0.000000 m /b glyphshow
47.851562 0.000000 m /e glyphshow
57.695312 0.000000 m /r glyphshow
64.273438 0.000000 m /space glyphshow
69.359375 0.000000 m /o glyphshow
79.148438 0.000000 m /f glyphshow
84.781250 0.000000 m /space glyphshow
89.867188 0.000000 m /R glyphshow
100.984375 0.000000 m /o glyphshow
110.773438 0.000000 m /l glyphshow
115.218750 0.000000 m /l glyphshow
119.664062 0.000000 m /o glyphshow
129.453125 0.000000 m /u glyphshow
139.593750 0.000000 m /t glyphshow
145.867188 0.000000 m /s glyphshow
grestore
gsave
/o {
gsave
newpath
translate
0.8 setlinewidth
1 setlinejoin
0 setlinecap
0 0 m
-3.5 0 l

gsave
0.000 setgray
fill
grestore
stroke
grestore
} bind def
108 96.0992 o
grestore
gsave
90.812500 90.021025 translate
0.000000 rotate
0.000000 0.000000 m /zero glyphshow
grestore
gsave
/o {
gsave
newpath
translate
0.8 setlinewidth
1 setlinejoin
0 setlinecap
0 0 m
-3.5 0 l

gsave
0.000 setgray
fill
grestore
stroke
grestore
} bind def
108 155.692 o
grestore
gsave
70.437500 149.614138 translate
0.000000 rotate
0.000000 0.000000 m /five glyphshow
10.179688 0.000000 m /zero glyphshow
20.359375 0.000000 m /zero glyphshow
grestore
gsave
/o {
gsave
newpath
translate
0.8 setlinewidth
1 setlinejoin
0 setlinecap
0 0 m
-3.5 0 l

gsave
0.000 setgray
fill
grestore
stroke
grestore
} bind def
108 215.285 o
grestore
gsave
60.250000 209.207250 translate
0.000000 rotate
0.000000 0.000000 m /one glyphshow
10.179688 0.000000 m /zero glyphshow
20.359375 0.000000 m /zero glyphshow
30.539062 0.000000 m /zero glyphshow
grestore
gsave
/o {
gsave
newpath
translate
0.8 setlinewidth
1 setlinejoin
0 setlinecap
0 0 m
-3.5 0 l

gsave
0.000 setgray
fill
grestore
stroke
grestore
} bind def
108 274.878 o
grestore
gsave
60.250000 268.800363 translate
0.000000 rotate
0.000000 0.000000 m /one glyphshow
10.179688 0.000000 m /five glyphshow
20.359375 0.000000 m /zero glyphshow
30.539062 0.000000 m /zero glyphshow
grestore
gsave
/o {
gsave
newpath
translate
0.8 setlinewidth
1 setlinejoin
0 setlinecap
0 0 m
-3.5 0 l

gsave
0.000 setgray
fill
grestore
stroke
grestore
} bind def
108 334.472 o
grestore
gsave
60.250000 328.393476 translate
0.000000 rotate
0.000000 0.000000 m /two glyphshow
10.179688 0.000000 m /zero glyphshow
20.359375 0.000000 m /zero glyphshow
30.539062 0.000000 m /zero glyphshow
grestore
gsave
/o {
gsave
newpath
translate
0.8 setlinewidth
1 setlinejoin
0 setlinecap
0 0 m
-3.5 0 l

gsave
0.000 setgray
fill
grestore
stroke
grestore
} bind def
108 394.065 o
grestore
gsave
60.250000 387.986588 translate
0.000000 rotate
0.000000 0.000000 m /two glyphshow
10.179688 0.000000 m /five glyphshow
20.359375 0.000000 m /zero glyphshow
30.539062 0.000000 m /zero glyphshow
grestore
gsave
/o {
gsave
newpath
translate
0.8 setlinewidth
1 setlinejoin
0 setlinecap
0 0 m
-3.5 0 l

gsave
0.000 setgray
fill
grestore
stroke
grestore
} bind def
108 453.658 o
grestore
gsave
60.250000 447.579701 translate
0.000000 rotate
0.000000 0.000000 m /three glyphshow
10.179688 0.000000 m /zero glyphshow
20.359375 0.000000 m /zero glyphshow
30.539062 0.000000 m /zero glyphshow
grestore
gsave
52.921875 200.072812 translate
90.000000 rotate
0.000000 0.000000 m /A glyphshow
10.945312 0.000000 m /v glyphshow
20.414062 0.000000 m /e glyphshow
30.257812 0.000000 m /r glyphshow
36.835938 0.000000 m /a glyphshow
46.640625 0.000000 m /g glyphshow
56.796875 0.000000 m /e glyphshow
66.640625 0.000000 m /space glyphshow
71.726562 0.000000 m /R glyphshow
82.843750 0.000000 m /u glyphshow
92.984375 0.000000 m /n glyphshow
103.125000 0.000000 m /n glyphshow
113.265625 0.000000 m /i glyphshow
117.710938 0.000000 m /n glyphshow
127.851562 0.000000 m /g glyphshow
138.007812 0.000000 m /space glyphshow
143.093750 0.000000 m /C glyphshow
154.265625 0.000000 m /o glyphshow
164.054688 0.000000 m /s glyphshow
172.390625 0.000000 m /t glyphshow
grestore
1.500 setlinewidth
2 setlinecap
0.122 0.467 0.706 setrgbcolor
gsave
669.6 434.9 108 72 clipbox
138.436364 226.02903 m
159.001474 226.369155 l
163.114496 226.552401 l
167.227518 226.900917 l
171.340541 227.451612 l
175.453563 228.153148 l
187.792629 231.511018 l
191.905651 232.416273 l
196.018673 232.48762 l
200.131695 231.672846 l
208.35774 228.594635 l
212.470762 226.237483 l
216.583784 223.640455 l
220.696806 220.553506 l
224.809828 216.412159 l
237.148894 202.563866 l
241.261916 197.508083 l
249.487961 188.08256 l
253.600983 183.816413 l
257.714005 179.249619 l
261.827027 175.165361 l
265.940049 171.638929 l
270.053071 168.679 l
274.166093 166.101684 l
278.279115 164.174535 l
282.392138 162.850382 l
286.50516 161.857494 l
302.957248 159.792586 l
307.07027 159.433117 l
311.183292 158.67002 l
319.409337 156.725674 l
339.974447 150.121346 l
344.087469 149.161641 l
348.200491 148.441829 l
352.313514 147.937537 l
368.765602 146.385547 l
381.104668 145.219593 l
389.330713 144.584409 l
393.443735 144.053852 l
397.556757 143.158386 l
401.669779 141.768142 l
405.782801 140.093838 l
409.895823 138.258242 l
418.121867 134.842189 l
426.347912 132.100214 l
430.460934 130.952851 l
434.573956 129.531839 l
451.026044 124.605841 l
463.365111 122.048171 l
471.591155 120.186195 l
475.704177 119.32074 l
479.817199 118.23017 l
483.930221 117.398629 l
492.156265 116.352729 l
500.38231 114.950841 l
504.495332 114.089995 l
516.834398 111.844373 l
520.94742 111.405998 l
525.060442 111.132011 l
529.173464 110.240444 l
533.286486 109.894456 l
537.399509 109.733462 l
545.625553 109.092339 l
549.738575 108.815027 l
553.851597 108.379657 l
557.964619 107.810174 l
570.303686 106.90914 l
574.416708 106.698687 l
594.981818 106.251902 l
627.885995 106.155627 l
631.999017 106.2075 l
644.338084 106.105821 l
648.451106 106.093278 l
656.67715 106.379522 l
664.903194 106.272591 l
669.016216 106.355486 l
677.24226 106.039155 l
685.468305 105.440804 l
701.920393 103.997783 l
714.259459 103.593179 l
722.485504 103.548333 l
743.050614 103.493608 l
747.163636 103.423733 l
747.163636 103.423733 l
stroke
grestore
1.000 0.498 0.055 setrgbcolor
gsave
669.6 434.9 108 72 clipbox
138.436364 226.034841 m
154.888452 226.410942 l
171.340541 226.899729 l
175.453563 227.245508 l
179.566585 227.731538 l
191.905651 229.565094 l
200.131695 229.715871 l
204.244717 228.813261 l
208.35774 227.26094 l
212.470762 225.335414 l
216.583784 223.11826 l
220.696806 219.766474 l
224.809828 215.36193 l
228.92285 210.357959 l
233.035872 204.125043 l
237.148894 196.636493 l
241.261916 189.772499 l
245.374939 183.790157 l
249.487961 178.166052 l
265.940049 159.189515 l
270.053071 155.340017 l
274.166093 151.880408 l
278.279115 149.230136 l
282.392138 146.73944 l
286.50516 144.465921 l
294.731204 140.393413 l
302.957248 136.70943 l
315.296314 131.922389 l
319.409337 130.453172 l
323.522359 129.356121 l
335.861425 126.749388 l
339.974447 126.37561 l
348.200491 124.550199 l
352.313514 123.278803 l
356.426536 122.12655 l
364.65258 120.218315 l
372.878624 118.653106 l
376.991646 118.036459 l
385.21769 116.320484 l
389.330713 115.547733 l
397.556757 114.344196 l
405.782801 113.39996 l
409.895823 113.002189 l
442.8 110.826109 l
446.913022 110.60823 l
455.139066 110.337899 l
467.478133 109.776121 l
475.704177 109.198493 l
488.043243 108.811438 l
492.156265 108.662477 l
500.38231 108.173414 l
504.495332 107.917317 l
512.721376 107.704574 l
529.173464 107.223627 l
537.399509 107.051783 l
545.625553 106.65872 l
549.738575 106.528126 l
557.964619 106.009207 l
578.52973 105.210457 l
590.868796 105.428953 l
594.981818 105.530304 l
599.09484 105.359255 l
607.320885 104.797662 l
619.659951 104.289974 l
627.885995 103.820571 l
636.112039 103.509709 l
644.338084 103.499601 l
660.790172 103.094366 l
673.129238 103.098384 l
706.033415 103.563652 l
714.259459 103.318646 l
718.372482 103.135868 l
730.711548 103.083123 l
738.937592 102.982881 l
747.163636 102.510268 l
747.163636 102.510268 l
stroke
grestore
0.173 0.627 0.173 setrgbcolor
gsave
669.6 434.9 108 72 clipbox
138.436364 226.032255 m
150.77543 226.353508 l
163.114496 226.734726 l
171.340541 227.007232 l
175.453563 227.155766 l
183.679607 227.732947 l
196.018673 228.040734 l
200.131695 227.466075 l
204.244717 226.61348 l
208.35774 225.185011 l
212.470762 222.927954 l
216.583784 219.823689 l
220.696806 216.091155 l
224.809828 212.152865 l
233.035872 201.867632 l
237.148894 196.401965 l
249.487961 182.466893 l
257.714005 173.961289 l
265.940049 164.2103 l
270.053071 160.151508 l
274.166093 156.830645 l
282.392138 150.958124 l
286.50516 148.531805 l
290.618182 146.431056 l
298.844226 141.859558 l
302.957248 139.877235 l
315.296314 134.468765 l
323.522359 131.37121 l
331.748403 128.397836 l
335.861425 127.232656 l
339.974447 125.898029 l
344.087469 124.690666 l
352.313514 122.568915 l
356.426536 121.218442 l
364.65258 118.902389 l
368.765602 117.98925 l
372.878624 117.272643 l
376.991646 116.67605 l
381.104668 116.264885 l
393.443735 114.299207 l
401.669779 113.20219 l
409.895823 112.582249 l
414.008845 112.382814 l
422.234889 112.455139 l
438.686978 110.851823 l
442.8 110.130805 l
446.913022 109.68904 l
451.026044 109.367733 l
463.365111 109.114497 l
467.478133 108.731297 l
479.817199 108.407061 l
483.930221 108.671402 l
492.156265 109.338998 l
504.495332 109.25533 l
508.608354 109.368327 l
516.834398 109.188595 l
520.94742 109.10767 l
529.173464 109.419657 l
533.286486 109.934073 l
537.399509 109.61286 l
545.625553 108.582357 l
549.738575 108.3802 l
553.851597 107.982266 l
557.964619 107.187799 l
566.190663 106.207877 l
570.303686 105.277639 l
578.52973 104.199718 l
582.642752 103.764813 l
586.755774 103.461647 l
590.868796 103.340794 l
594.981818 103.44712 l
603.207862 104.060836 l
607.320885 104.369897 l
611.433907 104.276692 l
615.546929 103.962141 l
631.999017 103.632167 l
636.112039 103.420178 l
644.338084 102.27417 l
648.451106 101.928703 l
660.790172 102.207681 l
673.129238 101.899554 l
681.355283 101.346452 l
685.468305 101.16425 l
693.694349 101.207008 l
701.920393 101.151051 l
706.033415 100.777311 l
710.146437 100.045912 l
718.372482 99.361797 l
722.485504 99.000135 l
730.711548 98.782742 l
738.937592 98.927443 l
747.163636 99.140428 l
747.163636 99.140428 l
stroke
grestore
0.839 0.153 0.157 setrgbcolor
gsave
669.6 434.9 108 72 clipbox
138.436364 226.041946 m
142.549386 226.141665 l
146.662408 226.371415 l
154.888452 227.141775 l
159.001474 227.602814 l
163.114496 227.947388 l
175.453563 228.663266 l
183.679607 228.66275 l
191.905651 228.710166 l
196.018673 228.447738 l
200.131695 226.935314 l
208.35774 223.568914 l
212.470762 221.615078 l
216.583784 219.269685 l
224.809828 215.122771 l
233.035872 209.733994 l
237.148894 206.046145 l
241.261916 202.15543 l
245.374939 197.883138 l
249.487961 193.944349 l
253.600983 190.491346 l
261.827027 183.147825 l
265.940049 179.767175 l
270.053071 175.918832 l
274.166093 172.331017 l
278.279115 168.553627 l
282.392138 165.379847 l
286.50516 162.459247 l
290.618182 159.211938 l
294.731204 156.767662 l
302.957248 151.59178 l
311.183292 147.096037 l
315.296314 144.861043 l
323.522359 140.630558 l
331.748403 137.012087 l
335.861425 135.367121 l
339.974447 134.432968 l
348.200491 131.286931 l
352.313514 130.204243 l
356.426536 128.890281 l
360.539558 127.927043 l
368.765602 124.897296 l
372.878624 123.888472 l
381.104668 122.544745 l
385.21769 121.678211 l
397.556757 119.598146 l
401.669779 119.464634 l
405.782801 119.188483 l
409.895823 118.577524 l
414.008845 118.210675 l
418.121867 117.710813 l
422.234889 117.453159 l
442.8 117.072184 l
446.913022 116.41416 l
451.026044 115.25618 l
455.139066 113.625518 l
459.252088 112.826546 l
463.365111 112.476573 l
467.478133 112.915887 l
471.591155 112.843248 l
475.704177 112.350902 l
479.817199 111.70349 l
483.930221 111.226728 l
488.043243 111.585534 l
492.156265 111.471401 l
500.38231 111.732561 l
508.608354 112.409952 l
512.721376 112.875001 l
516.834398 112.558639 l
520.94742 111.4948 l
525.060442 110.874226 l
529.173464 109.902136 l
541.512531 108.627192 l
545.625553 108.473112 l
549.738575 109.086212 l
553.851597 109.916816 l
557.964619 110.478338 l
562.077641 110.352357 l
570.303686 109.32184 l
574.416708 109.600325 l
578.52973 109.624781 l
582.642752 110.033612 l
586.755774 109.42673 l
590.868796 108.222476 l
599.09484 108.016404 l
603.207862 108.317737 l
607.320885 108.07689 l
611.433907 108.263998 l
615.546929 108.046159 l
619.659951 108.354131 l
623.772973 107.181519 l
631.999017 106.715055 l
636.112039 106.256422 l
644.338084 105.698127 l
652.564128 106.19581 l
656.67715 105.272854 l
660.790172 104.859002 l
669.016216 104.572837 l
673.129238 104.093852 l
677.24226 103.151911 l
681.355283 102.477166 l
685.468305 101.919516 l
697.807371 101.737924 l
701.920393 101.945958 l
706.033415 101.965636 l
710.146437 101.65189 l
714.259459 101.505973 l
718.372482 102.489077 l
726.598526 103.063098 l
730.711548 102.826198 l
734.82457 101.804516 l
738.937592 101.956262 l
743.050614 101.575631 l
747.163636 101.006619 l
747.163636 101.006619 l
stroke
grestore
0.580 0.404 0.741 setrgbcolor
gsave
669.6 434.9 108 72 clipbox
138.436364 226.128437 m
142.549386 226.469344 l
146.662408 227.15032 l
150.77543 228.16036 l
154.888452 229.452134 l
159.001474 230.941195 l
163.114496 231.369603 l
171.340541 230.885837 l
175.453563 231.613416 l
183.679607 235.031238 l
187.792629 236.050234 l
191.905651 238.004509 l
196.018673 240.639163 l
200.131695 243.848753 l
204.244717 246.088102 l
208.35774 247.307352 l
212.470762 248.818314 l
216.583784 252.155844 l
220.696806 252.227476 l
224.809828 250.560822 l
228.92285 247.071893 l
233.035872 244.405471 l
237.148894 240.007433 l
241.261916 238.695203 l
245.374939 239.808589 l
249.487961 240.163549 l
253.600983 242.599788 l
257.714005 244.099995 l
261.827027 246.072247 l
265.940049 244.289156 l
270.053071 238.761221 l
274.166093 230.239612 l
278.279115 230.295535 l
282.392138 229.21358 l
286.50516 226.128464 l
290.618182 221.833606 l
294.731204 220.74734 l
298.844226 218.791278 l
302.957248 216.462275 l
307.07027 212.042524 l
311.183292 209.481232 l
315.296314 207.570084 l
323.522359 207.473152 l
327.635381 207.083388 l
331.748403 205.267318 l
335.861425 201.200244 l
339.974447 197.93082 l
344.087469 196.184813 l
348.200491 192.761664 l
352.313514 191.810636 l
356.426536 191.233589 l
360.539558 190.190774 l
364.65258 189.706488 l
368.765602 187.857586 l
376.991646 183.327829 l
381.104668 180.950791 l
385.21769 181.626628 l
389.330713 181.513122 l
393.443735 181.268803 l
397.556757 179.519435 l
401.669779 177.595349 l
405.782801 173.046169 l
409.895823 171.236221 l
414.008845 169.997815 l
418.121867 167.191526 l
422.234889 166.242756 l
426.347912 166.398086 l
430.460934 167.591632 l
434.573956 167.575622 l
438.686978 164.524816 l
442.8 158.447941 l
446.913022 155.934575 l
451.026044 154.122694 l
455.139066 154.097798 l
459.252088 152.426316 l
463.365111 152.806036 l
467.478133 150.778888 l
471.591155 150.220013 l
475.704177 148.235542 l
479.817199 148.292633 l
483.930221 149.185112 l
488.043243 147.910768 l
492.156265 145.885807 l
496.269287 146.849535 l
500.38231 149.346235 l
508.608354 149.66604 l
512.721376 146.036859 l
516.834398 143.33291 l
520.94742 142.586378 l
525.060442 142.367154 l
529.173464 143.847424 l
533.286486 144.750177 l
537.399509 142.281959 l
541.512531 140.944657 l
545.625553 139.413788 l
549.738575 137.217368 l
553.851597 137.394601 l
562.077641 140.558317 l
566.190663 142.45839 l
570.303686 144.540724 l
574.416708 144.221725 l
578.52973 142.021279 l
582.642752 139.281063 l
586.755774 139.306709 l
590.868796 140.737138 l
594.981818 141.209696 l
599.09484 137.29055 l
603.207862 136.474561 l
607.320885 137.751314 l
611.433907 140.525867 l
615.546929 142.025816 l
619.659951 141.519597 l
627.885995 138.921278 l
631.999017 138.306765 l
636.112039 141.513706 l
640.225061 142.982623 l
644.338084 145.237832 l
648.451106 142.66951 l
652.564128 137.476814 l
656.67715 136.160975 l
660.790172 137.981418 l
664.903194 139.104287 l
669.016216 137.962618 l
673.129238 138.079245 l
677.24226 139.635527 l
681.355283 139.839489 l
685.468305 137.328709 l
689.581327 134.38936 l
693.694349 132.63361 l
697.807371 133.491813 l
701.920393 136.873089 l
706.033415 142.315884 l
710.146437 144.78307 l
714.259459 148.792366 l
718.372482 151.554554 l
722.485504 145.494835 l
730.711548 140.051485 l
734.82457 137.632493 l
738.937592 138.670154 l
743.050614 138.068832 l
747.163636 138.794877 l
747.163636 138.794877 l
stroke
grestore
0.549 0.337 0.294 setrgbcolor
gsave
669.6 434.9 108 72 clipbox
138.436364 226.602271 m
142.549386 228.663507 l
146.662408 232.066803 l
150.77543 237.895957 l
154.888452 243.269575 l
159.001474 246.871981 l
163.114496 249.42437 l
167.227518 254.217175 l
171.340541 255.809265 l
175.453563 255.337555 l
179.566585 260.600645 l
183.679607 254.150501 l
187.792629 251.755611 l
191.905651 255.579077 l
196.018673 263.75601 l
200.131695 267.509958 l
204.244717 266.500937 l
208.35774 266.918354 l
212.470762 273.14206 l
216.583784 278.594447 l
220.696806 274.543675 l
224.809828 276.683367 l
228.92285 277.045997 l
233.035872 276.570792 l
237.148894 280.304092 l
241.261916 285.555517 l
245.374939 290.153564 l
249.487961 292.901235 l
253.600983 299.986268 l
257.714005 312.111418 l
261.827027 324.275361 l
265.940049 330.611719 l
270.053071 335.518219 l
274.166093 343.164943 l
278.279115 343.738217 l
282.392138 346.61904 l
286.50516 356.757832 l
290.618182 367.492458 l
294.731204 378.831926 l
298.844226 390.863676 l
stroke
grestore
0.000 setgray
gsave
669.6 434.9 108 72 clipbox
138.436364 226.012136 m
142.549386 235.632888 l
146.662408 227.12873 l
150.77543 234.120448 l
154.888452 227.6579 l
159.001474 231.368142 l
163.114496 226.435671 l
167.227518 227.229281 l
171.340541 223.321155 l
175.453563 221.912736 l
179.566585 218.588422 l
183.679607 215.678257 l
187.792629 212.614273 l
191.905651 208.763978 l
196.018673 205.76563 l
200.131695 201.390156 l
204.244717 198.372122 l
208.35774 193.768471 l
212.470762 190.721853 l
216.583784 186.099157 l
220.696806 183.057756 l
224.809828 178.55922 l
228.92285 175.572148 l
233.035872 171.290422 l
237.148894 168.404856 l
241.261916 164.394196 l
245.374939 161.647022 l
249.487961 157.93344 l
253.600983 155.348892 l
257.714005 151.938656 l
261.827027 149.529333 l
265.940049 146.415787 l
270.053071 144.185094 l
274.166093 141.353829 l
278.279115 139.298667 l
282.392138 136.731213 l
286.50516 134.844351 l
290.618182 132.520669 l
294.731204 130.792594 l
298.844226 128.692645 l
302.957248 127.112871 l
307.07027 125.217522 l
311.183292 123.775448 l
315.296314 122.066926 l
319.409337 120.752337 l
323.522359 119.214381 l
327.635381 118.017703 l
331.748403 116.635544 l
335.861425 115.547928 l
339.974447 114.308174 l
344.087469 113.32149 l
348.200491 112.211974 l
364.65258 108.640392 l
381.104668 105.789405 l
397.556757 103.545922 l
409.895823 102.215764 l
422.234889 101.118851 l
434.573956 100.258868 l
446.913022 99.596967 l
459.252088 99.101283 l
475.704177 98.665406 l
500.38231 98.354298 l
541.512531 98.269112 l
582.642752 98.205958 l
623.772973 97.973831 l
747.163636 97.091109 l
747.163636 97.091109 l
stroke
grestore
0.800 setlinewidth
0 setlinejoin
[] 0 setdash
gsave
108 72 m
108 506.88 l
stroke
grestore
gsave
777.6 72 m
777.6 506.88 l
stroke
grestore
gsave
108 72 m
777.6 72 l
stroke
grestore
gsave
108 506.88 m
777.6 506.88 l
stroke
grestore
/DejaVuSans findfont
19.200 scalefont
setfont
gsave
268.893750 512.880000 translate
0.000000 rotate
0.000000 0.000000 m /C glyphshow
13.397522 0.000000 m /o glyphshow
25.136749 0.000000 m /m glyphshow
43.827698 0.000000 m /p glyphshow
56.007263 0.000000 m /a glyphshow
67.765228 0.000000 m /r glyphshow
75.653839 0.000000 m /i glyphshow
80.984741 0.000000 m /s glyphshow
90.981354 0.000000 m /o glyphshow
102.720581 0.000000 m /n glyphshow
114.881409 0.000000 m /space glyphshow
120.980560 0.000000 m /o glyphshow
132.719788 0.000000 m /f glyphshow
139.474762 0.000000 m /space glyphshow
145.573914 0.000000 m /d glyphshow
157.753479 0.000000 m /i glyphshow
163.084381 0.000000 m /f glyphshow
169.839355 0.000000 m /f glyphshow
176.594330 0.000000 m /e glyphshow
188.399139 0.000000 m /r glyphshow
196.287750 0.000000 m /e glyphshow
208.092560 0.000000 m /n glyphshow
220.253387 0.000000 m /t glyphshow
227.776611 0.000000 m /space glyphshow
233.875763 0.000000 m /A glyphshow
247.001587 0.000000 m /n glyphshow
259.162415 0.000000 m /g glyphshow
271.341980 0.000000 m /l glyphshow
276.672882 0.000000 m /e glyphshow
288.477692 0.000000 m /space glyphshow
294.576843 0.000000 m /N glyphshow
308.929993 0.000000 m /o glyphshow
320.669220 0.000000 m /i glyphshow
326.000122 0.000000 m /s glyphshow
335.996735 0.000000 m /e glyphshow
grestore
1.000 setlinewidth
0 setlinecap
0.800 setgray
gsave
682.559375 329.689375 m
766.4 329.689375 l
768.533333 329.689375 769.6 330.756042 769.6 332.889375 c
769.6 495.68 l
769.6 497.813333 768.533333 498.88 766.4 498.88 c
682.559375 498.88 l
680.426042 498.88 679.359375 497.813333 679.359375 495.68 c
679.359375 332.889375 l
679.359375 330.756042 680.426042 329.689375 682.559375 329.689375 c
cl
gsave
1.000 setgray
fill
grestore
stroke
grestore
1.500 setlinewidth
1 setlinejoin
2 setlinecap
[] 0 setdash
0.122 0.467 0.706 setrgbcolor
gsave
685.759375 485.92375 m
717.759375 485.92375 l
stroke
grestore
0.000 setgray
/DejaVuSans findfont
16.000 scalefont
setfont
gsave
730.559375 480.323750 translate
0.000000 rotate
0.000000 0.000000 m /zero glyphshow
10.179688 0.000000 m /period glyphshow
15.265625 0.000000 m /one glyphshow
grestore
1.000 0.498 0.055 setrgbcolor
gsave
685.759375 462.439375 m
717.759375 462.439375 l
stroke
grestore
0.000 setgray
gsave
730.559375 456.839375 translate
0.000000 rotate
0.000000 0.000000 m /zero glyphshow
10.179688 0.000000 m /period glyphshow
15.265625 0.000000 m /five glyphshow
grestore
0.173 0.627 0.173 setrgbcolor
gsave
685.759375 438.955 m
717.759375 438.955 l
stroke
grestore
0.000 setgray
gsave
730.559375 433.355000 translate
0.000000 rotate
0.000000 0.000000 m /one glyphshow
grestore
0.839 0.153 0.157 setrgbcolor
gsave
685.759375 415.470625 m
717.759375 415.470625 l
stroke
grestore
0.000 setgray
gsave
730.559375 409.870625 translate
0.000000 rotate
0.000000 0.000000 m /two glyphshow
grestore
0.580 0.404 0.741 setrgbcolor
gsave
685.759375 391.98625 m
717.759375 391.98625 l
stroke
grestore
0.000 setgray
gsave
730.559375 386.386250 translate
0.000000 rotate
0.000000 0.000000 m /five glyphshow
grestore
0.549 0.337 0.294 setrgbcolor
gsave
685.759375 368.501875 m
717.759375 368.501875 l
stroke
grestore
0.000 setgray
gsave
730.559375 362.901875 translate
0.000000 rotate
0.000000 0.000000 m /one glyphshow
10.179688 0.000000 m /zero glyphshow
grestore
gsave
685.759375 345.0175 m
717.759375 345.0175 l
stroke
grestore
gsave
730.559375 339.417500 translate
0.000000 rotate
0.000000 0.000000 m /L glyphshow
8.914062 0.000000 m /Q glyphshow
21.507812 0.000000 m /R glyphshow
grestore

end
showpage
