%!PS-Adobe-3.0 EPSF-3.0
%%Title: C:\Users\wlkob\OneDrive\8_Masterarbeit\Programs Masterarbeit\xExperiment\Figures\Goal_ThrustNoise.eps
%%Creator: matplotlib version 3.0.1, http://matplotlib.org/
%%CreationDate: Fri Mar 27 00:13:21 2020
%%Orientation: portrait
%%BoundingBox: -126 108 738 684
%%EndComments
%%BeginProlog
/mpldict 8 dict def
mpldict begin
/m { moveto } bind def
/l { lineto } bind def
/r { rlineto } bind def
/c { curveto } bind def
/cl { closepath } bind def
/box {
m
1 index 0 r
0 exch r
neg 0 r
cl
} bind def
/clipbox {
box
clip
newpath
} bind def
%!PS-Adobe-3.0 Resource-Font
%%Title: DejaVu Sans
%%Copyright: Copyright (c) 2003 by Bitstream, Inc. All Rights Reserved. Copyright (c) 2006 by Tavmjong Bah. All Rights Reserved. DejaVu changes are in public domain 
%%Creator: Converted from TrueType to type 3 by PPR
25 dict begin
/_d{bind def}bind def
/_m{moveto}_d
/_l{lineto}_d
/_cl{closepath eofill}_d
/_c{curveto}_d
/_sc{7 -1 roll{setcachedevice}{pop pop pop pop pop pop}ifelse}_d
/_e{exec}_d
/FontName /DejaVuSans def
/PaintType 0 def
/FontMatrix[.001 0 0 .001 0 0]def
/FontBBox[-1021 -463 1793 1232]def
/FontType 3 def
/Encoding [ /space /zero /one /two /three /four /five /six /seven /eight /A /C /L /N /Q /R /T /a /b /d /e /f /g /h /i /l /m /n /o /p /r /s /t /u /v /minus ] def
/FontInfo 10 dict dup begin
/FamilyName (DejaVu Sans) def
/FullName (DejaVu Sans) def
/Notice (Copyright (c) 2003 by Bitstream, Inc. All Rights Reserved. Copyright (c) 2006 by Tavmjong Bah. All Rights Reserved. DejaVu changes are in public domain ) def
/Weight (Book) def
/Version (Version 2.35) def
/ItalicAngle 0.0 def
/isFixedPitch false def
/UnderlinePosition -130 def
/UnderlineThickness 90 def
end readonly def
/CharStrings 37 dict dup begin
/.notdef 0 def
/space{318 0 0 0 0 0 _sc
}_d
/zero{636 0 66 -13 570 742 _sc
318 664 _m
267 664 229 639 203 589 _c
177 539 165 464 165 364 _c
165 264 177 189 203 139 _c
229 89 267 64 318 64 _c
369 64 407 89 433 139 _c
458 189 471 264 471 364 _c
471 464 458 539 433 589 _c
407 639 369 664 318 664 _c
318 742 _m
399 742 461 709 505 645 _c
548 580 570 486 570 364 _c
570 241 548 147 505 83 _c
461 19 399 -13 318 -13 _c
236 -13 173 19 130 83 _c
87 147 66 241 66 364 _c
66 486 87 580 130 645 _c
173 709 236 742 318 742 _c
_cl}_d
/one{636 0 110 0 544 729 _sc
124 83 _m
285 83 _l
285 639 _l
110 604 _l
110 694 _l
284 729 _l
383 729 _l
383 83 _l
544 83 _l
544 0 _l
124 0 _l
124 83 _l
_cl}_d
/two{{636 0 73 0 536 742 _sc
192 83 _m
536 83 _l
536 0 _l
73 0 _l
73 83 _l
110 121 161 173 226 239 _c
290 304 331 346 348 365 _c
380 400 402 430 414 455 _c
426 479 433 504 433 528 _c
433 566 419 598 392 622 _c
365 646 330 659 286 659 _c
255 659 222 653 188 643 _c
154 632 117 616 78 594 _c
78 694 _l
118 710 155 722 189 730 _c
223 738 255 742 284 742 _c
}_e{359 742 419 723 464 685 _c
509 647 532 597 532 534 _c
532 504 526 475 515 449 _c
504 422 484 390 454 354 _c
446 344 420 317 376 272 _c
332 227 271 164 192 83 _c
_cl}_e}_d
/three{{636 0 76 -13 556 742 _sc
406 393 _m
453 383 490 362 516 330 _c
542 298 556 258 556 212 _c
556 140 531 84 482 45 _c
432 6 362 -13 271 -13 _c
240 -13 208 -10 176 -4 _c
144 1 110 10 76 22 _c
76 117 _l
103 101 133 89 166 81 _c
198 73 232 69 268 69 _c
330 69 377 81 409 105 _c
441 129 458 165 458 212 _c
458 254 443 288 413 312 _c
383 336 341 349 287 349 _c
}_e{202 349 _l
202 430 _l
291 430 _l
339 430 376 439 402 459 _c
428 478 441 506 441 543 _c
441 580 427 609 401 629 _c
374 649 336 659 287 659 _c
260 659 231 656 200 650 _c
169 644 135 635 98 623 _c
98 711 _l
135 721 170 729 203 734 _c
235 739 266 742 296 742 _c
370 742 429 725 473 691 _c
517 657 539 611 539 553 _c
539 513 527 479 504 451 _c
481 423 448 403 406 393 _c
_cl}_e}_d
/four{636 0 49 0 580 729 _sc
378 643 _m
129 254 _l
378 254 _l
378 643 _l
352 729 _m
476 729 _l
476 254 _l
580 254 _l
580 172 _l
476 172 _l
476 0 _l
378 0 _l
378 172 _l
49 172 _l
49 267 _l
352 729 _l
_cl}_d
/five{{636 0 77 -13 549 729 _sc
108 729 _m
495 729 _l
495 646 _l
198 646 _l
198 467 _l
212 472 227 476 241 478 _c
255 480 270 482 284 482 _c
365 482 429 459 477 415 _c
525 370 549 310 549 234 _c
549 155 524 94 475 51 _c
426 8 357 -13 269 -13 _c
238 -13 207 -10 175 -6 _c
143 -1 111 6 77 17 _c
77 116 _l
106 100 136 88 168 80 _c
199 72 232 69 267 69 _c
}_e{323 69 368 83 401 113 _c
433 143 450 183 450 234 _c
450 284 433 324 401 354 _c
368 384 323 399 267 399 _c
241 399 214 396 188 390 _c
162 384 135 375 108 363 _c
108 729 _l
_cl}_e}_d
/six{{636 0 70 -13 573 742 _sc
330 404 _m
286 404 251 388 225 358 _c
199 328 186 286 186 234 _c
186 181 199 139 225 109 _c
251 79 286 64 330 64 _c
374 64 409 79 435 109 _c
461 139 474 181 474 234 _c
474 286 461 328 435 358 _c
409 388 374 404 330 404 _c
526 713 _m
526 623 _l
501 635 476 644 451 650 _c
425 656 400 659 376 659 _c
310 659 260 637 226 593 _c
}_e{192 549 172 482 168 394 _c
187 422 211 444 240 459 _c
269 474 301 482 336 482 _c
409 482 467 459 509 415 _c
551 371 573 310 573 234 _c
573 159 550 99 506 54 _c
462 9 403 -13 330 -13 _c
246 -13 181 19 137 83 _c
92 147 70 241 70 364 _c
70 479 97 571 152 639 _c
206 707 280 742 372 742 _c
396 742 421 739 447 735 _c
472 730 498 723 526 713 _c
_cl}_e}_d
/seven{636 0 82 0 551 729 _sc
82 729 _m
551 729 _l
551 687 _l
286 0 _l
183 0 _l
432 646 _l
82 646 _l
82 729 _l
_cl}_d
/eight{{636 0 68 -13 568 742 _sc
318 346 _m
271 346 234 333 207 308 _c
180 283 167 249 167 205 _c
167 161 180 126 207 101 _c
234 76 271 64 318 64 _c
364 64 401 76 428 102 _c
455 127 469 161 469 205 _c
469 249 455 283 429 308 _c
402 333 365 346 318 346 _c
219 388 _m
177 398 144 418 120 447 _c
96 476 85 511 85 553 _c
85 611 105 657 147 691 _c
188 725 245 742 318 742 _c
}_e{390 742 447 725 489 691 _c
530 657 551 611 551 553 _c
551 511 539 476 515 447 _c
491 418 459 398 417 388 _c
464 377 501 355 528 323 _c
554 291 568 251 568 205 _c
568 134 546 80 503 43 _c
459 5 398 -13 318 -13 _c
237 -13 175 5 132 43 _c
89 80 68 134 68 205 _c
68 251 81 291 108 323 _c
134 355 171 377 219 388 _c
183 544 _m
183 506 194 476 218 455 _c
}_e{242 434 275 424 318 424 _c
360 424 393 434 417 455 _c
441 476 453 506 453 544 _c
453 582 441 611 417 632 _c
393 653 360 664 318 664 _c
275 664 242 653 218 632 _c
194 611 183 582 183 544 _c
_cl}_e}_d
/A{684 0 8 0 676 729 _sc
342 632 _m
208 269 _l
476 269 _l
342 632 _l
286 729 _m
398 729 _l
676 0 _l
573 0 _l
507 187 _l
178 187 _l
112 0 _l
8 0 _l
286 729 _l
_cl}_d
/C{{698 0 56 -13 644 742 _sc
644 673 _m
644 569 _l
610 599 575 622 537 638 _c
499 653 460 661 418 661 _c
334 661 270 635 226 584 _c
182 533 160 460 160 364 _c
160 268 182 194 226 143 _c
270 92 334 67 418 67 _c
460 67 499 74 537 90 _c
575 105 610 128 644 159 _c
644 56 _l
609 32 572 15 534 4 _c
496 -7 455 -13 412 -13 _c
302 -13 215 20 151 87 _c
}_e{87 154 56 246 56 364 _c
56 481 87 573 151 641 _c
215 708 302 742 412 742 _c
456 742 497 736 535 725 _c
573 713 610 696 644 673 _c
_cl}_e}_d
/L{557 0 98 0 552 729 _sc
98 729 _m
197 729 _l
197 83 _l
552 83 _l
552 0 _l
98 0 _l
98 729 _l
_cl}_d
/N{748 0 98 0 650 729 _sc
98 729 _m
231 729 _l
554 119 _l
554 729 _l
650 729 _l
650 0 _l
517 0 _l
194 610 _l
194 0 _l
98 0 _l
98 729 _l
_cl}_d
/Q{{787 0 56 -128 731 742 _sc
394 662 _m
322 662 265 635 223 582 _c
181 528 160 456 160 364 _c
160 272 181 199 223 146 _c
265 92 322 66 394 66 _c
465 66 522 92 564 146 _c
606 199 627 272 627 364 _c
627 456 606 528 564 582 _c
522 635 465 662 394 662 _c
532 13 _m
662 -128 _l
543 -128 _l
435 -11 _l
424 -11 416 -12 410 -12 _c
404 -12 399 -13 394 -13 _c
291 -13 209 21 148 89 _c
}_e{86 157 56 248 56 364 _c
56 479 86 571 148 639 _c
209 707 291 742 394 742 _c
496 742 577 707 639 639 _c
700 571 731 479 731 364 _c
731 279 714 206 680 146 _c
646 86 596 41 532 13 _c
_cl}_e}_d
/R{{695 0 98 0 666 729 _sc
444 342 _m
465 334 486 319 506 296 _c
526 272 546 240 566 199 _c
666 0 _l
560 0 _l
467 187 _l
443 235 419 268 397 284 _c
374 300 343 308 304 308 _c
197 308 _l
197 0 _l
98 0 _l
98 729 _l
321 729 _l
404 729 466 711 507 677 _c
548 642 569 589 569 519 _c
569 473 558 434 537 404 _c
515 374 484 353 444 342 _c
197 648 _m
197 389 _l
321 389 _l
}_e{368 389 404 400 428 422 _c
452 444 465 476 465 519 _c
465 561 452 593 428 615 _c
404 637 368 648 321 648 _c
197 648 _l
_cl}_e}_d
/T{611 0 -2 0 614 729 _sc
-2 729 _m
614 729 _l
614 646 _l
355 646 _l
355 0 _l
256 0 _l
256 646 _l
-2 646 _l
-2 729 _l
_cl}_d
/a{{613 0 60 -13 522 560 _sc
343 275 _m
270 275 220 266 192 250 _c
164 233 150 205 150 165 _c
150 133 160 107 181 89 _c
202 70 231 61 267 61 _c
317 61 357 78 387 114 _c
417 149 432 196 432 255 _c
432 275 _l
343 275 _l
522 312 _m
522 0 _l
432 0 _l
432 83 _l
411 49 385 25 355 10 _c
325 -5 287 -13 243 -13 _c
187 -13 142 2 109 33 _c
76 64 60 106 60 159 _c
}_e{60 220 80 266 122 298 _c
163 329 224 345 306 345 _c
432 345 _l
432 354 _l
432 395 418 427 391 450 _c
364 472 326 484 277 484 _c
245 484 215 480 185 472 _c
155 464 127 453 100 439 _c
100 522 _l
132 534 164 544 195 550 _c
226 556 256 560 286 560 _c
365 560 424 539 463 498 _c
502 457 522 395 522 312 _c
_cl}_e}_d
/b{{635 0 91 -13 580 760 _sc
487 273 _m
487 339 473 390 446 428 _c
418 466 381 485 334 485 _c
286 485 249 466 222 428 _c
194 390 181 339 181 273 _c
181 207 194 155 222 117 _c
249 79 286 61 334 61 _c
381 61 418 79 446 117 _c
473 155 487 207 487 273 _c
181 464 _m
199 496 223 520 252 536 _c
281 552 316 560 356 560 _c
422 560 476 533 518 481 _c
559 428 580 359 580 273 _c
}_e{580 187 559 117 518 65 _c
476 13 422 -13 356 -13 _c
316 -13 281 -5 252 10 _c
223 25 199 49 181 82 _c
181 0 _l
91 0 _l
91 760 _l
181 760 _l
181 464 _l
_cl}_e}_d
/d{{635 0 55 -13 544 760 _sc
454 464 _m
454 760 _l
544 760 _l
544 0 _l
454 0 _l
454 82 _l
435 49 411 25 382 10 _c
353 -5 319 -13 279 -13 _c
213 -13 159 13 117 65 _c
75 117 55 187 55 273 _c
55 359 75 428 117 481 _c
159 533 213 560 279 560 _c
319 560 353 552 382 536 _c
411 520 435 496 454 464 _c
148 273 _m
148 207 161 155 188 117 _c
215 79 253 61 301 61 _c
}_e{348 61 385 79 413 117 _c
440 155 454 207 454 273 _c
454 339 440 390 413 428 _c
385 466 348 485 301 485 _c
253 485 215 466 188 428 _c
161 390 148 339 148 273 _c
_cl}_e}_d
/e{{615 0 55 -13 562 560 _sc
562 296 _m
562 252 _l
149 252 _l
153 190 171 142 205 110 _c
238 78 284 62 344 62 _c
378 62 412 66 444 74 _c
476 82 509 95 541 113 _c
541 28 _l
509 14 476 3 442 -3 _c
408 -9 373 -13 339 -13 _c
251 -13 182 12 131 62 _c
80 112 55 181 55 268 _c
55 357 79 428 127 481 _c
175 533 241 560 323 560 _c
397 560 455 536 498 489 _c
}_e{540 441 562 377 562 296 _c
472 322 _m
471 371 457 410 431 440 _c
404 469 368 484 324 484 _c
274 484 234 469 204 441 _c
174 413 156 373 152 322 _c
472 322 _l
_cl}_e}_d
/f{352 0 23 0 371 760 _sc
371 760 _m
371 685 _l
285 685 _l
253 685 230 678 218 665 _c
205 652 199 629 199 595 _c
199 547 _l
347 547 _l
347 477 _l
199 477 _l
199 0 _l
109 0 _l
109 477 _l
23 477 _l
23 547 _l
109 547 _l
109 585 _l
109 645 123 690 151 718 _c
179 746 224 760 286 760 _c
371 760 _l
_cl}_d
/g{{635 0 55 -207 544 560 _sc
454 280 _m
454 344 440 395 414 431 _c
387 467 349 485 301 485 _c
253 485 215 467 188 431 _c
161 395 148 344 148 280 _c
148 215 161 165 188 129 _c
215 93 253 75 301 75 _c
349 75 387 93 414 129 _c
440 165 454 215 454 280 _c
544 68 _m
544 -24 523 -93 482 -139 _c
440 -184 377 -207 292 -207 _c
260 -207 231 -204 203 -200 _c
175 -195 147 -188 121 -178 _c
}_e{121 -91 _l
147 -105 173 -115 199 -122 _c
225 -129 251 -133 278 -133 _c
336 -133 380 -117 410 -87 _c
439 -56 454 -10 454 52 _c
454 96 _l
435 64 411 40 382 24 _c
353 8 319 0 279 0 _c
211 0 157 25 116 76 _c
75 127 55 195 55 280 _c
55 364 75 432 116 483 _c
157 534 211 560 279 560 _c
319 560 353 552 382 536 _c
411 520 435 496 454 464 _c
454 547 _l
544 547 _l
}_e{544 68 _l
_cl}_e}_d
/h{634 0 91 0 549 760 _sc
549 330 _m
549 0 _l
459 0 _l
459 327 _l
459 379 448 417 428 443 _c
408 469 378 482 338 482 _c
289 482 251 466 223 435 _c
195 404 181 362 181 309 _c
181 0 _l
91 0 _l
91 760 _l
181 760 _l
181 462 _l
202 494 227 519 257 535 _c
286 551 320 560 358 560 _c
420 560 468 540 500 501 _c
532 462 549 405 549 330 _c
_cl}_d
/i{278 0 94 0 184 760 _sc
94 547 _m
184 547 _l
184 0 _l
94 0 _l
94 547 _l
94 760 _m
184 760 _l
184 646 _l
94 646 _l
94 760 _l
_cl}_d
/l{278 0 94 0 184 760 _sc
94 760 _m
184 760 _l
184 0 _l
94 0 _l
94 760 _l
_cl}_d
/m{{974 0 91 0 889 560 _sc
520 442 _m
542 482 569 511 600 531 _c
631 550 668 560 711 560 _c
767 560 811 540 842 500 _c
873 460 889 403 889 330 _c
889 0 _l
799 0 _l
799 327 _l
799 379 789 418 771 444 _c
752 469 724 482 686 482 _c
639 482 602 466 575 435 _c
548 404 535 362 535 309 _c
535 0 _l
445 0 _l
445 327 _l
445 379 435 418 417 444 _c
398 469 369 482 331 482 _c
}_e{285 482 248 466 221 435 _c
194 404 181 362 181 309 _c
181 0 _l
91 0 _l
91 547 _l
181 547 _l
181 462 _l
201 495 226 520 255 536 _c
283 552 317 560 357 560 _c
397 560 430 550 458 530 _c
486 510 506 480 520 442 _c
_cl}_e}_d
/n{634 0 91 0 549 560 _sc
549 330 _m
549 0 _l
459 0 _l
459 327 _l
459 379 448 417 428 443 _c
408 469 378 482 338 482 _c
289 482 251 466 223 435 _c
195 404 181 362 181 309 _c
181 0 _l
91 0 _l
91 547 _l
181 547 _l
181 462 _l
202 494 227 519 257 535 _c
286 551 320 560 358 560 _c
420 560 468 540 500 501 _c
532 462 549 405 549 330 _c
_cl}_d
/o{612 0 55 -13 557 560 _sc
306 484 _m
258 484 220 465 192 427 _c
164 389 150 338 150 273 _c
150 207 163 156 191 118 _c
219 80 257 62 306 62 _c
354 62 392 80 420 118 _c
448 156 462 207 462 273 _c
462 337 448 389 420 427 _c
392 465 354 484 306 484 _c
306 560 _m
384 560 445 534 490 484 _c
534 433 557 363 557 273 _c
557 183 534 113 490 63 _c
445 12 384 -13 306 -13 _c
227 -13 165 12 121 63 _c
77 113 55 183 55 273 _c
55 363 77 433 121 484 _c
165 534 227 560 306 560 _c
_cl}_d
/p{{635 0 91 -207 580 560 _sc
181 82 _m
181 -207 _l
91 -207 _l
91 547 _l
181 547 _l
181 464 _l
199 496 223 520 252 536 _c
281 552 316 560 356 560 _c
422 560 476 533 518 481 _c
559 428 580 359 580 273 _c
580 187 559 117 518 65 _c
476 13 422 -13 356 -13 _c
316 -13 281 -5 252 10 _c
223 25 199 49 181 82 _c
487 273 _m
487 339 473 390 446 428 _c
418 466 381 485 334 485 _c
}_e{286 485 249 466 222 428 _c
194 390 181 339 181 273 _c
181 207 194 155 222 117 _c
249 79 286 61 334 61 _c
381 61 418 79 446 117 _c
473 155 487 207 487 273 _c
_cl}_e}_d
/r{411 0 91 0 411 560 _sc
411 463 _m
401 469 390 473 378 476 _c
366 478 353 480 339 480 _c
288 480 249 463 222 430 _c
194 397 181 350 181 288 _c
181 0 _l
91 0 _l
91 547 _l
181 547 _l
181 462 _l
199 495 224 520 254 536 _c
284 552 321 560 365 560 _c
371 560 378 559 386 559 _c
393 558 401 557 411 555 _c
411 463 _l
_cl}_d
/s{{521 0 54 -13 472 560 _sc
443 531 _m
443 446 _l
417 458 391 468 364 475 _c
336 481 308 485 279 485 _c
234 485 200 478 178 464 _c
156 450 145 430 145 403 _c
145 382 153 366 169 354 _c
185 342 217 330 265 320 _c
296 313 _l
360 299 405 279 432 255 _c
458 230 472 195 472 151 _c
472 100 452 60 412 31 _c
372 1 316 -13 246 -13 _c
216 -13 186 -10 154 -5 _c
}_e{122 0 89 8 54 20 _c
54 113 _l
87 95 120 82 152 74 _c
184 65 216 61 248 61 _c
290 61 323 68 346 82 _c
368 96 380 117 380 144 _c
380 168 371 187 355 200 _c
339 213 303 226 247 238 _c
216 245 _l
160 257 119 275 95 299 _c
70 323 58 356 58 399 _c
58 450 76 490 112 518 _c
148 546 200 560 268 560 _c
301 560 332 557 362 552 _c
391 547 418 540 443 531 _c
}_e{_cl}_e}_d
/t{392 0 27 0 368 702 _sc
183 702 _m
183 547 _l
368 547 _l
368 477 _l
183 477 _l
183 180 _l
183 135 189 106 201 94 _c
213 81 238 75 276 75 _c
368 75 _l
368 0 _l
276 0 _l
206 0 158 13 132 39 _c
106 65 93 112 93 180 _c
93 477 _l
27 477 _l
27 547 _l
93 547 _l
93 702 _l
183 702 _l
_cl}_d
/u{634 0 85 -13 543 560 _sc
85 216 _m
85 547 _l
175 547 _l
175 219 _l
175 167 185 129 205 103 _c
225 77 255 64 296 64 _c
344 64 383 79 411 110 _c
439 141 453 183 453 237 _c
453 547 _l
543 547 _l
543 0 _l
453 0 _l
453 84 _l
431 50 405 26 377 10 _c
348 -5 315 -13 277 -13 _c
214 -13 166 6 134 45 _c
101 83 85 140 85 216 _c
311 560 _m
311 560 _l
_cl}_d
/v{592 0 30 0 562 547 _sc
30 547 _m
125 547 _l
296 88 _l
467 547 _l
562 547 _l
357 0 _l
235 0 _l
30 547 _l
_cl}_d
/minus{838 0 106 272 732 355 _sc
106 355 _m
732 355 _l
732 272 _l
106 272 _l
106 355 _l
_cl}_d
end readonly def

/BuildGlyph
 {exch begin
 CharStrings exch
 2 copy known not{pop /.notdef}if
 true 3 1 roll get exec
 end}_d

/BuildChar {
 1 index /Encoding get exch get
 1 index /BuildGlyph get exec
}_d

FontName currentdict end definefont pop
end
%%EndProlog
mpldict begin
-126 108 translate
864 576 0 0 clipbox
gsave
0 0 m
864 0 l
864 576 l
0 576 l
cl
1.000 setgray
fill
grestore
gsave
108 72 m
777.6 72 l
777.6 506.88 l
108 506.88 l
cl
1.000 setgray
fill
grestore
gsave
669.6 434.9 108 72 clipbox
138.436364 367.845834 m
138.436364 367.842879 l
142.549386 367.988936 l
146.662408 368.236747 l
150.77543 368.579773 l
154.888452 368.991611 l
159.001474 369.501754 l
163.114496 370.105144 l
167.227518 370.751309 l
171.340541 371.401224 l
175.453563 372.126359 l
179.566585 372.908606 l
183.679607 373.701513 l
187.792629 374.599159 l
191.905651 375.582222 l
196.018673 376.566334 l
200.131695 377.55874 l
204.244717 378.519675 l
208.35774 379.567449 l
212.470762 380.707936 l
216.583784 381.880418 l
220.696806 383.154749 l
224.809828 384.361817 l
228.92285 385.505903 l
233.035872 386.545483 l
237.148894 387.692938 l
241.261916 388.850068 l
245.374939 390.062949 l
249.487961 391.177966 l
253.600983 392.283732 l
257.714005 393.488783 l
261.827027 394.737871 l
265.940049 396.020571 l
270.053071 397.181884 l
274.166093 398.181082 l
278.279115 399.235071 l
282.392138 400.318256 l
286.50516 401.315845 l
290.618182 402.499235 l
294.731204 403.746085 l
298.844226 404.991164 l
302.957248 406.22636 l
307.07027 407.447462 l
311.183292 408.704447 l
315.296314 410.010518 l
319.409337 411.173468 l
323.522359 412.339437 l
327.635381 413.662703 l
331.748403 415.283953 l
335.861425 416.786571 l
339.974447 418.306239 l
344.087469 419.743224 l
348.200491 421.044497 l
352.313514 422.486803 l
356.426536 423.977313 l
360.539558 425.594598 l
364.65258 427.213342 l
368.765602 428.973676 l
372.878624 430.548856 l
376.991646 432.235287 l
381.104668 433.964192 l
385.21769 435.627627 l
389.330713 437.307336 l
393.443735 439.047877 l
397.556757 440.620095 l
401.669779 442.058539 l
405.782801 443.604784 l
409.895823 445.07397 l
409.895823 474.418406 l
409.895823 474.418406 l
405.782801 470.66634 l
401.669779 467.093795 l
397.556757 463.743733 l
393.443735 460.473712 l
389.330713 457.339084 l
385.21769 454.418576 l
381.104668 451.594203 l
376.991646 448.898766 l
372.878624 446.398404 l
368.765602 444.015195 l
364.65258 441.590969 l
360.539558 439.230664 l
356.426536 436.994559 l
352.313514 434.866239 l
348.200491 432.638153 l
344.087469 430.554833 l
339.974447 428.511797 l
335.861425 426.565178 l
331.748403 424.598857 l
327.635381 422.69681 l
323.522359 420.709304 l
319.409337 418.806426 l
315.296314 417.039613 l
311.183292 415.384547 l
307.07027 413.750673 l
302.957248 412.225103 l
298.844226 410.59757 l
294.731204 409.068128 l
290.618182 407.698257 l
286.50516 406.246063 l
282.392138 404.735625 l
278.279115 403.192857 l
274.166093 401.783902 l
270.053071 400.418493 l
265.940049 399.182101 l
261.827027 397.824725 l
257.714005 396.446192 l
253.600983 395.066928 l
249.487961 393.76642 l
245.374939 392.443348 l
241.261916 391.095792 l
237.148894 389.737826 l
233.035872 388.449948 l
228.92285 387.218832 l
224.809828 386.091196 l
220.696806 384.925874 l
216.583784 383.661845 l
212.470762 382.406439 l
208.35774 381.20052 l
204.244717 380.052497 l
200.131695 378.853653 l
196.018673 377.712616 l
191.905651 376.532303 l
187.792629 375.426819 l
183.679607 374.386203 l
179.566585 373.441991 l
175.453563 372.564754 l
171.340541 371.751401 l
167.227518 370.959098 l
163.114496 370.270457 l
159.001474 369.658341 l
154.888452 369.120862 l
150.77543 368.649998 l
146.662408 368.279935 l
142.549386 368.005795 l
138.436364 367.845834 l
cl
0.122 0.467 0.706 setrgbcolor
fill
grestore
gsave
669.6 434.9 108 72 clipbox
138.436364 367.851208 m
138.436364 367.834082 l
142.549386 367.943369 l
146.662408 368.094484 l
150.77543 368.269162 l
154.888452 368.458471 l
159.001474 368.664021 l
163.114496 368.899565 l
167.227518 369.10543 l
171.340541 369.333556 l
175.453563 369.574385 l
179.566585 369.708388 l
183.679607 369.788905 l
187.792629 369.862827 l
191.905651 369.561279 l
196.018673 369.00298 l
200.131695 368.313439 l
204.244717 367.450916 l
208.35774 366.108353 l
212.470762 364.597667 l
216.583784 362.82164 l
220.696806 360.580059 l
224.809828 358.056296 l
228.92285 355.350032 l
233.035872 352.075485 l
237.148894 348.586974 l
241.261916 345.292932 l
245.374939 341.739942 l
249.487961 336.956162 l
253.600983 331.278539 l
257.714005 324.803628 l
261.827027 318.192996 l
265.940049 311.910273 l
270.053071 305.823721 l
274.166093 299.52052 l
278.279115 293.178324 l
282.392138 286.828788 l
286.50516 280.593121 l
290.618182 274.76573 l
294.731204 269.773358 l
298.844226 264.748998 l
302.957248 259.394339 l
307.07027 253.873073 l
311.183292 248.098837 l
315.296314 242.135333 l
319.409337 236.678423 l
323.522359 231.763186 l
327.635381 226.957593 l
331.748403 222.543963 l
335.861425 218.172429 l
339.974447 213.828278 l
344.087469 209.378036 l
348.200491 205.444161 l
352.313514 202.302362 l
356.426536 199.311957 l
360.539558 196.540256 l
364.65258 193.461911 l
368.765602 190.675251 l
372.878624 187.960926 l
376.991646 185.788374 l
381.104668 184.060723 l
385.21769 182.742622 l
389.330713 181.35162 l
393.443735 180.041241 l
397.556757 178.914792 l
401.669779 177.67722 l
405.782801 176.66219 l
409.895823 176.150715 l
414.008845 175.594238 l
418.121867 174.871751 l
422.234889 174.303241 l
426.347912 173.735083 l
430.460934 172.81139 l
434.573956 172.022161 l
438.686978 171.245922 l
442.8 170.40981 l
446.913022 169.483598 l
451.026044 168.540821 l
455.139066 167.7179 l
459.252088 167.071673 l
463.365111 166.219683 l
467.478133 165.326627 l
471.591155 164.552295 l
475.704177 163.883094 l
479.817199 163.314468 l
483.930221 162.860367 l
488.043243 162.238326 l
492.156265 161.580944 l
496.269287 161.065204 l
500.38231 160.441736 l
504.495332 159.686389 l
508.608354 159.041846 l
512.721376 158.438819 l
516.834398 157.787907 l
520.94742 157.250327 l
525.060442 156.993068 l
529.173464 156.709448 l
533.286486 156.349354 l
537.399509 155.927332 l
541.512531 155.698662 l
545.625553 155.202233 l
549.738575 154.809291 l
553.851597 154.519252 l
557.964619 154.287904 l
562.077641 154.115043 l
566.190663 153.943659 l
570.303686 153.749406 l
574.416708 153.640485 l
578.52973 153.586407 l
582.642752 153.519999 l
586.755774 153.446438 l
590.868796 153.369882 l
594.981818 153.191964 l
599.09484 153.068579 l
603.207862 152.996634 l
607.320885 152.932085 l
611.433907 152.941534 l
615.546929 153.007068 l
619.659951 152.987516 l
623.772973 152.837706 l
627.885995 152.713331 l
631.999017 152.507429 l
636.112039 152.22174 l
640.225061 152.02942 l
644.338084 151.952675 l
648.451106 151.956292 l
652.564128 151.94632 l
656.67715 151.898453 l
660.790172 151.868429 l
664.903194 151.804023 l
669.016216 151.725928 l
673.129238 151.774109 l
677.24226 151.757254 l
681.355283 151.861592 l
685.468305 151.958614 l
689.581327 151.947283 l
693.694349 151.896297 l
697.807371 151.823753 l
701.920393 151.791791 l
706.033415 151.718512 l
710.146437 151.464345 l
714.259459 151.68594 l
718.372482 151.535186 l
722.485504 151.923792 l
726.598526 151.826643 l
730.711548 151.922261 l
734.82457 151.299108 l
738.937592 151.46828 l
743.050614 151.144683 l
747.163636 150.945784 l
747.163636 158.384356 l
747.163636 158.384356 l
743.050614 158.411035 l
738.937592 157.962577 l
734.82457 158.628094 l
730.711548 157.215923 l
726.598526 157.678446 l
722.485504 157.01448 l
718.372482 158.57822 l
714.259459 157.49493 l
710.146437 158.875556 l
706.033415 157.964799 l
701.920393 158.263436 l
697.807371 158.414024 l
693.694349 158.311503 l
689.581327 158.146241 l
685.468305 158.065968 l
681.355283 158.164223 l
677.24226 158.323394 l
673.129238 158.533872 l
669.016216 158.736771 l
664.903194 158.944966 l
660.790172 159.092741 l
656.67715 159.340464 l
652.564128 159.508514 l
648.451106 159.772496 l
644.338084 159.811135 l
640.225061 159.968428 l
636.112039 160.182992 l
631.999017 160.432616 l
627.885995 160.663313 l
623.772973 160.896832 l
619.659951 160.981972 l
615.546929 161.10533 l
611.433907 161.336698 l
607.320885 161.524161 l
603.207862 161.707397 l
599.09484 161.964803 l
594.981818 162.188165 l
590.868796 162.410017 l
586.755774 162.64265 l
582.642752 162.871555 l
578.52973 163.156294 l
574.416708 163.402783 l
570.303686 163.685164 l
566.190663 164.058208 l
562.077641 164.290068 l
557.964619 164.566414 l
553.851597 165.021604 l
549.738575 165.514822 l
545.625553 166.017139 l
541.512531 166.55158 l
537.399509 167.005357 l
533.286486 167.501455 l
529.173464 167.951905 l
525.060442 168.300002 l
520.94742 168.556302 l
516.834398 169.024272 l
512.721376 169.374755 l
508.608354 169.823439 l
504.495332 170.461617 l
500.38231 171.14613 l
496.269287 172.003644 l
492.156265 172.718525 l
488.043243 173.824442 l
483.930221 175.029763 l
479.817199 176.191496 l
475.704177 177.047176 l
471.591155 177.991745 l
467.478133 178.277568 l
463.365111 178.465999 l
459.252088 179.06746 l
455.139066 180.149106 l
451.026044 181.401004 l
446.913022 182.684646 l
442.8 183.819358 l
438.686978 185.077915 l
434.573956 186.182726 l
430.460934 187.544183 l
426.347912 188.689782 l
422.234889 189.972254 l
418.121867 191.156422 l
414.008845 192.053825 l
409.895823 193.004953 l
405.782801 194.00109 l
401.669779 195.00155 l
397.556757 195.736144 l
393.443735 196.519311 l
389.330713 197.497259 l
385.21769 198.743594 l
381.104668 200.195573 l
376.991646 201.845929 l
372.878624 203.63747 l
368.765602 205.574773 l
364.65258 207.852907 l
360.539558 210.316441 l
356.426536 213.36516 l
352.313514 216.797808 l
348.200491 220.241807 l
344.087469 224.158516 l
339.974447 228.331358 l
335.861425 232.540666 l
331.748403 236.987606 l
327.635381 242.48148 l
323.522359 248.179785 l
319.409337 252.888667 l
315.296314 258.095664 l
311.183292 264.246873 l
307.07027 270.09918 l
302.957248 274.986089 l
298.844226 280.610727 l
294.731204 286.566947 l
290.618182 292.086528 l
286.50516 297.785274 l
282.392138 304.76677 l
278.279115 311.328486 l
274.166093 317.857645 l
270.053071 324.663311 l
265.940049 331.044425 l
261.827027 337.952704 l
257.714005 344.678665 l
253.600983 350.603549 l
249.487961 354.791918 l
245.374939 357.798828 l
241.261916 360.179571 l
237.148894 361.999923 l
233.035872 363.473296 l
228.92285 364.755992 l
224.809828 366.424604 l
220.696806 367.811247 l
216.583784 368.858892 l
212.470762 369.896719 l
208.35774 370.661238 l
204.244717 371.07211 l
200.131695 371.178639 l
196.018673 371.234666 l
191.905651 371.023018 l
187.792629 370.81797 l
183.679607 370.576926 l
179.566585 370.313469 l
175.453563 370.137429 l
171.340541 369.95204 l
167.227518 369.799632 l
163.114496 369.526071 l
159.001474 369.221762 l
154.888452 368.876926 l
150.77543 368.537044 l
146.662408 368.263162 l
142.549386 368.011564 l
138.436364 367.851208 l
cl
1.000 0.498 0.055 setrgbcolor
fill
grestore
gsave
669.6 434.9 108 72 clipbox
138.436364 367.834618 m
138.436364 367.815599 l
142.549386 367.866463 l
146.662408 367.925437 l
150.77543 367.998497 l
154.888452 368.06251 l
159.001474 368.075211 l
163.114496 367.947475 l
167.227518 368.110582 l
171.340541 368.450472 l
175.453563 369.060465 l
179.566585 369.582754 l
183.679607 370.278248 l
187.792629 370.34866 l
191.905651 369.814765 l
196.018673 368.655991 l
200.131695 366.540839 l
204.244717 364.458617 l
208.35774 362.46894 l
212.470762 359.365619 l
216.583784 354.102286 l
220.696806 347.219593 l
224.809828 339.076911 l
228.92285 329.766683 l
233.035872 319.37446 l
237.148894 308.732378 l
241.261916 298.011846 l
245.374939 286.281243 l
249.487961 275.253224 l
253.600983 265.327878 l
257.714005 257.396663 l
261.827027 251.445078 l
265.940049 245.186699 l
270.053071 239.294621 l
274.166093 233.868256 l
278.279115 228.326882 l
282.392138 223.310885 l
286.50516 218.972189 l
290.618182 214.869584 l
294.731204 211.073149 l
298.844226 207.67051 l
302.957248 203.878613 l
307.07027 200.299192 l
311.183292 197.39833 l
315.296314 195.009288 l
319.409337 193.315176 l
323.522359 191.714221 l
327.635381 190.285998 l
331.748403 188.709081 l
335.861425 187.104732 l
339.974447 186.215764 l
344.087469 185.276123 l
348.200491 184.6245 l
352.313514 183.934062 l
356.426536 183.213889 l
360.539558 182.241982 l
364.65258 181.276259 l
368.765602 180.249542 l
372.878624 179.122787 l
376.991646 177.982766 l
381.104668 177.209194 l
385.21769 176.652742 l
389.330713 175.573785 l
393.443735 174.307228 l
397.556757 173.122176 l
401.669779 171.912335 l
405.782801 170.707957 l
409.895823 169.688745 l
414.008845 168.950862 l
418.121867 168.496383 l
422.234889 168.136116 l
426.347912 167.513901 l
430.460934 166.921728 l
434.573956 166.484855 l
438.686978 165.880263 l
442.8 165.313548 l
446.913022 164.909357 l
451.026044 164.680962 l
455.139066 164.343198 l
459.252088 164.218661 l
463.365111 164.103453 l
467.478133 163.861463 l
471.591155 163.522819 l
475.704177 163.128377 l
479.817199 162.492384 l
483.930221 161.915843 l
488.043243 161.543685 l
492.156265 161.292536 l
496.269287 161.043637 l
500.38231 160.818707 l
504.495332 160.570789 l
508.608354 160.306705 l
512.721376 160.06926 l
516.834398 159.859043 l
520.94742 159.755861 l
525.060442 159.62198 l
529.173464 159.538638 l
533.286486 159.425754 l
537.399509 159.285209 l
541.512531 158.987753 l
545.625553 158.826331 l
549.738575 158.576657 l
553.851597 158.191211 l
557.964619 157.767027 l
562.077641 157.554864 l
566.190663 157.29196 l
570.303686 157.052343 l
574.416708 156.80808 l
578.52973 156.636872 l
582.642752 156.459178 l
586.755774 156.28447 l
590.868796 156.217787 l
594.981818 155.936064 l
599.09484 155.688703 l
603.207862 155.452334 l
607.320885 155.340431 l
611.433907 155.199442 l
615.546929 155.028248 l
619.659951 154.908481 l
623.772973 154.755237 l
627.885995 154.49954 l
631.999017 154.284419 l
636.112039 154.264931 l
640.225061 154.284134 l
644.338084 154.356675 l
648.451106 154.264769 l
652.564128 154.379231 l
656.67715 154.459228 l
660.790172 154.746658 l
664.903194 154.835904 l
669.016216 155.013179 l
673.129238 155.194586 l
677.24226 155.312918 l
681.355283 155.06038 l
685.468305 154.544097 l
689.581327 154.019167 l
693.694349 153.604879 l
697.807371 153.417213 l
701.920393 153.447509 l
706.033415 153.478161 l
710.146437 153.025817 l
714.259459 152.537221 l
718.372482 152.116222 l
722.485504 151.782558 l
726.598526 151.928302 l
730.711548 152.21115 l
734.82457 152.393218 l
738.937592 152.458679 l
743.050614 152.646659 l
747.163636 152.824675 l
747.163636 155.438492 l
747.163636 155.438492 l
743.050614 155.615494 l
738.937592 155.893184 l
734.82457 156.139577 l
730.711548 156.543638 l
726.598526 157.298032 l
722.485504 158.183834 l
718.372482 158.460677 l
714.259459 159.231838 l
710.146437 159.73174 l
706.033415 159.712745 l
701.920393 160.217924 l
697.807371 160.760624 l
693.694349 160.836458 l
689.581327 160.227941 l
685.468305 159.473211 l
681.355283 158.52282 l
677.24226 157.887617 l
673.129238 157.51043 l
669.016216 157.629823 l
664.903194 157.739394 l
660.790172 157.868294 l
656.67715 158.012159 l
652.564128 158.032821 l
648.451106 158.209867 l
644.338084 158.531644 l
640.225061 158.988842 l
636.112039 159.158133 l
631.999017 159.307837 l
627.885995 159.518017 l
623.772973 159.726606 l
619.659951 159.9042 l
615.546929 160.111355 l
611.433907 160.394091 l
607.320885 160.67747 l
603.207862 160.935183 l
599.09484 161.169698 l
594.981818 161.444971 l
590.868796 161.661094 l
586.755774 161.831223 l
582.642752 162.097386 l
578.52973 162.352191 l
574.416708 162.74116 l
570.303686 163.064653 l
566.190663 163.23972 l
562.077641 163.417573 l
557.964619 163.592534 l
553.851597 163.803286 l
549.738575 163.989507 l
545.625553 164.214192 l
541.512531 164.530045 l
537.399509 164.843898 l
533.286486 165.234421 l
529.173464 165.710574 l
525.060442 166.183987 l
520.94742 166.657609 l
516.834398 166.887537 l
512.721376 167.230259 l
508.608354 167.443687 l
504.495332 167.742396 l
500.38231 168.057544 l
496.269287 168.51933 l
492.156265 168.923887 l
488.043243 169.409334 l
483.930221 169.842564 l
479.817199 170.160745 l
475.704177 170.526526 l
471.591155 171.154992 l
467.478133 171.620297 l
463.365111 172.371855 l
459.252088 173.228819 l
455.139066 173.586179 l
451.026044 173.731806 l
446.913022 173.805918 l
442.8 174.115371 l
438.686978 174.710537 l
434.573956 175.394096 l
430.460934 176.422687 l
426.347912 177.256997 l
422.234889 177.916761 l
418.121867 178.750965 l
414.008845 179.867144 l
409.895823 180.554143 l
405.782801 181.016087 l
401.669779 181.802627 l
397.556757 182.764181 l
393.443735 183.89423 l
389.330713 185.210167 l
385.21769 186.524805 l
381.104668 187.615782 l
376.991646 189.307656 l
372.878624 190.91581 l
368.765602 192.395939 l
364.65258 193.902902 l
360.539558 195.580233 l
356.426536 197.19856 l
352.313514 199.445157 l
348.200491 201.661252 l
344.087469 203.801794 l
339.974447 205.83493 l
335.861425 207.827794 l
331.748403 208.991492 l
327.635381 210.163102 l
323.522359 211.813459 l
319.409337 213.687718 l
315.296314 215.707777 l
311.183292 217.521155 l
307.07027 219.586455 l
302.957248 222.157556 l
298.844226 224.814203 l
294.731204 227.613256 l
290.618182 230.831018 l
286.50516 234.166356 l
282.392138 237.186108 l
278.279115 240.732794 l
274.166093 246.304123 l
270.053071 253.849639 l
265.940049 261.470377 l
261.827027 269.436475 l
257.714005 279.305234 l
253.600983 288.533335 l
249.487961 297.83082 l
245.374939 308.446081 l
241.261916 319.525022 l
237.148894 329.544442 l
233.035872 337.70848 l
228.92285 343.931535 l
224.809828 351.33729 l
220.696806 357.815018 l
216.583784 363.15845 l
212.470762 368.118917 l
208.35774 372.639441 l
204.244717 373.906801 l
200.131695 374.708512 l
196.018673 374.817161 l
191.905651 374.536568 l
187.792629 373.611778 l
183.679607 373.076839 l
179.566585 372.17943 l
175.453563 370.980149 l
171.340541 370.231258 l
167.227518 369.606874 l
163.114496 369.123115 l
159.001474 368.810151 l
154.888452 368.547205 l
150.77543 368.314921 l
146.662408 368.108257 l
142.549386 367.945813 l
138.436364 367.834618 l
cl
0.173 0.627 0.173 setrgbcolor
fill
grestore
gsave
669.6 434.9 108 72 clipbox
138.436364 367.851041 m
138.436364 367.799574 l
142.549386 367.846686 l
146.662408 367.951839 l
150.77543 368.528634 l
154.888452 369.678775 l
159.001474 372.617819 l
163.114496 377.302217 l
167.227518 382.841045 l
171.340541 385.534959 l
175.453563 385.982054 l
179.566585 382.203192 l
183.679607 373.08661 l
187.792629 360.49798 l
191.905651 346.005894 l
196.018673 328.806836 l
200.131695 315.762188 l
204.244717 304.482209 l
208.35774 295.566437 l
212.470762 287.319766 l
216.583784 276.601399 l
220.696806 267.303113 l
224.809828 264.520999 l
228.92285 261.967366 l
233.035872 258.839017 l
237.148894 253.91366 l
241.261916 249.175299 l
245.374939 243.551492 l
249.487961 237.283782 l
253.600983 231.751944 l
257.714005 227.487139 l
261.827027 223.299722 l
265.940049 219.086269 l
270.053071 216.197765 l
274.166093 213.067727 l
278.279115 209.88756 l
282.392138 207.6279 l
286.50516 204.899368 l
290.618182 201.961503 l
294.731204 199.533903 l
298.844226 196.94427 l
302.957248 194.931659 l
307.07027 192.571908 l
311.183292 191.283159 l
315.296314 189.461959 l
319.409337 188.188292 l
323.522359 187.178961 l
327.635381 186.422531 l
331.748403 185.262133 l
335.861425 183.423646 l
339.974447 180.504191 l
344.087469 179.066809 l
348.200491 178.252828 l
352.313514 175.9264 l
356.426536 174.575521 l
360.539558 174.481868 l
364.65258 173.136095 l
368.765602 171.373959 l
372.878624 169.982524 l
376.991646 170.57312 l
381.104668 170.076435 l
385.21769 169.476556 l
389.330713 169.796367 l
393.443735 170.088846 l
397.556757 169.591342 l
401.669779 168.929842 l
405.782801 168.836858 l
409.895823 167.36606 l
414.008845 165.800948 l
418.121867 165.193231 l
422.234889 165.518969 l
426.347912 165.484844 l
430.460934 165.524493 l
434.573956 166.12908 l
438.686978 165.344568 l
442.8 163.952912 l
446.913022 163.397227 l
451.026044 162.190863 l
455.139066 161.827215 l
459.252088 161.612734 l
463.365111 161.33228 l
467.478133 161.2498 l
471.591155 161.150883 l
475.704177 160.540454 l
479.817199 160.195579 l
483.930221 159.496304 l
488.043243 159.554461 l
492.156265 159.618333 l
496.269287 158.443505 l
500.38231 158.973193 l
504.495332 160.104179 l
508.608354 159.770582 l
512.721376 159.207389 l
516.834398 158.766139 l
520.94742 158.260717 l
525.060442 158.084244 l
529.173464 158.088844 l
533.286486 158.070201 l
537.399509 158.064454 l
541.512531 157.062738 l
545.625553 155.360755 l
549.738575 151.949805 l
553.851597 147.91836 l
557.964619 147.635159 l
562.077641 149.212546 l
566.190663 149.879918 l
570.303686 152.384267 l
574.416708 156.301855 l
578.52973 155.53109 l
582.642752 153.052618 l
586.755774 150.495006 l
590.868796 150.009245 l
594.981818 151.087742 l
599.09484 150.492446 l
603.207862 148.297089 l
607.320885 147.622633 l
611.433907 146.621523 l
615.546929 144.892168 l
619.659951 144.145152 l
623.772973 147.738882 l
627.885995 149.558515 l
631.999017 149.654039 l
636.112039 148.489083 l
640.225061 146.90991 l
644.338084 144.47365 l
648.451106 144.64823 l
652.564128 146.43033 l
656.67715 148.712774 l
660.790172 148.943622 l
664.903194 147.08395 l
669.016216 144.694268 l
673.129238 141.481977 l
677.24226 137.107505 l
681.355283 137.632405 l
685.468305 142.365263 l
689.581327 143.478366 l
693.694349 139.154152 l
697.807371 135.080027 l
701.920393 137.034089 l
706.033415 142.634989 l
710.146437 140.536869 l
714.259459 138.146925 l
718.372482 135.617812 l
722.485504 136.785333 l
726.598526 143.1911 l
730.711548 143.891144 l
734.82457 140.869358 l
738.937592 138.101354 l
743.050614 136.972353 l
747.163636 135.189998 l
747.163636 176.125015 l
747.163636 176.125015 l
743.050614 170.39631 l
738.937592 167.407355 l
734.82457 162.334258 l
730.711548 158.591518 l
726.598526 161.928613 l
722.485504 174.405273 l
718.372482 177.758903 l
714.259459 177.285237 l
710.146437 176.30401 l
706.033415 174.724125 l
701.920393 183.131971 l
697.807371 188.958521 l
693.694349 182.45923 l
689.581327 175.62356 l
685.468305 177.386431 l
681.355283 186.445941 l
677.24226 187.556946 l
673.129238 178.105898 l
669.016216 171.899336 l
664.903194 169.199159 l
660.790172 167.129124 l
656.67715 170.118089 l
652.564128 174.396137 l
648.451106 173.516783 l
644.338084 171.59338 l
640.225061 166.829074 l
636.112039 163.37841 l
631.999017 161.190697 l
627.885995 162.703184 l
623.772973 167.740044 l
619.659951 179.256707 l
615.546929 183.522535 l
611.433907 184.78421 l
607.320885 185.161448 l
603.207862 183.872562 l
599.09484 182.483525 l
594.981818 181.318052 l
590.868796 184.140367 l
586.755774 181.537829 l
582.642752 175.787129 l
578.52973 174.356439 l
574.416708 172.738256 l
570.303686 182.129285 l
566.190663 185.702062 l
562.077641 188.71902 l
557.964619 194.047229 l
553.851597 194.912448 l
549.738575 185.99516 l
545.625553 178.420785 l
541.512531 171.605433 l
537.399509 165.856312 l
533.286486 163.556901 l
529.173464 163.547853 l
525.060442 163.92003 l
520.94742 164.773858 l
516.834398 164.780941 l
512.721376 164.948765 l
508.608354 166.079154 l
504.495332 167.692709 l
500.38231 167.451917 l
496.269287 168.153704 l
492.156265 166.931866 l
488.043243 166.392088 l
483.930221 166.605399 l
479.817199 166.942425 l
475.704177 168.410305 l
471.591155 168.643905 l
467.478133 167.699979 l
463.365111 167.534554 l
459.252088 167.696331 l
455.139066 167.872988 l
451.026044 168.579495 l
446.913022 168.680326 l
442.8 170.15566 l
438.686978 171.587309 l
434.573956 171.615411 l
430.460934 172.58375 l
426.347912 173.708788 l
422.234889 174.451604 l
418.121867 175.555108 l
414.008845 176.331085 l
409.895823 176.620025 l
405.782801 177.896921 l
401.669779 179.492749 l
397.556757 179.965423 l
393.443735 182.165459 l
389.330713 183.776173 l
385.21769 186.717877 l
381.104668 187.453696 l
376.991646 189.36525 l
372.878624 189.87105 l
368.765602 189.656885 l
364.65258 190.250799 l
360.539558 192.429038 l
356.426536 194.921002 l
352.313514 196.55137 l
348.200491 197.063134 l
344.087469 197.473022 l
339.974447 196.88063 l
335.861425 197.664885 l
331.748403 199.586576 l
327.635381 200.800745 l
323.522359 201.960585 l
319.409337 203.974582 l
315.296314 206.169655 l
311.183292 207.785897 l
307.07027 209.470367 l
302.957248 211.711367 l
298.844226 212.436071 l
294.731204 213.704119 l
290.618182 216.440019 l
286.50516 218.777134 l
282.392138 221.522529 l
278.279115 224.535645 l
274.166093 227.036587 l
270.053071 231.283259 l
265.940049 235.922339 l
261.827027 241.204041 l
257.714005 246.612946 l
253.600983 249.848396 l
249.487961 252.237039 l
245.374939 257.554509 l
241.261916 262.174438 l
237.148894 272.170838 l
233.035872 279.874833 l
228.92285 285.083669 l
224.809828 292.773857 l
220.696806 304.824503 l
216.583784 316.078014 l
212.470762 332.6822 l
208.35774 345.963074 l
204.244717 352.224757 l
200.131695 362.583004 l
196.018673 373.471073 l
191.905651 382.606887 l
187.792629 394.352352 l
183.679607 408.347922 l
179.566585 420.577819 l
175.453563 426.855403 l
171.340541 425.378784 l
167.227518 417.103668 l
163.114496 406.389334 l
159.001474 394.202562 l
154.888452 382.367508 l
150.77543 374.496417 l
146.662408 370.04093 l
142.549386 368.171004 l
138.436364 367.851041 l
cl
0.839 0.153 0.157 setrgbcolor
fill
grestore
gsave
669.6 434.9 108 72 clipbox
138.436364 368.244703 m
138.436364 367.853162 l
142.549386 368.816711 l
146.662408 371.9883 l
150.77543 377.778125 l
154.888452 384.225527 l
159.001474 388.889581 l
163.114496 396.575111 l
167.227518 402.775747 l
171.340541 402.803288 l
175.453563 389.503352 l
179.566585 365.012287 l
183.679607 344.750053 l
187.792629 329.192841 l
191.905651 309.660622 l
196.018673 293.726548 l
200.131695 282.757406 l
204.244717 275.22948 l
208.35774 273.551737 l
212.470762 270.917363 l
216.583784 264.527183 l
220.696806 260.752354 l
224.809828 256.654992 l
228.92285 252.175777 l
233.035872 250.773065 l
237.148894 243.177436 l
241.261916 238.989154 l
245.374939 237.380157 l
249.487961 235.004656 l
253.600983 231.09915 l
257.714005 228.785956 l
261.827027 223.988538 l
265.940049 221.187743 l
270.053071 218.81329 l
274.166093 218.543038 l
278.279115 215.854885 l
282.392138 211.604979 l
286.50516 206.886882 l
290.618182 205.661756 l
294.731204 204.967278 l
298.844226 206.215434 l
302.957248 201.374249 l
307.07027 199.18617 l
311.183292 201.14219 l
315.296314 199.52261 l
319.409337 197.809874 l
323.522359 193.832661 l
327.635381 188.212033 l
331.748403 187.969465 l
335.861425 186.092359 l
339.974447 183.812899 l
344.087469 182.358763 l
348.200491 182.02781 l
352.313514 180.628917 l
356.426536 177.243098 l
360.539558 174.606281 l
364.65258 173.647259 l
368.765602 176.289812 l
372.878624 176.14866 l
376.991646 174.189175 l
381.104668 173.595178 l
385.21769 174.683607 l
389.330713 171.878456 l
393.443735 169.860639 l
397.556757 168.317167 l
401.669779 167.08478 l
405.782801 163.713397 l
409.895823 159.667353 l
414.008845 160.772852 l
418.121867 164.661578 l
422.234889 166.6712 l
426.347912 164.67462 l
430.460934 156.555256 l
434.573956 149.31204 l
438.686978 148.450996 l
442.8 159.468557 l
446.913022 162.066659 l
451.026044 158.854421 l
455.139066 155.472283 l
459.252088 158.063054 l
463.365111 157.949622 l
467.478133 158.336638 l
471.591155 161.804086 l
475.704177 158.371239 l
479.817199 156.373434 l
483.930221 154.910188 l
488.043243 154.095695 l
492.156265 153.918192 l
496.269287 153.953867 l
500.38231 153.947286 l
504.495332 148.658476 l
508.608354 148.922022 l
512.721376 154.485595 l
516.834398 153.168361 l
520.94742 151.767217 l
525.060442 149.860505 l
529.173464 150.096663 l
533.286486 152.419689 l
537.399509 151.993494 l
541.512531 150.870868 l
545.625553 148.531716 l
549.738575 145.379867 l
553.851597 149.68826 l
557.964619 154.826023 l
562.077641 155.161263 l
566.190663 152.099203 l
570.303686 150.847322 l
574.416708 151.951001 l
578.52973 151.485499 l
582.642752 148.43016 l
586.755774 142.793793 l
590.868796 141.496494 l
594.981818 142.892995 l
599.09484 143.102698 l
603.207862 142.085068 l
607.320885 146.293277 l
611.433907 146.204899 l
615.546929 148.794125 l
619.659951 148.592476 l
623.772973 148.354307 l
627.885995 146.507174 l
631.999017 146.152241 l
636.112039 143.928634 l
640.225061 141.619871 l
644.338084 140.911727 l
648.451106 146.095867 l
652.564128 153.305447 l
656.67715 152.637579 l
660.790172 146.485781 l
664.903194 137.880136 l
669.016216 136.637841 l
673.129238 144.849672 l
677.24226 150.915641 l
681.355283 150.010268 l
685.468305 148.665682 l
689.581327 147.346059 l
693.694349 146.267094 l
697.807371 145.101384 l
701.920393 142.170564 l
706.033415 138.387957 l
710.146437 139.291753 l
714.259459 142.781127 l
718.372482 148.760885 l
722.485504 147.625222 l
726.598526 147.881051 l
730.711548 146.89149 l
734.82457 146.846257 l
738.937592 144.546926 l
743.050614 141.742354 l
747.163636 142.394681 l
747.163636 163.736524 l
747.163636 163.736524 l
743.050614 167.499952 l
738.937592 163.509905 l
734.82457 165.308651 l
730.711548 164.548025 l
726.598526 164.604405 l
722.485504 170.349761 l
718.372482 169.974725 l
714.259459 173.181385 l
710.146437 182.855182 l
706.033415 185.380114 l
701.920393 176.906687 l
697.807371 169.440366 l
693.694349 165.3594 l
689.581327 163.244247 l
685.468305 163.347791 l
681.355283 163.205241 l
677.24226 164.382299 l
673.129238 176.983314 l
669.016216 192.683034 l
664.903194 196.924665 l
660.790172 189.214999 l
656.67715 176.721971 l
652.564128 178.442418 l
648.451106 189.624148 l
644.338084 194.758057 l
640.225061 190.391099 l
636.112039 185.914481 l
631.999017 178.844851 l
627.885995 175.308906 l
623.772973 170.390064 l
619.659951 170.933466 l
615.546929 175.52498 l
611.433907 182.347753 l
607.320885 183.201136 l
603.207862 193.696533 l
599.09484 194.884737 l
594.981818 197.060134 l
590.868796 198.55053 l
586.755774 192.374062 l
582.642752 181.266817 l
578.52973 176.079199 l
574.416708 169.952583 l
570.303686 167.157233 l
566.190663 166.567734 l
562.077641 168.567702 l
557.964619 169.952846 l
553.851597 181.038469 l
549.738575 190.816419 l
545.625553 182.855081 l
541.512531 183.247699 l
537.399509 180.487405 l
533.286486 182.301177 l
529.173464 188.925809 l
525.060442 188.6936 l
520.94742 182.190453 l
516.834398 177.932747 l
512.721376 177.4775 l
508.608354 192.315144 l
504.495332 202.094356 l
500.38231 192.625893 l
496.269287 189.943733 l
492.156265 188.603542 l
488.043243 192.453552 l
483.930221 187.119496 l
479.817199 181.377814 l
475.704177 179.649045 l
471.591155 185.02511 l
467.478133 186.417205 l
463.365111 186.645829 l
459.252088 184.158915 l
455.139066 184.632766 l
451.026044 180.754926 l
446.913022 185.001629 l
442.8 190.910221 l
438.686978 212.727189 l
434.573956 211.850466 l
430.460934 199.942466 l
426.347912 183.483971 l
422.234889 182.344868 l
418.121867 187.439367 l
414.008845 197.091074 l
409.895823 203.849522 l
405.782801 195.279223 l
401.669779 185.034766 l
397.556757 184.457885 l
393.443735 185.849374 l
389.330713 192.107993 l
385.21769 202.038499 l
381.104668 205.947818 l
376.991646 202.204934 l
372.878624 198.318589 l
368.765602 193.967771 l
364.65258 196.197086 l
360.539558 202.4219 l
356.426536 205.660462 l
352.313514 202.223687 l
348.200491 201.630575 l
344.087469 198.410436 l
339.974447 196.401208 l
335.861425 200.975028 l
331.748403 208.384223 l
327.635381 213.032548 l
323.522359 214.717388 l
319.409337 216.572618 l
315.296314 220.491098 l
311.183292 219.850989 l
307.07027 222.754412 l
302.957248 222.082631 l
298.844226 230.78278 l
294.731204 238.790612 l
290.618182 235.279821 l
286.50516 236.277606 l
282.392138 233.843524 l
278.279115 234.003739 l
274.166093 233.447339 l
270.053071 240.807216 l
265.940049 244.752994 l
261.827027 248.631571 l
257.714005 248.010739 l
253.600983 249.729356 l
249.487961 247.867851 l
245.374939 250.674681 l
241.261916 257.720886 l
237.148894 263.199117 l
233.035872 266.64415 l
228.92285 275.094604 l
224.809828 275.2636 l
220.696806 276.669671 l
216.583784 281.95215 l
212.470762 289.864967 l
208.35774 304.234803 l
204.244717 317.177214 l
200.131695 326.869566 l
196.018673 344.754541 l
191.905651 354.682904 l
187.792629 370.390176 l
183.679607 388.683242 l
179.566585 406.204722 l
175.453563 419.727669 l
171.340541 432.911654 l
167.227518 441.168645 l
163.114496 441.132714 l
159.001474 436.443604 l
154.888452 418.021195 l
150.77543 395.866118 l
146.662408 379.245964 l
142.549386 370.760784 l
138.436364 368.244703 l
cl
0.580 0.404 0.741 setrgbcolor
fill
grestore
gsave
669.6 434.9 108 72 clipbox
138.436364 369.915186 m
138.436364 367.995371 l
142.549386 369.395163 l
146.662408 376.290847 l
150.77543 385.842715 l
154.888452 403.639643 l
159.001474 405.68998 l
163.114496 398.452 l
167.227518 399.466866 l
171.340541 387.851403 l
175.453563 369.007143 l
179.566585 344.787729 l
183.679607 319.672989 l
187.792629 309.028011 l
191.905651 301.026867 l
196.018673 294.787482 l
200.131695 291.789435 l
204.244717 277.260187 l
208.35774 268.622055 l
212.470762 262.930697 l
216.583784 260.06653 l
220.696806 255.20364 l
224.809828 251.522832 l
228.92285 251.682325 l
233.035872 250.144235 l
237.148894 251.728765 l
241.261916 248.253193 l
245.374939 245.713636 l
249.487961 243.620065 l
253.600983 231.438236 l
257.714005 230.380213 l
261.827027 229.492105 l
265.940049 227.42587 l
270.053071 225.841363 l
274.166093 223.273035 l
278.279115 221.094006 l
282.392138 215.703157 l
286.50516 213.418912 l
290.618182 224.557924 l
294.731204 224.765805 l
298.844226 218.677523 l
302.957248 216.051928 l
307.07027 212.497452 l
311.183292 210.352414 l
315.296314 197.677032 l
319.409337 190.839076 l
323.522359 205.802736 l
327.635381 206.911271 l
331.748403 202.559985 l
335.861425 197.418134 l
339.974447 195.689915 l
344.087469 192.305529 l
348.200491 190.612521 l
352.313514 188.956162 l
356.426536 192.838149 l
360.539558 190.553121 l
364.65258 183.758541 l
368.765602 178.915388 l
372.878624 183.446753 l
376.991646 180.444364 l
381.104668 179.787757 l
385.21769 185.048725 l
389.330713 186.26707 l
393.443735 179.957348 l
397.556757 182.921794 l
401.669779 178.358188 l
405.782801 187.922019 l
409.895823 181.816649 l
414.008845 182.939859 l
418.121867 183.022714 l
422.234889 175.012615 l
426.347912 174.785497 l
430.460934 177.353158 l
434.573956 180.500675 l
438.686978 178.676474 l
442.8 172.232758 l
446.913022 168.873549 l
451.026044 175.827125 l
455.139066 172.861123 l
459.252088 168.984832 l
463.365111 169.024949 l
467.478133 166.819719 l
471.591155 162.240045 l
475.704177 160.355762 l
479.817199 163.491842 l
483.930221 163.209076 l
488.043243 162.143665 l
492.156265 166.045232 l
496.269287 164.565441 l
500.38231 164.578626 l
504.495332 160.192955 l
508.608354 158.879784 l
512.721376 161.279644 l
516.834398 160.844154 l
520.94742 159.517903 l
525.060442 157.078479 l
529.173464 155.865661 l
533.286486 161.689302 l
537.399509 159.81197 l
541.512531 158.081666 l
545.625553 156.353614 l
549.738575 155.782759 l
553.851597 158.286281 l
557.964619 159.730829 l
562.077641 162.823523 l
566.190663 156.550381 l
570.303686 162.620801 l
574.416708 167.153122 l
578.52973 166.886628 l
582.642752 161.795299 l
586.755774 158.820834 l
590.868796 159.118228 l
594.981818 156.840958 l
599.09484 156.521992 l
603.207862 153.339995 l
607.320885 144.88056 l
611.433907 155.348325 l
615.546929 156.839462 l
619.659951 156.658718 l
623.772973 159.296665 l
627.885995 154.4181 l
631.999017 159.691923 l
636.112039 162.408881 l
640.225061 165.660427 l
644.338084 157.851205 l
648.451106 144.68398 l
652.564128 140.487557 l
656.67715 142.171657 l
660.790172 161.318167 l
664.903194 158.829726 l
669.016216 159.243482 l
673.129238 157.557365 l
677.24226 156.060448 l
681.355283 155.228286 l
685.468305 157.888612 l
689.581327 159.609162 l
693.694349 142.605034 l
697.807371 141.269254 l
701.920393 146.459104 l
706.033415 151.687006 l
710.146437 158.334296 l
714.259459 153.825183 l
718.372482 152.192302 l
722.485504 160.601882 l
726.598526 146.222635 l
730.711548 155.081985 l
734.82457 152.919921 l
738.937592 156.864557 l
743.050614 151.144502 l
747.163636 147.614166 l
747.163636 199.95051 l
747.163636 199.95051 l
743.050614 195.782676 l
738.937592 189.650163 l
734.82457 195.756367 l
730.711548 197.12047 l
726.598526 219.818948 l
722.485504 189.454148 l
718.372482 193.215128 l
714.259459 191.012407 l
710.146437 190.272252 l
706.033415 198.395599 l
701.920393 200.065953 l
697.807371 215.589013 l
693.694349 209.44399 l
689.581327 200.818422 l
685.468305 185.311075 l
681.355283 171.664695 l
677.24226 171.007588 l
673.129238 173.382413 l
669.016216 178.528081 l
664.903194 177.225065 l
660.790172 182.001194 l
656.67715 205.392199 l
652.564128 221.319132 l
648.451106 214.615398 l
644.338084 189.913465 l
640.225061 182.694936 l
636.112039 180.834669 l
631.999017 176.317478 l
627.885995 181.497923 l
623.772973 179.821788 l
619.659951 177.524174 l
615.546929 183.296826 l
611.433907 194.970738 l
607.320885 196.794364 l
603.207862 189.181815 l
599.09484 185.180895 l
594.981818 195.351379 l
590.868796 200.790184 l
586.755774 207.050508 l
582.642752 194.234106 l
578.52973 198.880183 l
574.416708 196.511772 l
570.303686 206.186748 l
566.190663 214.068087 l
562.077641 215.158203 l
557.964619 212.920793 l
553.851597 223.09314 l
549.738575 207.342899 l
545.625553 203.452511 l
541.512531 200.59972 l
537.399509 189.203289 l
533.286486 192.531318 l
529.173464 193.522964 l
525.060442 190.67026 l
520.94742 189.273125 l
516.834398 194.551258 l
512.721376 191.185321 l
508.608354 193.811196 l
504.495332 196.71732 l
500.38231 199.242854 l
496.269287 210.425368 l
492.156265 206.684301 l
488.043243 205.733389 l
483.930221 212.566422 l
479.817199 221.199211 l
475.704177 227.372954 l
471.591155 234.635561 l
467.478133 209.237591 l
463.365111 209.013814 l
459.252088 202.34503 l
455.139066 203.270728 l
451.026044 213.88176 l
446.913022 231.951098 l
442.8 232.486343 l
438.686978 227.626375 l
434.573956 230.001768 l
430.460934 216.33482 l
426.347912 207.626642 l
422.234889 211.978057 l
418.121867 212.093575 l
414.008845 241.734219 l
409.895823 251.271011 l
405.782801 246.247751 l
401.669779 277.65354 l
397.556757 261.77028 l
393.443735 254.203037 l
389.330713 225.046359 l
385.21769 223.502115 l
381.104668 225.343348 l
376.991646 228.951398 l
372.878624 225.062798 l
368.765602 230.832104 l
364.65258 226.480809 l
360.539558 220.538029 l
356.426536 222.770076 l
352.313514 229.225261 l
348.200491 229.287912 l
344.087469 241.908708 l
339.974447 240.638972 l
335.861425 231.597571 l
331.748403 238.088465 l
327.635381 242.586798 l
323.522359 270.831473 l
319.409337 290.805899 l
315.296314 278.327112 l
311.183292 247.440784 l
307.07027 247.327277 l
302.957248 251.108038 l
298.844226 258.281765 l
294.731204 255.055613 l
290.618182 257.590322 l
286.50516 266.198815 l
282.392138 254.739221 l
278.279115 250.068742 l
274.166093 250.115586 l
270.053071 255.180744 l
265.940049 257.956542 l
261.827027 260.654151 l
257.714005 260.865778 l
253.600983 271.052457 l
249.487961 269.500175 l
245.374939 275.034312 l
241.261916 283.320167 l
237.148894 281.228649 l
233.035872 301.840852 l
228.92285 297.406532 l
224.809828 295.376664 l
220.696806 294.241526 l
216.583784 304.713024 l
212.470762 302.760643 l
208.35774 297.88894 l
204.244717 304.582029 l
200.131695 318.555139 l
196.018673 315.607605 l
191.905651 326.227297 l
187.792629 345.597276 l
183.679607 361.389863 l
179.566585 383.037983 l
175.453563 411.33835 l
171.340541 444.719286 l
167.227518 445.037956 l
163.114496 459.987235 l
159.001474 453.561835 l
154.888452 435.145999 l
150.77543 416.706956 l
146.662408 394.678878 l
142.549386 377.322703 l
138.436364 369.915186 l
cl
0.549 0.337 0.294 setrgbcolor
fill
grestore
gsave
669.6 434.9 108 72 clipbox
138.436364 372.30416 m
138.436364 367.184342 l
142.549386 368.755636 l
146.662408 373.484583 l
150.77543 379.995218 l
154.888452 377.356835 l
159.001474 369.431996 l
163.114496 361.351526 l
167.227518 367.952907 l
171.340541 360.043873 l
175.453563 337.211661 l
179.566585 327.617915 l
183.679607 314.980265 l
187.792629 301.135662 l
191.905651 279.055363 l
196.018673 261.939317 l
200.131695 267.212009 l
204.244717 276.058539 l
208.35774 280.435105 l
212.470762 275.133124 l
216.583784 254.067742 l
220.696806 272.756249 l
224.809828 253.893896 l
228.92285 265.630143 l
233.035872 264.693576 l
237.148894 265.570631 l
241.261916 264.44324 l
245.374939 254.673872 l
249.487961 250.593889 l
253.600983 233.795951 l
257.714005 251.080077 l
261.827027 252.606724 l
265.940049 246.989797 l
270.053071 248.370083 l
274.166093 240.376728 l
278.279115 228.26682 l
282.392138 225.915487 l
286.50516 220.181442 l
290.618182 225.830555 l
294.731204 225.277378 l
298.844226 201.954305 l
302.957248 203.832483 l
307.07027 206.999257 l
311.183292 200.656904 l
315.296314 213.697262 l
319.409337 214.626077 l
323.522359 222.395759 l
327.635381 214.099646 l
331.748403 206.369683 l
335.861425 192.234577 l
339.974447 209.078058 l
344.087469 213.106916 l
348.200491 208.685642 l
352.313514 190.069447 l
356.426536 193.491922 l
360.539558 204.277599 l
364.65258 196.712731 l
368.765602 200.332767 l
372.878624 199.348724 l
376.991646 186.583837 l
381.104668 188.213446 l
385.21769 169.681074 l
389.330713 199.896765 l
393.443735 185.08262 l
397.556757 152.097316 l
401.669779 179.943314 l
405.782801 188.711352 l
409.895823 186.021219 l
414.008845 187.407652 l
418.121867 184.765994 l
422.234889 192.729619 l
426.347912 186.121327 l
430.460934 181.012151 l
434.573956 178.505817 l
438.686978 170.517622 l
442.8 181.935192 l
446.913022 190.799312 l
451.026044 180.035655 l
455.139066 161.962474 l
459.252088 168.2637 l
463.365111 175.854043 l
467.478133 176.847512 l
471.591155 159.666563 l
475.704177 173.536892 l
479.817199 162.107712 l
483.930221 172.538113 l
488.043243 175.761437 l
492.156265 171.696941 l
496.269287 163.932606 l
500.38231 161.262828 l
504.495332 165.996289 l
508.608354 165.881202 l
512.721376 137.854324 l
516.834398 126.604987 l
520.94742 162.843174 l
525.060442 159.790917 l
529.173464 171.669459 l
533.286486 159.500634 l
537.399509 171.52739 l
541.512531 152.560217 l
545.625553 149.297815 l
549.738575 159.686329 l
553.851597 152.054483 l
557.964619 150.78705 l
562.077641 159.77602 l
566.190663 140.925677 l
570.303686 153.658773 l
574.416708 153.172567 l
578.52973 112.590774 l
582.642752 112.174485 l
586.755774 155.216639 l
590.868796 148.788603 l
594.981818 126.879756 l
599.09484 111.65876 l
603.207862 101.52337 l
607.320885 140.951671 l
611.433907 136.868013 l
615.546929 91.767273 l
619.659951 138.469726 l
623.772973 157.474819 l
627.885995 155.143996 l
631.999017 155.663132 l
636.112039 163.798268 l
640.225061 172.578684 l
644.338084 161.471057 l
648.451106 157.143221 l
652.564128 169.566529 l
656.67715 176.109108 l
660.790172 164.601045 l
664.903194 156.224592 l
669.016216 157.980855 l
673.129238 157.414848 l
677.24226 173.46163 l
681.355283 139.908011 l
685.468305 153.141314 l
689.581327 152.618788 l
693.694349 155.041431 l
697.807371 136.878643 l
701.920393 159.245385 l
706.033415 160.000213 l
710.146437 166.300358 l
714.259459 168.162991 l
718.372482 150.101621 l
722.485504 163.9508 l
726.598526 164.376875 l
730.711548 156.184636 l
734.82457 160.042092 l
738.937592 181.007308 l
743.050614 160.642058 l
747.163636 171.967817 l
747.163636 244.453886 l
747.163636 244.453886 l
743.050614 256.927548 l
738.937592 228.93779 l
734.82457 257.837086 l
730.711548 246.532564 l
726.598526 217.944582 l
722.485504 222.153209 l
718.372482 223.642582 l
714.259459 221.232244 l
710.146437 238.382234 l
706.033415 236.631914 l
701.920393 235.295371 l
697.807371 293.365001 l
693.694349 333.000839 l
689.581327 325.356922 l
685.468305 276.547064 l
681.355283 332.805922 l
677.24226 252.188178 l
673.129238 271.375171 l
669.016216 248.327302 l
664.903194 230.837185 l
660.790172 234.007838 l
656.67715 262.584832 l
652.564128 306.277843 l
648.451106 263.659359 l
644.338084 257.932277 l
640.225061 255.127372 l
636.112039 244.195269 l
631.999017 221.688715 l
627.885995 220.067468 l
623.772973 251.059938 l
619.659951 330.911669 l
615.546929 364.738721 l
611.433907 269.459016 l
607.320885 241.107572 l
603.207862 353.937429 l
599.09484 321.146748 l
594.981818 290.215683 l
590.868796 270.442016 l
586.755774 274.635936 l
582.642752 355.272635 l
578.52973 354.069318 l
574.416708 272.203864 l
570.303686 224.281353 l
566.190663 238.155014 l
562.077641 213.37252 l
557.964619 247.319301 l
553.851597 223.969935 l
549.738575 212.862312 l
545.625553 232.021076 l
541.512531 244.253193 l
537.399509 216.220004 l
533.286486 226.176271 l
529.173464 218.465758 l
525.060442 236.471195 l
520.94742 253.04653 l
516.834398 336.231579 l
512.721376 316.122653 l
508.608354 259.608286 l
504.495332 230.509494 l
500.38231 260.631716 l
496.269287 262.38128 l
492.156265 241.011229 l
488.043243 201.689604 l
483.930221 211.627506 l
479.817199 234.881109 l
475.704177 214.366782 l
471.591155 229.837967 l
467.478133 231.086344 l
463.365111 239.625868 l
459.252088 227.159049 l
455.139066 246.396866 l
451.026044 247.455047 l
446.913022 280.980843 l
442.8 272.820672 l
438.686978 258.535655 l
434.573956 231.332454 l
430.460934 256.973567 l
426.347912 260.900455 l
422.234889 252.435179 l
418.121867 258.834963 l
414.008845 243.251152 l
409.895823 266.997401 l
405.782801 265.35395 l
401.669779 305.286998 l
397.556757 352.524751 l
393.443735 325.682881 l
389.330713 279.946112 l
385.21769 283.609386 l
381.104668 259.737326 l
376.991646 277.997158 l
372.878624 275.609143 l
368.765602 230.750986 l
364.65258 236.80232 l
360.539558 254.340355 l
356.426536 311.114096 l
352.313514 275.598057 l
348.200491 276.878426 l
344.087469 289.096223 l
339.974447 303.783505 l
335.861425 310.723231 l
331.748403 287.16711 l
327.635381 287.206094 l
323.522359 284.278701 l
319.409337 312.981803 l
315.296314 313.443739 l
311.183292 290.233046 l
307.07027 265.564293 l
302.957248 274.646863 l
298.844226 296.471487 l
294.731204 308.131793 l
290.618182 306.009343 l
286.50516 321.009055 l
282.392138 309.202339 l
278.279115 318.755841 l
274.166093 322.250612 l
270.053071 287.629306 l
265.940049 283.485001 l
261.827027 302.159288 l
257.714005 293.070122 l
253.600983 324.780189 l
249.487961 299.52994 l
245.374939 296.160226 l
241.261916 294.635291 l
237.148894 315.626083 l
233.035872 312.821107 l
228.92285 326.70493 l
224.809828 341.68421 l
220.696806 323.889389 l
216.583784 361.302393 l
212.470762 349.344637 l
208.35774 363.879896 l
204.244717 392.298046 l
200.131695 390.529922 l
196.018673 419.325243 l
191.905651 414.787828 l
187.792629 429.314814 l
183.679607 440.280696 l
179.566585 421.226457 l
175.453563 442.413743 l
171.340541 438.29268 l
167.227518 442.727382 l
163.114496 467.390382 l
159.001474 487.112727 l
154.888452 472.973402 l
150.77543 434.719384 l
146.662408 414.171945 l
142.549386 387.087558 l
138.436364 372.30416 l
cl
0.890 0.467 0.761 setrgbcolor
fill
grestore
0.800 setlinewidth
1 setlinejoin
0 setlinecap
[] 0 setdash
0.000 setgray
gsave
/o {
gsave
newpath
translate
0.8 setlinewidth
1 setlinejoin
0 setlinecap
0 0 m
0 -3.5 l

gsave
0.000 setgray
fill
grestore
stroke
grestore
} bind def
138.436 72 o
grestore
/DejaVuSans findfont
16.000 scalefont
setfont
gsave
133.342614 52.843750 translate
0.000000 rotate
0.000000 0.000000 m /zero glyphshow
grestore
gsave
/o {
gsave
newpath
translate
0.8 setlinewidth
1 setlinejoin
0 setlinecap
0 0 m
0 -3.5 l

gsave
0.000 setgray
fill
grestore
stroke
grestore
} bind def
220.697 72 o
grestore
gsave
210.509306 52.843750 translate
0.000000 rotate
0.000000 0.000000 m /two glyphshow
10.179688 0.000000 m /zero glyphshow
grestore
gsave
/o {
gsave
newpath
translate
0.8 setlinewidth
1 setlinejoin
0 setlinecap
0 0 m
0 -3.5 l

gsave
0.000 setgray
fill
grestore
stroke
grestore
} bind def
302.957 72 o
grestore
gsave
292.769748 52.843750 translate
0.000000 rotate
0.000000 0.000000 m /four glyphshow
10.179688 0.000000 m /zero glyphshow
grestore
gsave
/o {
gsave
newpath
translate
0.8 setlinewidth
1 setlinejoin
0 setlinecap
0 0 m
0 -3.5 l

gsave
0.000 setgray
fill
grestore
stroke
grestore
} bind def
385.218 72 o
grestore
gsave
375.030190 52.843750 translate
0.000000 rotate
0.000000 0.000000 m /six glyphshow
10.179688 0.000000 m /zero glyphshow
grestore
gsave
/o {
gsave
newpath
translate
0.8 setlinewidth
1 setlinejoin
0 setlinecap
0 0 m
0 -3.5 l

gsave
0.000 setgray
fill
grestore
stroke
grestore
} bind def
467.478 72 o
grestore
gsave
457.290633 52.843750 translate
0.000000 rotate
0.000000 0.000000 m /eight glyphshow
10.179688 0.000000 m /zero glyphshow
grestore
gsave
/o {
gsave
newpath
translate
0.8 setlinewidth
1 setlinejoin
0 setlinecap
0 0 m
0 -3.5 l

gsave
0.000 setgray
fill
grestore
stroke
grestore
} bind def
549.739 72 o
grestore
gsave
534.457325 52.843750 translate
0.000000 rotate
0.000000 0.000000 m /one glyphshow
10.179688 0.000000 m /zero glyphshow
20.359375 0.000000 m /zero glyphshow
grestore
gsave
/o {
gsave
newpath
translate
0.8 setlinewidth
1 setlinejoin
0 setlinecap
0 0 m
0 -3.5 l

gsave
0.000 setgray
fill
grestore
stroke
grestore
} bind def
631.999 72 o
grestore
gsave
616.717767 52.843750 translate
0.000000 rotate
0.000000 0.000000 m /one glyphshow
10.179688 0.000000 m /two glyphshow
20.359375 0.000000 m /zero glyphshow
grestore
gsave
/o {
gsave
newpath
translate
0.8 setlinewidth
1 setlinejoin
0 setlinecap
0 0 m
0 -3.5 l

gsave
0.000 setgray
fill
grestore
stroke
grestore
} bind def
714.259 72 o
grestore
gsave
698.978209 52.843750 translate
0.000000 rotate
0.000000 0.000000 m /one glyphshow
10.179688 0.000000 m /four glyphshow
20.359375 0.000000 m /zero glyphshow
grestore
gsave
365.651563 33.359375 translate
0.000000 rotate
0.000000 0.000000 m /N glyphshow
11.968750 0.000000 m /u glyphshow
22.109375 0.000000 m /m glyphshow
37.695312 0.000000 m /b glyphshow
47.851562 0.000000 m /e glyphshow
57.695312 0.000000 m /r glyphshow
64.273438 0.000000 m /space glyphshow
69.359375 0.000000 m /o glyphshow
79.148438 0.000000 m /f glyphshow
84.781250 0.000000 m /space glyphshow
89.867188 0.000000 m /R glyphshow
100.984375 0.000000 m /o glyphshow
110.773438 0.000000 m /l glyphshow
115.218750 0.000000 m /l glyphshow
119.664062 0.000000 m /o glyphshow
129.453125 0.000000 m /u glyphshow
139.593750 0.000000 m /t glyphshow
145.867188 0.000000 m /s glyphshow
grestore
gsave
/o {
gsave
newpath
translate
0.8 setlinewidth
1 setlinejoin
0 setlinecap
0 0 m
-3.5 0 l

gsave
0.000 setgray
fill
grestore
stroke
grestore
} bind def
108 89.7611 o
grestore
gsave
57.031250 83.682949 translate
0.000000 rotate
0.000000 0.000000 m /minus glyphshow
13.406250 0.000000 m /two glyphshow
23.585938 0.000000 m /five glyphshow
33.765625 0.000000 m /zero glyphshow
grestore
gsave
/o {
gsave
newpath
translate
0.8 setlinewidth
1 setlinejoin
0 setlinecap
0 0 m
-3.5 0 l

gsave
0.000 setgray
fill
grestore
stroke
grestore
} bind def
108 141.634 o
grestore
gsave
90.812500 135.556317 translate
0.000000 rotate
0.000000 0.000000 m /zero glyphshow
grestore
gsave
/o {
gsave
newpath
translate
0.8 setlinewidth
1 setlinejoin
0 setlinecap
0 0 m
-3.5 0 l

gsave
0.000 setgray
fill
grestore
stroke
grestore
} bind def
108 193.508 o
grestore
gsave
70.437500 187.429686 translate
0.000000 rotate
0.000000 0.000000 m /two glyphshow
10.179688 0.000000 m /five glyphshow
20.359375 0.000000 m /zero glyphshow
grestore
gsave
/o {
gsave
newpath
translate
0.8 setlinewidth
1 setlinejoin
0 setlinecap
0 0 m
-3.5 0 l

gsave
0.000 setgray
fill
grestore
stroke
grestore
} bind def
108 245.381 o
grestore
gsave
70.437500 239.303054 translate
0.000000 rotate
0.000000 0.000000 m /five glyphshow
10.179688 0.000000 m /zero glyphshow
20.359375 0.000000 m /zero glyphshow
grestore
gsave
/o {
gsave
newpath
translate
0.8 setlinewidth
1 setlinejoin
0 setlinecap
0 0 m
-3.5 0 l

gsave
0.000 setgray
fill
grestore
stroke
grestore
} bind def
108 297.255 o
grestore
gsave
70.437500 291.176422 translate
0.000000 rotate
0.000000 0.000000 m /seven glyphshow
10.179688 0.000000 m /five glyphshow
20.359375 0.000000 m /zero glyphshow
grestore
gsave
/o {
gsave
newpath
translate
0.8 setlinewidth
1 setlinejoin
0 setlinecap
0 0 m
-3.5 0 l

gsave
0.000 setgray
fill
grestore
stroke
grestore
} bind def
108 349.128 o
grestore
gsave
60.250000 343.049790 translate
0.000000 rotate
0.000000 0.000000 m /one glyphshow
10.179688 0.000000 m /zero glyphshow
20.359375 0.000000 m /zero glyphshow
30.539062 0.000000 m /zero glyphshow
grestore
gsave
/o {
gsave
newpath
translate
0.8 setlinewidth
1 setlinejoin
0 setlinecap
0 0 m
-3.5 0 l

gsave
0.000 setgray
fill
grestore
stroke
grestore
} bind def
108 401.001 o
grestore
gsave
60.250000 394.923158 translate
0.000000 rotate
0.000000 0.000000 m /one glyphshow
10.179688 0.000000 m /two glyphshow
20.359375 0.000000 m /five glyphshow
30.539062 0.000000 m /zero glyphshow
grestore
gsave
/o {
gsave
newpath
translate
0.8 setlinewidth
1 setlinejoin
0 setlinecap
0 0 m
-3.5 0 l

gsave
0.000 setgray
fill
grestore
stroke
grestore
} bind def
108 452.875 o
grestore
gsave
60.250000 446.796526 translate
0.000000 rotate
0.000000 0.000000 m /one glyphshow
10.179688 0.000000 m /five glyphshow
20.359375 0.000000 m /zero glyphshow
30.539062 0.000000 m /zero glyphshow
grestore
gsave
/o {
gsave
newpath
translate
0.8 setlinewidth
1 setlinejoin
0 setlinecap
0 0 m
-3.5 0 l

gsave
0.000 setgray
fill
grestore
stroke
grestore
} bind def
108 504.748 o
grestore
gsave
60.250000 498.669894 translate
0.000000 rotate
0.000000 0.000000 m /one glyphshow
10.179688 0.000000 m /seven glyphshow
20.359375 0.000000 m /five glyphshow
30.539062 0.000000 m /zero glyphshow
grestore
gsave
49.703125 200.072812 translate
90.000000 rotate
0.000000 0.000000 m /A glyphshow
10.945312 0.000000 m /v glyphshow
20.414062 0.000000 m /e glyphshow
30.257812 0.000000 m /r glyphshow
36.835938 0.000000 m /a glyphshow
46.640625 0.000000 m /g glyphshow
56.796875 0.000000 m /e glyphshow
66.640625 0.000000 m /space glyphshow
71.726562 0.000000 m /R glyphshow
82.843750 0.000000 m /u glyphshow
92.984375 0.000000 m /n glyphshow
103.125000 0.000000 m /n glyphshow
113.265625 0.000000 m /i glyphshow
117.710938 0.000000 m /n glyphshow
127.851562 0.000000 m /g glyphshow
138.007812 0.000000 m /space glyphshow
143.093750 0.000000 m /C glyphshow
154.265625 0.000000 m /o glyphshow
164.054688 0.000000 m /s glyphshow
172.390625 0.000000 m /t glyphshow
grestore
1.500 setlinewidth
2 setlinecap
0.122 0.467 0.706 setrgbcolor
gsave
669.6 434.9 108 72 clipbox
138.436364 367.844356 m
142.549386 367.997365 l
146.662408 368.258341 l
150.77543 368.614886 l
154.888452 369.056237 l
159.001474 369.580048 l
163.114496 370.1878 l
167.227518 370.855203 l
171.340541 371.576312 l
175.453563 372.345557 l
179.566585 373.175298 l
183.679607 374.043858 l
187.792629 375.012989 l
191.905651 376.057262 l
196.018673 377.139475 l
200.131695 378.206196 l
204.244717 379.286086 l
208.35774 380.383984 l
212.470762 381.557188 l
216.583784 382.771131 l
220.696806 384.040311 l
224.809828 385.226506 l
228.92285 386.362368 l
233.035872 387.497716 l
237.148894 388.715382 l
241.261916 389.97293 l
245.374939 391.253149 l
249.487961 392.472193 l
253.600983 393.67533 l
257.714005 394.967487 l
261.827027 396.281298 l
265.940049 397.601336 l
270.053071 398.800189 l
274.166093 399.982492 l
278.279115 401.213964 l
282.392138 402.526941 l
286.50516 403.780954 l
290.618182 405.098746 l
294.731204 406.407107 l
298.844226 407.794367 l
302.957248 409.225732 l
307.07027 410.599067 l
311.183292 412.044497 l
315.296314 413.525065 l
319.409337 414.989947 l
323.522359 416.52437 l
327.635381 418.179756 l
331.748403 419.941405 l
335.861425 421.675874 l
339.974447 423.409018 l
344.087469 425.149029 l
348.200491 426.841325 l
352.313514 428.676521 l
356.426536 430.485936 l
360.539558 432.412631 l
364.65258 434.402156 l
368.765602 436.494436 l
372.878624 438.47363 l
376.991646 440.567027 l
381.104668 442.779197 l
385.21769 445.023101 l
389.330713 447.32321 l
393.443735 449.760795 l
397.556757 452.181914 l
401.669779 454.576167 l
405.782801 457.135562 l
409.895823 459.746188 l
stroke
grestore
1.000 0.498 0.055 setrgbcolor
gsave
669.6 434.9 108 72 clipbox
138.436364 367.842645 m
146.662408 368.178823 l
159.001474 368.942891 l
171.340541 369.642798 l
183.679607 370.182915 l
187.792629 370.340399 l
191.905651 370.292149 l
196.018673 370.118823 l
200.131695 369.746039 l
204.244717 369.261513 l
208.35774 368.384796 l
212.470762 367.247193 l
216.583784 365.840266 l
220.696806 364.195653 l
224.809828 362.24045 l
233.035872 357.77439 l
241.261916 352.736251 l
245.374939 349.769385 l
249.487961 345.87404 l
253.600983 340.941044 l
257.714005 334.741146 l
265.940049 321.477349 l
270.053071 315.243516 l
278.279115 302.253405 l
286.50516 289.189197 l
290.618182 283.426129 l
294.731204 278.170152 l
302.957248 267.190214 l
307.07027 261.986127 l
311.183292 256.172855 l
315.296314 250.115499 l
319.409337 244.783545 l
323.522359 239.971485 l
327.635381 234.719536 l
331.748403 229.765785 l
339.974447 221.079818 l
344.087469 216.768276 l
348.200491 212.842984 l
356.426536 206.338559 l
360.539558 203.428348 l
364.65258 200.657409 l
368.765602 198.125012 l
372.878624 195.799198 l
376.991646 193.817152 l
381.104668 192.128148 l
389.330713 189.424439 l
393.443735 188.280276 l
405.782801 185.33164 l
418.121867 183.014087 l
426.347912 181.212433 l
455.139066 173.933503 l
459.252088 173.069566 l
463.365111 172.342841 l
471.591155 171.27202 l
496.269287 166.534424 l
504.495332 165.074003 l
508.608354 164.432643 l
520.94742 162.903315 l
529.173464 162.330677 l
545.625553 160.609686 l
553.851597 159.770428 l
557.964619 159.427159 l
578.52973 158.371351 l
607.320885 157.228123 l
627.885995 156.688322 l
644.338084 155.881905 l
648.451106 155.864394 l
669.016216 155.231349 l
685.468305 155.012291 l
697.807371 155.118888 l
706.033415 154.841656 l
710.146437 155.169951 l
714.259459 154.590435 l
718.372482 155.056703 l
722.485504 154.469136 l
726.598526 154.752544 l
730.711548 154.569092 l
734.82457 154.963601 l
738.937592 154.715429 l
743.050614 154.777859 l
747.163636 154.66507 l
747.163636 154.66507 l
stroke
grestore
0.173 0.627 0.173 setrgbcolor
gsave
669.6 434.9 108 72 clipbox
138.436364 367.825109 m
150.77543 368.156709 l
167.227518 368.858728 l
171.340541 369.340865 l
175.453563 370.020307 l
183.679607 371.677544 l
191.905651 372.175667 l
196.018673 371.736576 l
200.131695 370.624676 l
204.244717 369.182709 l
208.35774 367.55419 l
212.470762 363.742268 l
216.583784 358.630368 l
220.696806 352.517306 l
224.809828 345.2071 l
233.035872 328.54147 l
237.148894 319.13841 l
241.261916 308.768434 l
245.374939 297.363662 l
249.487961 286.542022 l
253.600983 276.930606 l
257.714005 268.350948 l
261.827027 260.440777 l
265.940049 253.328538 l
270.053071 246.57213 l
274.166093 240.086189 l
278.279115 234.529838 l
282.392138 230.248496 l
294.731204 219.343203 l
307.07027 209.942824 l
311.183292 207.459743 l
315.296314 205.358533 l
323.522359 201.76384 l
327.635381 200.22455 l
339.974447 196.025347 l
348.200491 193.142876 l
356.426536 190.206224 l
381.104668 182.412488 l
385.21769 181.588773 l
401.669779 176.857481 l
405.782801 175.862022 l
418.121867 173.623674 l
426.347912 172.385449 l
438.686978 170.2954 l
442.8 169.71446 l
446.913022 169.357637 l
455.139066 168.964689 l
459.252088 168.72374 l
483.930221 165.879203 l
496.269287 164.781483 l
504.495332 164.156592 l
516.834398 163.37329 l
520.94742 163.206735 l
541.512531 161.758899 l
553.851597 160.997248 l
557.964619 160.67978 l
570.303686 160.058498 l
582.642752 159.278282 l
615.546929 157.569801 l
627.885995 157.008778 l
631.999017 156.796128 l
644.338084 156.444159 l
648.451106 156.237318 l
656.67715 156.235694 l
664.903194 156.287649 l
673.129238 156.352508 l
685.468305 157.008654 l
693.694349 157.220668 l
697.807371 157.088919 l
710.146437 156.378778 l
722.485504 154.983196 l
726.598526 154.613167 l
730.711548 154.377394 l
743.050614 154.131076 l
747.163636 154.131584 l
747.163636 154.131584 l
stroke
grestore
0.839 0.153 0.157 setrgbcolor
gsave
669.6 434.9 108 72 clipbox
138.436364 367.825307 m
142.549386 368.008845 l
146.662408 368.996384 l
150.77543 371.512526 l
154.888452 376.023141 l
159.001474 383.410191 l
163.114496 391.845775 l
167.227518 399.972357 l
171.340541 405.456872 l
175.453563 406.418729 l
179.566585 401.390506 l
183.679607 390.717266 l
196.018673 351.138955 l
200.131695 339.172596 l
204.244717 328.353483 l
208.35774 320.764755 l
212.470762 310.000983 l
216.583784 296.339706 l
220.696806 286.063808 l
224.809828 278.647428 l
228.92285 273.525518 l
233.035872 269.356925 l
237.148894 263.042249 l
241.261916 255.674869 l
245.374939 250.553001 l
249.487961 244.76041 l
253.600983 240.80017 l
257.714005 237.050043 l
265.940049 227.504304 l
274.166093 220.052157 l
278.279115 217.211603 l
294.731204 206.619011 l
298.844226 204.69017 l
302.957248 203.321513 l
307.07027 201.021138 l
311.183292 199.534528 l
319.409337 196.081437 l
323.522359 194.569773 l
327.635381 193.611638 l
331.748403 192.424354 l
339.974447 188.69241 l
344.087469 188.269915 l
348.200491 187.657981 l
360.539558 183.455453 l
364.65258 181.693447 l
368.765602 180.515422 l
372.878624 179.926787 l
376.991646 179.969185 l
381.104668 178.765065 l
385.21769 178.097217 l
389.330713 176.78627 l
393.443735 176.127152 l
397.556757 174.778382 l
401.669779 174.211295 l
405.782801 173.366889 l
409.895823 171.993042 l
414.008845 171.066017 l
418.121867 170.374169 l
426.347912 169.596816 l
430.460934 169.054122 l
434.573956 168.872246 l
438.686978 168.465939 l
442.8 167.054286 l
446.913022 166.038776 l
451.026044 165.385179 l
455.139066 164.850101 l
463.365111 164.433417 l
467.478133 164.47489 l
471.591155 164.897394 l
475.704177 164.475379 l
479.817199 163.569002 l
483.930221 163.050851 l
488.043243 162.973275 l
492.156265 163.275099 l
500.38231 163.212555 l
504.495332 163.898444 l
508.608354 162.924868 l
512.721376 162.078077 l
520.94742 161.517287 l
525.060442 161.002137 l
529.173464 160.818348 l
533.286486 160.813551 l
537.399509 161.960383 l
541.512531 164.334085 l
545.625553 166.89077 l
549.738575 168.972483 l
553.851597 171.415404 l
557.964619 170.841194 l
562.077641 168.965783 l
566.190663 167.79099 l
570.303686 167.256776 l
574.416708 164.520056 l
578.52973 164.943764 l
582.642752 164.419874 l
586.755774 166.016417 l
590.868796 167.074806 l
594.981818 166.202897 l
599.09484 166.487985 l
603.207862 166.084825 l
607.320885 166.39204 l
611.433907 165.702866 l
615.546929 164.207351 l
619.659951 161.70093 l
623.772973 157.739463 l
627.885995 156.13085 l
631.999017 155.422368 l
636.112039 155.933746 l
640.225061 156.869492 l
652.564128 160.413233 l
656.67715 159.415431 l
660.790172 158.036373 l
669.016216 158.296802 l
673.129238 159.793937 l
677.24226 162.332226 l
681.355283 162.039173 l
685.468305 159.875847 l
689.581327 159.550963 l
697.807371 162.019274 l
701.920393 160.08303 l
706.033415 158.679557 l
710.146437 158.42044 l
714.259459 157.716081 l
722.485504 155.595303 l
726.598526 152.559857 l
730.711548 151.241331 l
734.82457 151.601808 l
738.937592 152.754355 l
743.050614 153.684331 l
747.163636 155.657507 l
747.163636 155.657507 l
stroke
grestore
0.580 0.404 0.741 setrgbcolor
gsave
669.6 434.9 108 72 clipbox
138.436364 368.048932 m
142.549386 369.788748 l
146.662408 375.617132 l
150.77543 386.822121 l
154.888452 401.123361 l
159.001474 412.666593 l
163.114496 418.853912 l
167.227518 421.972196 l
171.340541 417.857471 l
175.453563 404.615511 l
183.679607 366.716647 l
187.792629 349.791508 l
191.905651 332.171763 l
196.018673 319.240544 l
200.131695 304.813486 l
204.244717 296.203347 l
208.35774 288.89327 l
212.470762 280.391165 l
216.583784 273.239667 l
220.696806 268.711012 l
224.809828 265.959296 l
228.92285 263.635191 l
233.035872 258.708607 l
237.148894 253.188276 l
241.261916 248.35502 l
245.374939 244.027419 l
249.487961 241.436254 l
253.600983 240.414253 l
261.827027 236.310055 l
265.940049 232.970368 l
270.053071 229.810253 l
274.166093 225.995188 l
278.279115 224.929312 l
282.392138 222.724252 l
290.618182 220.470788 l
294.731204 221.878945 l
298.844226 218.499107 l
302.957248 211.72844 l
307.07027 210.970291 l
315.296314 210.006854 l
323.522359 204.275024 l
327.635381 200.62229 l
331.748403 198.176844 l
335.861425 193.533693 l
339.974447 190.107054 l
344.087469 190.3846 l
348.200491 191.829193 l
352.313514 191.426302 l
356.426536 191.45178 l
360.539558 188.514091 l
364.65258 184.922173 l
368.765602 185.128792 l
372.878624 187.233624 l
376.991646 188.197054 l
381.104668 189.771498 l
385.21769 188.361053 l
389.330713 181.993224 l
393.443735 177.855007 l
397.556757 176.387526 l
401.669779 176.059773 l
405.782801 179.49631 l
409.895823 181.758438 l
418.121867 176.050472 l
422.234889 174.508034 l
426.347912 174.079295 l
430.460934 178.248861 l
434.573956 180.581253 l
438.686978 180.589093 l
442.8 175.189389 l
446.913022 173.534144 l
451.026044 169.804674 l
455.139066 170.052525 l
459.252088 171.110985 l
463.365111 172.297725 l
467.478133 172.376922 l
471.591155 173.414598 l
475.704177 169.010142 l
479.817199 168.875624 l
488.043243 173.274623 l
492.156265 171.260867 l
496.269287 171.9488 l
500.38231 173.28659 l
504.495332 175.376416 l
512.721376 165.981547 l
516.834398 165.550554 l
520.94742 166.978835 l
525.060442 169.277052 l
529.173464 169.511236 l
533.286486 167.360433 l
537.399509 166.24045 l
541.512531 167.059283 l
545.625553 165.693398 l
549.738575 168.098143 l
553.851597 165.363364 l
557.964619 162.389435 l
562.077641 161.864482 l
566.190663 159.333468 l
570.303686 159.002277 l
574.416708 160.951792 l
578.52973 163.782349 l
582.642752 164.848488 l
586.755774 167.583928 l
590.868796 170.023512 l
594.981818 169.976565 l
599.09484 168.993718 l
603.207862 167.890801 l
607.320885 164.747206 l
611.433907 164.276326 l
615.546929 162.159552 l
619.659951 159.762971 l
623.772973 159.372186 l
631.999017 162.498546 l
636.112039 164.921557 l
640.225061 166.005485 l
644.338084 167.834892 l
648.451106 167.860008 l
652.564128 165.873933 l
656.67715 164.679775 l
660.790172 167.85039 l
664.903194 167.402401 l
669.016216 164.660437 l
673.129238 160.916493 l
677.24226 157.64897 l
681.355283 156.607754 l
689.581327 155.295153 l
693.694349 155.813247 l
697.807371 157.270875 l
706.033415 161.884035 l
710.146437 161.073468 l
714.259459 157.981256 l
718.372482 159.367805 l
722.485504 158.987491 l
726.598526 156.242728 l
730.711548 155.719757 l
734.82457 156.077454 l
738.937592 154.028416 l
743.050614 154.621153 l
747.163636 153.065603 l
747.163636 153.065603 l
stroke
grestore
0.549 0.337 0.294 setrgbcolor
gsave
669.6 434.9 108 72 clipbox
138.436364 368.955278 m
142.549386 373.358933 l
146.662408 385.484863 l
150.77543 401.274835 l
154.888452 419.392821 l
159.001474 429.625908 l
163.114496 429.219617 l
167.227518 422.252411 l
171.340541 416.285344 l
179.566585 363.912856 l
183.679607 340.531426 l
187.792629 327.312644 l
191.905651 313.627082 l
196.018673 305.197544 l
200.131695 305.172287 l
204.244717 290.921108 l
208.35774 283.255497 l
216.583784 282.389777 l
220.696806 274.722583 l
224.809828 273.449748 l
228.92285 274.544429 l
233.035872 275.992544 l
237.148894 266.478707 l
241.261916 265.78668 l
245.374939 260.373974 l
249.487961 256.56012 l
253.600983 251.245346 l
257.714005 245.622996 l
261.827027 245.073128 l
265.940049 242.691206 l
270.053071 240.511054 l
274.166093 236.69431 l
278.279115 235.581374 l
282.392138 235.221189 l
286.50516 239.808864 l
290.618182 241.074123 l
294.731204 239.910709 l
298.844226 238.479644 l
302.957248 233.579983 l
307.07027 229.912365 l
311.183292 228.896599 l
315.296314 238.002072 l
319.409337 240.822487 l
323.522359 238.317105 l
327.635381 224.749035 l
331.748403 220.324225 l
335.861425 214.507852 l
339.974447 218.164443 l
344.087469 217.107118 l
348.200491 209.950217 l
352.313514 209.090711 l
356.426536 207.804112 l
360.539558 205.545575 l
364.65258 205.119675 l
368.765602 204.873746 l
372.878624 204.254776 l
376.991646 204.697881 l
381.104668 202.565553 l
385.21769 204.27542 l
389.330713 205.656715 l
393.443735 217.080193 l
397.556757 222.346037 l
401.669779 228.005864 l
405.782801 217.084885 l
409.895823 216.54383 l
414.008845 212.337039 l
418.121867 197.558145 l
422.234889 193.495336 l
426.347912 191.206069 l
430.460934 196.843989 l
434.573956 205.251221 l
438.686978 203.151424 l
442.8 202.35955 l
446.913022 200.412323 l
451.026044 194.854442 l
455.139066 188.065925 l
459.252088 185.664931 l
463.365111 189.019382 l
467.478133 188.028655 l
471.591155 198.437803 l
475.704177 193.864358 l
479.817199 192.345526 l
483.930221 187.887749 l
488.043243 183.938527 l
492.156265 186.364767 l
496.269287 187.495404 l
500.38231 181.91074 l
504.495332 178.455137 l
508.608354 176.34549 l
512.721376 176.232483 l
516.834398 177.697706 l
520.94742 174.395514 l
525.060442 173.87437 l
529.173464 174.694312 l
533.286486 177.11031 l
537.399509 174.50763 l
541.512531 179.340693 l
545.625553 179.903062 l
549.738575 181.562829 l
553.851597 190.68971 l
557.964619 186.325811 l
562.077641 188.990863 l
566.190663 185.309234 l
570.303686 184.403774 l
574.416708 181.832447 l
578.52973 182.883406 l
582.642752 178.014702 l
586.755774 182.935671 l
590.868796 179.954206 l
594.981818 176.096168 l
599.09484 170.851443 l
603.207862 171.260905 l
607.320885 170.837462 l
611.433907 175.159532 l
615.546929 170.068144 l
619.659951 167.091446 l
623.772973 169.559226 l
627.885995 167.958011 l
631.999017 168.0047 l
636.112039 171.621775 l
640.225061 174.177681 l
644.338084 173.882335 l
648.451106 179.649689 l
652.564128 180.903345 l
656.67715 173.781928 l
660.790172 171.65968 l
664.903194 168.027395 l
669.016216 168.885781 l
673.129238 165.469889 l
677.24226 163.534018 l
681.355283 163.44649 l
685.468305 171.599844 l
689.581327 180.213792 l
693.694349 176.024512 l
697.807371 178.429134 l
701.920393 173.262528 l
706.033415 175.041302 l
710.146437 174.303274 l
714.259459 172.418795 l
718.372482 172.703715 l
722.485504 175.028015 l
726.598526 183.020791 l
730.711548 176.101227 l
734.82457 174.338144 l
738.937592 173.25736 l
743.050614 173.463589 l
747.163636 173.782338 l
747.163636 173.782338 l
stroke
grestore
0.890 0.467 0.761 setrgbcolor
gsave
669.6 434.9 108 72 clipbox
138.436364 369.744251 m
142.549386 377.921597 l
146.662408 393.828264 l
150.77543 407.357301 l
154.888452 425.165118 l
159.001474 428.272362 l
163.114496 414.370954 l
167.227518 405.340144 l
171.340541 399.168277 l
175.453563 389.812702 l
179.566585 374.422186 l
183.679607 377.630481 l
187.792629 365.225238 l
191.905651 346.921595 l
196.018673 340.63228 l
200.131695 328.870966 l
204.244717 334.178293 l
208.35774 322.1575 l
212.470762 312.23888 l
216.583784 307.685068 l
220.696806 298.322819 l
224.809828 297.789053 l
228.92285 296.167537 l
233.035872 288.757341 l
237.148894 290.598357 l
241.261916 279.539265 l
245.374939 275.417049 l
249.487961 275.061915 l
253.600983 279.28807 l
257.714005 272.0751 l
261.827027 277.383006 l
265.940049 265.237399 l
270.053071 267.999695 l
274.166093 281.31367 l
278.279115 273.511331 l
282.392138 267.558913 l
286.50516 270.595248 l
290.618182 265.919949 l
294.731204 266.704586 l
298.844226 249.212896 l
302.957248 239.239673 l
307.07027 236.281775 l
311.183292 245.444975 l
315.296314 263.5705 l
319.409337 263.80394 l
323.522359 253.33723 l
327.635381 250.65287 l
331.748403 246.768396 l
335.861425 251.478904 l
339.974447 256.430782 l
344.087469 251.10157 l
348.200491 242.782034 l
352.313514 232.833752 l
356.426536 252.303009 l
360.539558 229.308977 l
364.65258 216.757526 l
368.765602 215.541877 l
372.878624 237.478934 l
376.991646 232.290498 l
381.104668 223.975386 l
385.21769 226.64523 l
389.330713 239.921439 l
393.443735 255.382751 l
397.556757 252.311033 l
401.669779 242.615156 l
405.782801 227.032651 l
409.895823 226.50931 l
414.008845 215.329402 l
418.121867 221.800478 l
422.234889 222.582399 l
426.347912 223.510891 l
430.460934 218.992859 l
434.573956 204.919135 l
438.686978 214.526639 l
442.8 227.377932 l
446.913022 235.890077 l
451.026044 213.745351 l
455.139066 204.17967 l
459.252088 197.711375 l
463.365111 207.739956 l
467.478133 203.966928 l
471.591155 194.752265 l
475.704177 193.951837 l
479.817199 198.49441 l
483.930221 192.08281 l
488.043243 188.72552 l
492.156265 206.354085 l
496.269287 213.156943 l
500.38231 210.947272 l
504.495332 198.252892 l
512.721376 226.988488 l
516.834398 231.418283 l
520.94742 207.944852 l
525.060442 198.131056 l
529.173464 195.067609 l
533.286486 192.838452 l
537.399509 193.873697 l
541.512531 198.406705 l
545.625553 190.659446 l
549.738575 186.274321 l
553.851597 188.012209 l
557.964619 199.053176 l
562.077641 186.57427 l
566.190663 189.540345 l
570.303686 188.970063 l
574.416708 212.688216 l
578.52973 233.330046 l
582.642752 233.72356 l
586.755774 214.926288 l
590.868796 209.61531 l
594.981818 208.54772 l
599.09484 216.402754 l
603.207862 227.7304 l
607.320885 191.029621 l
611.433907 203.163515 l
615.546929 228.252997 l
619.659951 234.690698 l
623.772973 204.267379 l
627.885995 187.605732 l
631.999017 188.675923 l
636.112039 203.996769 l
640.225061 213.853028 l
644.338084 209.701667 l
648.451106 210.40129 l
652.564128 237.922186 l
656.67715 219.34697 l
660.790172 199.304441 l
664.903194 193.530889 l
669.016216 203.154078 l
673.129238 214.39501 l
677.24226 212.824904 l
681.355283 236.356966 l
685.468305 214.844189 l
689.581327 238.987855 l
693.694349 244.021135 l
697.807371 215.121822 l
701.920393 197.270378 l
706.033415 198.316064 l
710.146437 202.341296 l
718.372482 186.872101 l
722.485504 193.052004 l
726.598526 191.160728 l
730.711548 201.3586 l
734.82457 208.939589 l
738.937592 204.972549 l
743.050614 208.784803 l
747.163636 208.210852 l
747.163636 208.210852 l
stroke
grestore
0.000 setgray
gsave
669.6 434.9 108 72 clipbox
138.436364 367.802327 m
142.549386 384.551271 l
146.662408 369.746226 l
150.77543 381.918236 l
154.888452 370.667469 l
159.001474 377.126696 l
163.114496 368.539669 l
167.227518 369.921279 l
171.340541 363.117551 l
175.453563 360.665608 l
179.566585 354.878249 l
183.679607 349.81189 l
187.792629 344.477745 l
191.905651 337.774696 l
196.018673 332.554817 l
200.131695 324.937475 l
204.244717 319.683324 l
208.35774 311.668744 l
212.470762 306.364832 l
216.583784 298.317095 l
220.696806 293.022265 l
224.809828 285.190681 l
228.92285 279.990433 l
233.035872 272.536298 l
237.148894 267.512764 l
241.261916 260.530534 l
245.374939 255.747928 l
249.487961 249.282885 l
253.600983 244.783398 l
257.714005 238.846456 l
261.827027 234.652022 l
265.940049 229.231593 l
270.053071 225.34814 l
274.166093 220.419138 l
278.279115 216.841269 l
282.392138 212.371541 l
286.50516 209.08667 l
290.618182 205.041329 l
294.731204 202.032892 l
298.844226 198.377052 l
302.957248 195.626795 l
307.07027 192.327148 l
311.183292 189.816614 l
315.296314 186.842217 l
319.409337 184.553625 l
323.522359 181.876169 l
327.635381 179.792851 l
331.748403 177.386625 l
335.861425 175.493175 l
339.974447 173.334864 l
344.087469 171.617128 l
348.200491 169.685551 l
352.313514 168.13053 l
356.426536 166.406378 l
360.539558 165.002111 l
364.65258 163.467718 l
381.104668 158.504384 l
393.443735 155.525212 l
397.556757 154.598663 l
409.895823 152.282967 l
418.121867 150.968808 l
426.347912 149.838121 l
434.573956 148.876172 l
446.913022 147.723855 l
459.252088 146.860911 l
471.591155 146.266555 l
483.930221 145.85577 l
504.495332 145.528951 l
525.060442 145.422552 l
570.303686 145.368841 l
611.433907 145.048801 l
681.355283 144.095438 l
734.82457 143.470773 l
747.163636 143.361362 l
747.163636 143.361362 l
stroke
grestore
0.800 setlinewidth
0 setlinejoin
[] 0 setdash
gsave
108 72 m
108 506.88 l
stroke
grestore
gsave
777.6 72 m
777.6 506.88 l
stroke
grestore
gsave
108 72 m
777.6 72 l
stroke
grestore
gsave
108 506.88 m
777.6 506.88 l
stroke
grestore
/DejaVuSans findfont
19.200 scalefont
setfont
gsave
265.471875 512.880000 translate
0.000000 rotate
0.000000 0.000000 m /C glyphshow
13.397522 0.000000 m /o glyphshow
25.136749 0.000000 m /m glyphshow
43.827698 0.000000 m /p glyphshow
56.007263 0.000000 m /a glyphshow
67.765228 0.000000 m /r glyphshow
75.653839 0.000000 m /i glyphshow
80.984741 0.000000 m /s glyphshow
90.981354 0.000000 m /o glyphshow
102.720581 0.000000 m /n glyphshow
114.881409 0.000000 m /space glyphshow
120.980560 0.000000 m /o glyphshow
132.719788 0.000000 m /f glyphshow
139.474762 0.000000 m /space glyphshow
145.573914 0.000000 m /d glyphshow
157.753479 0.000000 m /i glyphshow
163.084381 0.000000 m /f glyphshow
169.839355 0.000000 m /f glyphshow
176.594330 0.000000 m /e glyphshow
188.399139 0.000000 m /r glyphshow
196.287750 0.000000 m /e glyphshow
208.092560 0.000000 m /n glyphshow
220.253387 0.000000 m /t glyphshow
227.776611 0.000000 m /space glyphshow
233.875763 0.000000 m /T glyphshow
245.596252 0.000000 m /h glyphshow
257.757080 0.000000 m /r glyphshow
265.645691 0.000000 m /u glyphshow
277.806519 0.000000 m /s glyphshow
287.803131 0.000000 m /t glyphshow
295.326355 0.000000 m /space glyphshow
301.425507 0.000000 m /N glyphshow
315.778656 0.000000 m /o glyphshow
327.517883 0.000000 m /i glyphshow
332.848785 0.000000 m /s glyphshow
342.845398 0.000000 m /e glyphshow
grestore
1.000 setlinewidth
0 setlinecap
0.800 setgray
gsave
682.559375 306.205 m
766.4 306.205 l
768.533333 306.205 769.6 307.271667 769.6 309.405 c
769.6 495.68 l
769.6 497.813333 768.533333 498.88 766.4 498.88 c
682.559375 498.88 l
680.426042 498.88 679.359375 497.813333 679.359375 495.68 c
679.359375 309.405 l
679.359375 307.271667 680.426042 306.205 682.559375 306.205 c
cl
gsave
1.000 setgray
fill
grestore
stroke
grestore
1.500 setlinewidth
1 setlinejoin
2 setlinecap
[] 0 setdash
0.122 0.467 0.706 setrgbcolor
gsave
685.759375 485.92375 m
717.759375 485.92375 l
stroke
grestore
0.000 setgray
/DejaVuSans findfont
16.000 scalefont
setfont
gsave
730.559375 480.323750 translate
0.000000 rotate
0.000000 0.000000 m /one glyphshow
grestore
1.000 0.498 0.055 setrgbcolor
gsave
685.759375 462.439375 m
717.759375 462.439375 l
stroke
grestore
0.000 setgray
gsave
730.559375 456.839375 translate
0.000000 rotate
0.000000 0.000000 m /five glyphshow
grestore
0.173 0.627 0.173 setrgbcolor
gsave
685.759375 438.955 m
717.759375 438.955 l
stroke
grestore
0.000 setgray
gsave
730.559375 433.355000 translate
0.000000 rotate
0.000000 0.000000 m /one glyphshow
10.179688 0.000000 m /zero glyphshow
grestore
0.839 0.153 0.157 setrgbcolor
gsave
685.759375 415.470625 m
717.759375 415.470625 l
stroke
grestore
0.000 setgray
gsave
730.559375 409.870625 translate
0.000000 rotate
0.000000 0.000000 m /four glyphshow
10.179688 0.000000 m /zero glyphshow
grestore
0.580 0.404 0.741 setrgbcolor
gsave
685.759375 391.98625 m
717.759375 391.98625 l
stroke
grestore
0.000 setgray
gsave
730.559375 386.386250 translate
0.000000 rotate
0.000000 0.000000 m /eight glyphshow
10.179688 0.000000 m /zero glyphshow
grestore
0.549 0.337 0.294 setrgbcolor
gsave
685.759375 368.501875 m
717.759375 368.501875 l
stroke
grestore
0.000 setgray
gsave
730.559375 362.901875 translate
0.000000 rotate
0.000000 0.000000 m /one glyphshow
10.179688 0.000000 m /six glyphshow
20.359375 0.000000 m /zero glyphshow
grestore
0.890 0.467 0.761 setrgbcolor
gsave
685.759375 345.0175 m
717.759375 345.0175 l
stroke
grestore
0.000 setgray
gsave
730.559375 339.417500 translate
0.000000 rotate
0.000000 0.000000 m /three glyphshow
10.179688 0.000000 m /two glyphshow
20.359375 0.000000 m /zero glyphshow
grestore
gsave
685.759375 321.533125 m
717.759375 321.533125 l
stroke
grestore
gsave
730.559375 315.933125 translate
0.000000 rotate
0.000000 0.000000 m /L glyphshow
8.914062 0.000000 m /Q glyphshow
21.507812 0.000000 m /R glyphshow
grestore

end
showpage
