%!PS-Adobe-3.0 EPSF-3.0
%%Title: C:\Users\wlkob\OneDrive\8_Masterarbeit\Programs Masterarbeit\xExperiment\Figures\Goal_RecedingHorizon.eps
%%Creator: matplotlib version 3.0.1, http://matplotlib.org/
%%CreationDate: Fri Mar 27 00:19:08 2020
%%Orientation: portrait
%%BoundingBox: -126 108 738 684
%%EndComments
%%BeginProlog
/mpldict 8 dict def
mpldict begin
/m { moveto } bind def
/l { lineto } bind def
/r { rlineto } bind def
/c { curveto } bind def
/cl { closepath } bind def
/box {
m
1 index 0 r
0 exch r
neg 0 r
cl
} bind def
/clipbox {
box
clip
newpath
} bind def
%!PS-Adobe-3.0 Resource-Font
%%Title: DejaVu Sans
%%Copyright: Copyright (c) 2003 by Bitstream, Inc. All Rights Reserved. Copyright (c) 2006 by Tavmjong Bah. All Rights Reserved. DejaVu changes are in public domain 
%%Creator: Converted from TrueType to type 3 by PPR
25 dict begin
/_d{bind def}bind def
/_m{moveto}_d
/_l{lineto}_d
/_cl{closepath eofill}_d
/_c{curveto}_d
/_sc{7 -1 roll{setcachedevice}{pop pop pop pop pop pop}ifelse}_d
/_e{exec}_d
/FontName /DejaVuSans def
/PaintType 0 def
/FontMatrix[.001 0 0 .001 0 0]def
/FontBBox[-1021 -463 1793 1232]def
/FontType 3 def
/Encoding [ /space /zero /one /two /three /four /five /six /eight /A /C /H /L /N /Q /R /T /a /b /d /e /f /g /i /l /m /n /o /p /r /s /t /u /v /z ] def
/FontInfo 10 dict dup begin
/FamilyName (DejaVu Sans) def
/FullName (DejaVu Sans) def
/Notice (Copyright (c) 2003 by Bitstream, Inc. All Rights Reserved. Copyright (c) 2006 by Tavmjong Bah. All Rights Reserved. DejaVu changes are in public domain ) def
/Weight (Book) def
/Version (Version 2.35) def
/ItalicAngle 0.0 def
/isFixedPitch false def
/UnderlinePosition -130 def
/UnderlineThickness 90 def
end readonly def
/CharStrings 36 dict dup begin
/.notdef 0 def
/space{318 0 0 0 0 0 _sc
}_d
/zero{636 0 66 -13 570 742 _sc
318 664 _m
267 664 229 639 203 589 _c
177 539 165 464 165 364 _c
165 264 177 189 203 139 _c
229 89 267 64 318 64 _c
369 64 407 89 433 139 _c
458 189 471 264 471 364 _c
471 464 458 539 433 589 _c
407 639 369 664 318 664 _c
318 742 _m
399 742 461 709 505 645 _c
548 580 570 486 570 364 _c
570 241 548 147 505 83 _c
461 19 399 -13 318 -13 _c
236 -13 173 19 130 83 _c
87 147 66 241 66 364 _c
66 486 87 580 130 645 _c
173 709 236 742 318 742 _c
_cl}_d
/one{636 0 110 0 544 729 _sc
124 83 _m
285 83 _l
285 639 _l
110 604 _l
110 694 _l
284 729 _l
383 729 _l
383 83 _l
544 83 _l
544 0 _l
124 0 _l
124 83 _l
_cl}_d
/two{{636 0 73 0 536 742 _sc
192 83 _m
536 83 _l
536 0 _l
73 0 _l
73 83 _l
110 121 161 173 226 239 _c
290 304 331 346 348 365 _c
380 400 402 430 414 455 _c
426 479 433 504 433 528 _c
433 566 419 598 392 622 _c
365 646 330 659 286 659 _c
255 659 222 653 188 643 _c
154 632 117 616 78 594 _c
78 694 _l
118 710 155 722 189 730 _c
223 738 255 742 284 742 _c
}_e{359 742 419 723 464 685 _c
509 647 532 597 532 534 _c
532 504 526 475 515 449 _c
504 422 484 390 454 354 _c
446 344 420 317 376 272 _c
332 227 271 164 192 83 _c
_cl}_e}_d
/three{{636 0 76 -13 556 742 _sc
406 393 _m
453 383 490 362 516 330 _c
542 298 556 258 556 212 _c
556 140 531 84 482 45 _c
432 6 362 -13 271 -13 _c
240 -13 208 -10 176 -4 _c
144 1 110 10 76 22 _c
76 117 _l
103 101 133 89 166 81 _c
198 73 232 69 268 69 _c
330 69 377 81 409 105 _c
441 129 458 165 458 212 _c
458 254 443 288 413 312 _c
383 336 341 349 287 349 _c
}_e{202 349 _l
202 430 _l
291 430 _l
339 430 376 439 402 459 _c
428 478 441 506 441 543 _c
441 580 427 609 401 629 _c
374 649 336 659 287 659 _c
260 659 231 656 200 650 _c
169 644 135 635 98 623 _c
98 711 _l
135 721 170 729 203 734 _c
235 739 266 742 296 742 _c
370 742 429 725 473 691 _c
517 657 539 611 539 553 _c
539 513 527 479 504 451 _c
481 423 448 403 406 393 _c
_cl}_e}_d
/four{636 0 49 0 580 729 _sc
378 643 _m
129 254 _l
378 254 _l
378 643 _l
352 729 _m
476 729 _l
476 254 _l
580 254 _l
580 172 _l
476 172 _l
476 0 _l
378 0 _l
378 172 _l
49 172 _l
49 267 _l
352 729 _l
_cl}_d
/five{{636 0 77 -13 549 729 _sc
108 729 _m
495 729 _l
495 646 _l
198 646 _l
198 467 _l
212 472 227 476 241 478 _c
255 480 270 482 284 482 _c
365 482 429 459 477 415 _c
525 370 549 310 549 234 _c
549 155 524 94 475 51 _c
426 8 357 -13 269 -13 _c
238 -13 207 -10 175 -6 _c
143 -1 111 6 77 17 _c
77 116 _l
106 100 136 88 168 80 _c
199 72 232 69 267 69 _c
}_e{323 69 368 83 401 113 _c
433 143 450 183 450 234 _c
450 284 433 324 401 354 _c
368 384 323 399 267 399 _c
241 399 214 396 188 390 _c
162 384 135 375 108 363 _c
108 729 _l
_cl}_e}_d
/six{{636 0 70 -13 573 742 _sc
330 404 _m
286 404 251 388 225 358 _c
199 328 186 286 186 234 _c
186 181 199 139 225 109 _c
251 79 286 64 330 64 _c
374 64 409 79 435 109 _c
461 139 474 181 474 234 _c
474 286 461 328 435 358 _c
409 388 374 404 330 404 _c
526 713 _m
526 623 _l
501 635 476 644 451 650 _c
425 656 400 659 376 659 _c
310 659 260 637 226 593 _c
}_e{192 549 172 482 168 394 _c
187 422 211 444 240 459 _c
269 474 301 482 336 482 _c
409 482 467 459 509 415 _c
551 371 573 310 573 234 _c
573 159 550 99 506 54 _c
462 9 403 -13 330 -13 _c
246 -13 181 19 137 83 _c
92 147 70 241 70 364 _c
70 479 97 571 152 639 _c
206 707 280 742 372 742 _c
396 742 421 739 447 735 _c
472 730 498 723 526 713 _c
_cl}_e}_d
/eight{{636 0 68 -13 568 742 _sc
318 346 _m
271 346 234 333 207 308 _c
180 283 167 249 167 205 _c
167 161 180 126 207 101 _c
234 76 271 64 318 64 _c
364 64 401 76 428 102 _c
455 127 469 161 469 205 _c
469 249 455 283 429 308 _c
402 333 365 346 318 346 _c
219 388 _m
177 398 144 418 120 447 _c
96 476 85 511 85 553 _c
85 611 105 657 147 691 _c
188 725 245 742 318 742 _c
}_e{390 742 447 725 489 691 _c
530 657 551 611 551 553 _c
551 511 539 476 515 447 _c
491 418 459 398 417 388 _c
464 377 501 355 528 323 _c
554 291 568 251 568 205 _c
568 134 546 80 503 43 _c
459 5 398 -13 318 -13 _c
237 -13 175 5 132 43 _c
89 80 68 134 68 205 _c
68 251 81 291 108 323 _c
134 355 171 377 219 388 _c
183 544 _m
183 506 194 476 218 455 _c
}_e{242 434 275 424 318 424 _c
360 424 393 434 417 455 _c
441 476 453 506 453 544 _c
453 582 441 611 417 632 _c
393 653 360 664 318 664 _c
275 664 242 653 218 632 _c
194 611 183 582 183 544 _c
_cl}_e}_d
/A{684 0 8 0 676 729 _sc
342 632 _m
208 269 _l
476 269 _l
342 632 _l
286 729 _m
398 729 _l
676 0 _l
573 0 _l
507 187 _l
178 187 _l
112 0 _l
8 0 _l
286 729 _l
_cl}_d
/C{{698 0 56 -13 644 742 _sc
644 673 _m
644 569 _l
610 599 575 622 537 638 _c
499 653 460 661 418 661 _c
334 661 270 635 226 584 _c
182 533 160 460 160 364 _c
160 268 182 194 226 143 _c
270 92 334 67 418 67 _c
460 67 499 74 537 90 _c
575 105 610 128 644 159 _c
644 56 _l
609 32 572 15 534 4 _c
496 -7 455 -13 412 -13 _c
302 -13 215 20 151 87 _c
}_e{87 154 56 246 56 364 _c
56 481 87 573 151 641 _c
215 708 302 742 412 742 _c
456 742 497 736 535 725 _c
573 713 610 696 644 673 _c
_cl}_e}_d
/H{752 0 98 0 654 729 _sc
98 729 _m
197 729 _l
197 430 _l
555 430 _l
555 729 _l
654 729 _l
654 0 _l
555 0 _l
555 347 _l
197 347 _l
197 0 _l
98 0 _l
98 729 _l
_cl}_d
/L{557 0 98 0 552 729 _sc
98 729 _m
197 729 _l
197 83 _l
552 83 _l
552 0 _l
98 0 _l
98 729 _l
_cl}_d
/N{748 0 98 0 650 729 _sc
98 729 _m
231 729 _l
554 119 _l
554 729 _l
650 729 _l
650 0 _l
517 0 _l
194 610 _l
194 0 _l
98 0 _l
98 729 _l
_cl}_d
/Q{{787 0 56 -128 731 742 _sc
394 662 _m
322 662 265 635 223 582 _c
181 528 160 456 160 364 _c
160 272 181 199 223 146 _c
265 92 322 66 394 66 _c
465 66 522 92 564 146 _c
606 199 627 272 627 364 _c
627 456 606 528 564 582 _c
522 635 465 662 394 662 _c
532 13 _m
662 -128 _l
543 -128 _l
435 -11 _l
424 -11 416 -12 410 -12 _c
404 -12 399 -13 394 -13 _c
291 -13 209 21 148 89 _c
}_e{86 157 56 248 56 364 _c
56 479 86 571 148 639 _c
209 707 291 742 394 742 _c
496 742 577 707 639 639 _c
700 571 731 479 731 364 _c
731 279 714 206 680 146 _c
646 86 596 41 532 13 _c
_cl}_e}_d
/R{{695 0 98 0 666 729 _sc
444 342 _m
465 334 486 319 506 296 _c
526 272 546 240 566 199 _c
666 0 _l
560 0 _l
467 187 _l
443 235 419 268 397 284 _c
374 300 343 308 304 308 _c
197 308 _l
197 0 _l
98 0 _l
98 729 _l
321 729 _l
404 729 466 711 507 677 _c
548 642 569 589 569 519 _c
569 473 558 434 537 404 _c
515 374 484 353 444 342 _c
197 648 _m
197 389 _l
321 389 _l
}_e{368 389 404 400 428 422 _c
452 444 465 476 465 519 _c
465 561 452 593 428 615 _c
404 637 368 648 321 648 _c
197 648 _l
_cl}_e}_d
/T{611 0 -2 0 614 729 _sc
-2 729 _m
614 729 _l
614 646 _l
355 646 _l
355 0 _l
256 0 _l
256 646 _l
-2 646 _l
-2 729 _l
_cl}_d
/a{{613 0 60 -13 522 560 _sc
343 275 _m
270 275 220 266 192 250 _c
164 233 150 205 150 165 _c
150 133 160 107 181 89 _c
202 70 231 61 267 61 _c
317 61 357 78 387 114 _c
417 149 432 196 432 255 _c
432 275 _l
343 275 _l
522 312 _m
522 0 _l
432 0 _l
432 83 _l
411 49 385 25 355 10 _c
325 -5 287 -13 243 -13 _c
187 -13 142 2 109 33 _c
76 64 60 106 60 159 _c
}_e{60 220 80 266 122 298 _c
163 329 224 345 306 345 _c
432 345 _l
432 354 _l
432 395 418 427 391 450 _c
364 472 326 484 277 484 _c
245 484 215 480 185 472 _c
155 464 127 453 100 439 _c
100 522 _l
132 534 164 544 195 550 _c
226 556 256 560 286 560 _c
365 560 424 539 463 498 _c
502 457 522 395 522 312 _c
_cl}_e}_d
/b{{635 0 91 -13 580 760 _sc
487 273 _m
487 339 473 390 446 428 _c
418 466 381 485 334 485 _c
286 485 249 466 222 428 _c
194 390 181 339 181 273 _c
181 207 194 155 222 117 _c
249 79 286 61 334 61 _c
381 61 418 79 446 117 _c
473 155 487 207 487 273 _c
181 464 _m
199 496 223 520 252 536 _c
281 552 316 560 356 560 _c
422 560 476 533 518 481 _c
559 428 580 359 580 273 _c
}_e{580 187 559 117 518 65 _c
476 13 422 -13 356 -13 _c
316 -13 281 -5 252 10 _c
223 25 199 49 181 82 _c
181 0 _l
91 0 _l
91 760 _l
181 760 _l
181 464 _l
_cl}_e}_d
/d{{635 0 55 -13 544 760 _sc
454 464 _m
454 760 _l
544 760 _l
544 0 _l
454 0 _l
454 82 _l
435 49 411 25 382 10 _c
353 -5 319 -13 279 -13 _c
213 -13 159 13 117 65 _c
75 117 55 187 55 273 _c
55 359 75 428 117 481 _c
159 533 213 560 279 560 _c
319 560 353 552 382 536 _c
411 520 435 496 454 464 _c
148 273 _m
148 207 161 155 188 117 _c
215 79 253 61 301 61 _c
}_e{348 61 385 79 413 117 _c
440 155 454 207 454 273 _c
454 339 440 390 413 428 _c
385 466 348 485 301 485 _c
253 485 215 466 188 428 _c
161 390 148 339 148 273 _c
_cl}_e}_d
/e{{615 0 55 -13 562 560 _sc
562 296 _m
562 252 _l
149 252 _l
153 190 171 142 205 110 _c
238 78 284 62 344 62 _c
378 62 412 66 444 74 _c
476 82 509 95 541 113 _c
541 28 _l
509 14 476 3 442 -3 _c
408 -9 373 -13 339 -13 _c
251 -13 182 12 131 62 _c
80 112 55 181 55 268 _c
55 357 79 428 127 481 _c
175 533 241 560 323 560 _c
397 560 455 536 498 489 _c
}_e{540 441 562 377 562 296 _c
472 322 _m
471 371 457 410 431 440 _c
404 469 368 484 324 484 _c
274 484 234 469 204 441 _c
174 413 156 373 152 322 _c
472 322 _l
_cl}_e}_d
/f{352 0 23 0 371 760 _sc
371 760 _m
371 685 _l
285 685 _l
253 685 230 678 218 665 _c
205 652 199 629 199 595 _c
199 547 _l
347 547 _l
347 477 _l
199 477 _l
199 0 _l
109 0 _l
109 477 _l
23 477 _l
23 547 _l
109 547 _l
109 585 _l
109 645 123 690 151 718 _c
179 746 224 760 286 760 _c
371 760 _l
_cl}_d
/g{{635 0 55 -207 544 560 _sc
454 280 _m
454 344 440 395 414 431 _c
387 467 349 485 301 485 _c
253 485 215 467 188 431 _c
161 395 148 344 148 280 _c
148 215 161 165 188 129 _c
215 93 253 75 301 75 _c
349 75 387 93 414 129 _c
440 165 454 215 454 280 _c
544 68 _m
544 -24 523 -93 482 -139 _c
440 -184 377 -207 292 -207 _c
260 -207 231 -204 203 -200 _c
175 -195 147 -188 121 -178 _c
}_e{121 -91 _l
147 -105 173 -115 199 -122 _c
225 -129 251 -133 278 -133 _c
336 -133 380 -117 410 -87 _c
439 -56 454 -10 454 52 _c
454 96 _l
435 64 411 40 382 24 _c
353 8 319 0 279 0 _c
211 0 157 25 116 76 _c
75 127 55 195 55 280 _c
55 364 75 432 116 483 _c
157 534 211 560 279 560 _c
319 560 353 552 382 536 _c
411 520 435 496 454 464 _c
454 547 _l
544 547 _l
}_e{544 68 _l
_cl}_e}_d
/i{278 0 94 0 184 760 _sc
94 547 _m
184 547 _l
184 0 _l
94 0 _l
94 547 _l
94 760 _m
184 760 _l
184 646 _l
94 646 _l
94 760 _l
_cl}_d
/l{278 0 94 0 184 760 _sc
94 760 _m
184 760 _l
184 0 _l
94 0 _l
94 760 _l
_cl}_d
/m{{974 0 91 0 889 560 _sc
520 442 _m
542 482 569 511 600 531 _c
631 550 668 560 711 560 _c
767 560 811 540 842 500 _c
873 460 889 403 889 330 _c
889 0 _l
799 0 _l
799 327 _l
799 379 789 418 771 444 _c
752 469 724 482 686 482 _c
639 482 602 466 575 435 _c
548 404 535 362 535 309 _c
535 0 _l
445 0 _l
445 327 _l
445 379 435 418 417 444 _c
398 469 369 482 331 482 _c
}_e{285 482 248 466 221 435 _c
194 404 181 362 181 309 _c
181 0 _l
91 0 _l
91 547 _l
181 547 _l
181 462 _l
201 495 226 520 255 536 _c
283 552 317 560 357 560 _c
397 560 430 550 458 530 _c
486 510 506 480 520 442 _c
_cl}_e}_d
/n{634 0 91 0 549 560 _sc
549 330 _m
549 0 _l
459 0 _l
459 327 _l
459 379 448 417 428 443 _c
408 469 378 482 338 482 _c
289 482 251 466 223 435 _c
195 404 181 362 181 309 _c
181 0 _l
91 0 _l
91 547 _l
181 547 _l
181 462 _l
202 494 227 519 257 535 _c
286 551 320 560 358 560 _c
420 560 468 540 500 501 _c
532 462 549 405 549 330 _c
_cl}_d
/o{612 0 55 -13 557 560 _sc
306 484 _m
258 484 220 465 192 427 _c
164 389 150 338 150 273 _c
150 207 163 156 191 118 _c
219 80 257 62 306 62 _c
354 62 392 80 420 118 _c
448 156 462 207 462 273 _c
462 337 448 389 420 427 _c
392 465 354 484 306 484 _c
306 560 _m
384 560 445 534 490 484 _c
534 433 557 363 557 273 _c
557 183 534 113 490 63 _c
445 12 384 -13 306 -13 _c
227 -13 165 12 121 63 _c
77 113 55 183 55 273 _c
55 363 77 433 121 484 _c
165 534 227 560 306 560 _c
_cl}_d
/p{{635 0 91 -207 580 560 _sc
181 82 _m
181 -207 _l
91 -207 _l
91 547 _l
181 547 _l
181 464 _l
199 496 223 520 252 536 _c
281 552 316 560 356 560 _c
422 560 476 533 518 481 _c
559 428 580 359 580 273 _c
580 187 559 117 518 65 _c
476 13 422 -13 356 -13 _c
316 -13 281 -5 252 10 _c
223 25 199 49 181 82 _c
487 273 _m
487 339 473 390 446 428 _c
418 466 381 485 334 485 _c
}_e{286 485 249 466 222 428 _c
194 390 181 339 181 273 _c
181 207 194 155 222 117 _c
249 79 286 61 334 61 _c
381 61 418 79 446 117 _c
473 155 487 207 487 273 _c
_cl}_e}_d
/r{411 0 91 0 411 560 _sc
411 463 _m
401 469 390 473 378 476 _c
366 478 353 480 339 480 _c
288 480 249 463 222 430 _c
194 397 181 350 181 288 _c
181 0 _l
91 0 _l
91 547 _l
181 547 _l
181 462 _l
199 495 224 520 254 536 _c
284 552 321 560 365 560 _c
371 560 378 559 386 559 _c
393 558 401 557 411 555 _c
411 463 _l
_cl}_d
/s{{521 0 54 -13 472 560 _sc
443 531 _m
443 446 _l
417 458 391 468 364 475 _c
336 481 308 485 279 485 _c
234 485 200 478 178 464 _c
156 450 145 430 145 403 _c
145 382 153 366 169 354 _c
185 342 217 330 265 320 _c
296 313 _l
360 299 405 279 432 255 _c
458 230 472 195 472 151 _c
472 100 452 60 412 31 _c
372 1 316 -13 246 -13 _c
216 -13 186 -10 154 -5 _c
}_e{122 0 89 8 54 20 _c
54 113 _l
87 95 120 82 152 74 _c
184 65 216 61 248 61 _c
290 61 323 68 346 82 _c
368 96 380 117 380 144 _c
380 168 371 187 355 200 _c
339 213 303 226 247 238 _c
216 245 _l
160 257 119 275 95 299 _c
70 323 58 356 58 399 _c
58 450 76 490 112 518 _c
148 546 200 560 268 560 _c
301 560 332 557 362 552 _c
391 547 418 540 443 531 _c
}_e{_cl}_e}_d
/t{392 0 27 0 368 702 _sc
183 702 _m
183 547 _l
368 547 _l
368 477 _l
183 477 _l
183 180 _l
183 135 189 106 201 94 _c
213 81 238 75 276 75 _c
368 75 _l
368 0 _l
276 0 _l
206 0 158 13 132 39 _c
106 65 93 112 93 180 _c
93 477 _l
27 477 _l
27 547 _l
93 547 _l
93 702 _l
183 702 _l
_cl}_d
/u{634 0 85 -13 543 560 _sc
85 216 _m
85 547 _l
175 547 _l
175 219 _l
175 167 185 129 205 103 _c
225 77 255 64 296 64 _c
344 64 383 79 411 110 _c
439 141 453 183 453 237 _c
453 547 _l
543 547 _l
543 0 _l
453 0 _l
453 84 _l
431 50 405 26 377 10 _c
348 -5 315 -13 277 -13 _c
214 -13 166 6 134 45 _c
101 83 85 140 85 216 _c
311 560 _m
311 560 _l
_cl}_d
/v{592 0 30 0 562 547 _sc
30 547 _m
125 547 _l
296 88 _l
467 547 _l
562 547 _l
357 0 _l
235 0 _l
30 547 _l
_cl}_d
/z{525 0 43 0 482 547 _sc
55 547 _m
482 547 _l
482 465 _l
144 72 _l
482 72 _l
482 0 _l
43 0 _l
43 82 _l
381 475 _l
55 475 _l
55 547 _l
_cl}_d
end readonly def

/BuildGlyph
 {exch begin
 CharStrings exch
 2 copy known not{pop /.notdef}if
 true 3 1 roll get exec
 end}_d

/BuildChar {
 1 index /Encoding get exch get
 1 index /BuildGlyph get exec
}_d

FontName currentdict end definefont pop
end
%%EndProlog
mpldict begin
-126 108 translate
864 576 0 0 clipbox
gsave
0 0 m
864 0 l
864 576 l
0 576 l
cl
1.000 setgray
fill
grestore
gsave
108 72 m
777.6 72 l
777.6 506.88 l
108 506.88 l
cl
1.000 setgray
fill
grestore
gsave
669.6 434.9 108 72 clipbox
138.436364 448.245478 m
138.436364 448.24429 l
142.549386 448.294531 l
146.662408 448.391678 l
150.77543 448.505954 l
154.888452 448.325044 l
159.001474 447.765063 l
163.114496 446.890579 l
167.227518 445.835188 l
171.340541 444.567413 l
175.453563 443.262849 l
179.566585 442.077286 l
183.679607 440.917621 l
187.792629 439.82773 l
191.905651 438.70227 l
196.018673 437.546939 l
200.131695 436.562396 l
204.244717 435.816511 l
208.35774 435.23773 l
212.470762 434.720468 l
216.583784 434.137438 l
220.696806 433.606174 l
224.809828 433.126934 l
228.92285 432.815254 l
233.035872 432.550229 l
237.148894 432.330818 l
241.261916 432.079666 l
245.374939 431.942163 l
249.487961 431.819622 l
253.600983 431.753745 l
257.714005 431.651556 l
261.827027 431.688017 l
265.940049 431.750076 l
270.053071 431.899527 l
274.166093 432.040063 l
278.279115 432.243386 l
282.392138 432.476279 l
286.50516 432.723456 l
290.618182 432.913257 l
294.731204 433.153032 l
298.844226 433.47476 l
302.957248 433.918405 l
307.07027 434.471782 l
311.183292 435.122782 l
315.296314 435.741525 l
319.409337 436.388861 l
323.522359 437.093716 l
327.635381 437.82873 l
331.748403 438.718947 l
335.861425 439.717131 l
339.974447 440.742205 l
344.087469 441.811696 l
348.200491 442.977269 l
352.313514 444.116297 l
356.426536 445.42266 l
360.539558 446.672801 l
364.65258 448.079163 l
368.765602 449.48916 l
372.878624 451.046624 l
376.991646 452.742689 l
376.991646 487.112727 l
376.991646 487.112727 l
372.878624 484.087529 l
368.765602 481.181521 l
364.65258 478.326006 l
360.539558 475.615478 l
356.426536 472.955779 l
352.313514 470.527781 l
348.200491 468.227416 l
344.087469 466.0169 l
339.974447 463.885261 l
335.861425 461.849226 l
331.748403 459.985243 l
327.635381 458.122887 l
323.522359 456.40072 l
319.409337 454.80805 l
315.296314 453.165097 l
311.183292 451.73091 l
307.07027 450.312202 l
302.957248 449.14516 l
298.844226 448.235638 l
294.731204 447.287982 l
290.618182 446.359871 l
286.50516 445.527742 l
282.392138 444.731738 l
278.279115 444.064295 l
274.166093 443.61092 l
270.053071 443.075472 l
265.940049 442.555851 l
261.827027 442.194899 l
257.714005 441.895836 l
253.600983 441.723104 l
249.487961 441.66891 l
245.374939 441.648706 l
241.261916 441.619861 l
237.148894 441.666768 l
233.035872 441.721468 l
228.92285 441.896244 l
224.809828 442.113927 l
220.696806 442.441522 l
216.583784 442.846669 l
212.470762 443.277285 l
208.35774 443.789597 l
204.244717 444.338532 l
200.131695 444.816148 l
196.018673 445.25291 l
191.905651 445.611946 l
187.792629 445.940525 l
183.679607 446.311528 l
179.566585 446.733033 l
175.453563 447.220883 l
171.340541 447.697123 l
167.227518 448.194939 l
163.114496 448.591155 l
159.001474 448.774659 l
154.888452 448.74907 l
150.77543 448.568689 l
146.662408 448.423647 l
142.549386 448.300252 l
138.436364 448.245478 l
cl
0.122 0.467 0.706 setrgbcolor
fill
grestore
gsave
669.6 434.9 108 72 clipbox
138.436364 448.249473 m
138.436364 448.245693 l
142.549386 448.30481 l
146.662408 448.425556 l
150.77543 448.549573 l
154.888452 448.637145 l
159.001474 448.501506 l
163.114496 448.391666 l
167.227518 448.004106 l
171.340541 447.272098 l
175.453563 445.016313 l
179.566585 441.46629 l
183.679607 437.135763 l
187.792629 432.557787 l
191.905651 427.463199 l
196.018673 421.830106 l
200.131695 416.392527 l
204.244717 411.421394 l
208.35774 407.011056 l
212.470762 402.815198 l
216.583784 399.403098 l
220.696806 395.858195 l
224.809828 392.315067 l
228.92285 388.478531 l
233.035872 384.872176 l
237.148894 381.606832 l
241.261916 378.362069 l
245.374939 374.626703 l
249.487961 371.718657 l
253.600983 369.255889 l
257.714005 366.595496 l
261.827027 363.637563 l
265.940049 361.14185 l
270.053071 358.907677 l
274.166093 356.448603 l
278.279115 354.567733 l
282.392138 352.549776 l
286.50516 350.163313 l
290.618182 347.982705 l
294.731204 346.256916 l
298.844226 344.544706 l
302.957248 343.218417 l
307.07027 342.2006 l
311.183292 341.432423 l
315.296314 340.241295 l
319.409337 339.189122 l
323.522359 338.53359 l
327.635381 338.049594 l
331.748403 337.793575 l
335.861425 337.22162 l
339.974447 336.828971 l
344.087469 336.630756 l
348.200491 337.065214 l
352.313514 337.575206 l
356.426536 338.062005 l
360.539558 338.905834 l
364.65258 339.715672 l
368.765602 340.868288 l
368.765602 428.293518 l
368.765602 428.293518 l
364.65258 422.327465 l
360.539558 416.863907 l
356.426536 411.982224 l
352.313514 407.561156 l
348.200491 403.510696 l
344.087469 399.646917 l
339.974447 396.33256 l
335.861425 393.283595 l
331.748403 390.561689 l
327.635381 387.95282 l
323.522359 385.72693 l
319.409337 383.614725 l
315.296314 381.77316 l
311.183292 380.187246 l
307.07027 378.784038 l
302.957248 377.665546 l
298.844226 376.721329 l
294.731204 376.483915 l
290.618182 376.456242 l
286.50516 376.86236 l
282.392138 377.444654 l
278.279115 377.94196 l
274.166093 378.504456 l
270.053071 379.793369 l
265.940049 381.273036 l
261.827027 382.902849 l
257.714005 385.007574 l
253.600983 387.392842 l
249.487961 389.909453 l
245.374939 392.412056 l
241.261916 395.565651 l
237.148894 398.996419 l
233.035872 402.475044 l
228.92285 405.819934 l
224.809828 409.277157 l
220.696806 412.577138 l
216.583784 416.096034 l
212.470762 419.945056 l
208.35774 424.394482 l
204.244717 429.147496 l
200.131695 434.67152 l
196.018673 439.404414 l
191.905651 443.286288 l
187.792629 447.110628 l
183.679607 449.626913 l
179.566585 451.207339 l
175.453563 451.4843 l
171.340541 451.397678 l
167.227518 450.561973 l
163.114496 450.145049 l
159.001474 449.414048 l
154.888452 449.007623 l
150.77543 448.667304 l
146.662408 448.507077 l
142.549386 448.319784 l
138.436364 448.249473 l
cl
1.000 0.498 0.055 setrgbcolor
fill
grestore
gsave
669.6 434.9 108 72 clipbox
138.436364 448.251965 m
138.436364 448.245885 l
142.549386 448.300972 l
146.662408 448.443554 l
150.77543 448.657226 l
154.888452 448.933407 l
159.001474 449.236583 l
163.114496 449.500075 l
167.227518 449.632945 l
171.340541 449.605905 l
175.453563 449.600367 l
179.566585 449.290541 l
183.679607 449.017467 l
187.792629 448.806132 l
191.905651 448.700829 l
196.018673 448.879853 l
200.131695 448.911607 l
204.244717 447.955689 l
208.35774 446.627519 l
212.470762 443.775946 l
216.583784 440.416906 l
220.696806 435.040207 l
224.809828 427.965466 l
228.92285 419.863836 l
233.035872 411.932057 l
237.148894 403.140645 l
241.261916 394.508002 l
245.374939 386.305012 l
249.487961 375.611676 l
253.600983 361.675402 l
257.714005 345.422865 l
261.827027 330.838661 l
265.940049 316.505442 l
270.053071 304.571774 l
274.166093 293.720496 l
278.279115 283.515813 l
282.392138 274.363934 l
286.50516 265.055317 l
290.618182 253.868233 l
294.731204 243.187684 l
298.844226 235.819739 l
302.957248 230.050618 l
307.07027 223.237031 l
311.183292 216.985466 l
315.296314 210.621288 l
319.409337 202.118137 l
323.522359 192.924443 l
327.635381 184.028777 l
331.748403 176.232421 l
335.861425 169.313651 l
339.974447 164.020285 l
344.087469 159.290728 l
348.200491 156.648146 l
352.313514 153.563398 l
356.426536 151.72457 l
360.539558 151.141872 l
364.65258 151.544931 l
368.765602 151.500346 l
372.878624 152.794314 l
376.991646 152.501294 l
381.104668 151.665734 l
385.21769 150.698795 l
389.330713 149.453176 l
393.443735 147.598766 l
397.556757 146.323135 l
401.669779 143.908668 l
405.782801 141.714197 l
409.895823 140.320929 l
414.008845 138.850749 l
418.121867 138.382902 l
422.234889 138.268572 l
426.347912 137.728634 l
430.460934 136.787977 l
434.573956 136.439531 l
438.686978 135.985554 l
442.8 135.767154 l
446.913022 135.690901 l
451.026044 135.013107 l
455.139066 134.20151 l
459.252088 133.270126 l
463.365111 132.678528 l
467.478133 131.690008 l
471.591155 130.6522 l
475.704177 129.69387 l
479.817199 128.955789 l
483.930221 128.819268 l
488.043243 128.91817 l
492.156265 128.822797 l
496.269287 128.539074 l
500.38231 128.325443 l
504.495332 128.084716 l
508.608354 127.684527 l
512.721376 127.201817 l
516.834398 127.02299 l
520.94742 126.703899 l
525.060442 126.354383 l
529.173464 125.299482 l
533.286486 124.109016 l
537.399509 122.078872 l
541.512531 119.077838 l
545.625553 116.386297 l
549.738575 115.155659 l
553.851597 113.815457 l
557.964619 112.865744 l
562.077641 112.542603 l
566.190663 112.126431 l
570.303686 112.419252 l
574.416708 112.551387 l
578.52973 112.501014 l
582.642752 112.497218 l
586.755774 111.876105 l
590.868796 111.080311 l
594.981818 109.183952 l
599.09484 107.449993 l
603.207862 105.151574 l
607.320885 103.140713 l
611.433907 101.707262 l
615.546929 100.195525 l
619.659951 99.835315 l
623.772973 99.981768 l
627.885995 99.862027 l
631.999017 99.686325 l
636.112039 99.773512 l
640.225061 99.381878 l
644.338084 98.837536 l
648.451106 98.348384 l
652.564128 98.058115 l
656.67715 97.942867 l
660.790172 98.155537 l
664.903194 98.508406 l
669.016216 98.163984 l
673.129238 97.667782 l
677.24226 96.928906 l
681.355283 96.342199 l
685.468305 95.510895 l
689.581327 94.581594 l
693.694349 93.05269 l
697.807371 92.37567 l
701.920393 91.819406 l
706.033415 91.767273 l
710.146437 92.632042 l
714.259459 93.494872 l
718.372482 94.985314 l
722.485504 95.982174 l
726.598526 96.705531 l
730.711548 96.618931 l
734.82457 96.109871 l
738.937592 95.78364 l
743.050614 95.362912 l
747.163636 95.080805 l
747.163636 112.299774 l
747.163636 112.299774 l
743.050614 112.273818 l
738.937592 112.563358 l
734.82457 113.033538 l
730.711548 114.035675 l
726.598526 116.342535 l
722.485504 118.702747 l
718.372482 121.213001 l
714.259459 124.219075 l
710.146437 126.14964 l
706.033415 127.826847 l
701.920393 127.601263 l
697.807371 126.106874 l
693.694349 124.494657 l
689.581327 121.75002 l
685.468305 119.784979 l
681.355283 119.006899 l
677.24226 119.194882 l
673.129238 119.051731 l
669.016216 120.235163 l
664.903194 121.667155 l
660.790172 124.026876 l
656.67715 125.606242 l
652.564128 126.51383 l
648.451106 125.598967 l
644.338084 125.056978 l
640.225061 124.900098 l
636.112039 124.892122 l
631.999017 124.902751 l
627.885995 126.616765 l
623.772973 129.168299 l
619.659951 132.039143 l
615.546929 134.265257 l
611.433907 134.118717 l
607.320885 134.462784 l
603.207862 135.054983 l
599.09484 136.333093 l
594.981818 138.649447 l
590.868796 141.912076 l
586.755774 146.127606 l
582.642752 148.807306 l
578.52973 151.655806 l
574.416708 154.868938 l
570.303686 157.174084 l
566.190663 158.513259 l
562.077641 158.162376 l
557.964619 158.448522 l
553.851597 156.943321 l
549.738575 154.444816 l
545.625553 153.208902 l
541.512531 151.764943 l
537.399509 150.680847 l
533.286486 150.358388 l
529.173464 150.483774 l
525.060442 150.965353 l
520.94742 151.474491 l
516.834398 152.311045 l
512.721376 153.115282 l
508.608354 153.992062 l
504.495332 154.931139 l
500.38231 155.454894 l
496.269287 155.40579 l
492.156265 155.749388 l
488.043243 156.573766 l
483.930221 157.366523 l
479.817199 157.969002 l
475.704177 158.856077 l
471.591155 159.920913 l
467.478133 160.755614 l
463.365111 162.453666 l
459.252088 163.988901 l
455.139066 166.471091 l
451.026044 168.897009 l
446.913022 171.805211 l
442.8 174.690894 l
438.686978 177.030811 l
434.573956 178.825003 l
430.460934 180.521412 l
426.347912 181.993251 l
422.234889 184.075908 l
418.121867 187.975498 l
414.008845 190.415802 l
409.895823 194.418704 l
405.782801 198.52668 l
401.669779 203.454407 l
397.556757 209.960534 l
393.443735 217.292392 l
389.330713 224.407577 l
385.21769 231.271758 l
381.104668 237.906487 l
376.991646 246.664762 l
372.878624 257.796772 l
368.765602 271.667416 l
364.65258 283.556384 l
360.539558 295.930693 l
356.426536 304.101825 l
352.313514 311.452575 l
348.200491 316.416447 l
344.087469 322.905365 l
339.974447 329.552288 l
335.861425 336.711808 l
331.748403 341.794957 l
327.635381 348.677462 l
323.522359 356.117388 l
319.409337 362.3965 l
315.296314 368.316818 l
311.183292 375.983188 l
307.07027 382.741737 l
302.957248 391.19263 l
298.844226 400.680274 l
294.731204 408.227068 l
290.618182 413.092797 l
286.50516 417.232937 l
282.392138 419.394936 l
278.279115 421.933042 l
274.166093 426.608532 l
270.053071 432.861338 l
265.940049 438.971089 l
261.827027 443.903335 l
257.714005 448.24975 l
253.600983 451.119323 l
249.487961 452.147218 l
245.374939 452.946217 l
241.261916 455.301811 l
237.148894 458.287445 l
233.035872 459.953663 l
228.92285 461.67912 l
224.809828 462.730386 l
220.696806 461.1371 l
216.583784 460.177999 l
212.470762 457.313604 l
208.35774 455.462785 l
204.244717 454.024119 l
200.131695 453.678653 l
196.018673 452.965158 l
191.905651 452.690009 l
187.792629 452.453461 l
183.679607 452.173205 l
179.566585 451.616318 l
175.453563 451.324881 l
171.340541 450.979339 l
167.227518 450.540861 l
163.114496 450.069164 l
159.001474 449.66546 l
154.888452 449.323599 l
150.77543 448.829652 l
146.662408 448.634614 l
142.549386 448.340016 l
138.436364 448.251965 l
cl
0.173 0.627 0.173 setrgbcolor
fill
grestore
gsave
669.6 434.9 108 72 clipbox
138.436364 448.256123 m
138.436364 448.245589 l
142.549386 448.311135 l
146.662408 448.518123 l
150.77543 448.735578 l
154.888452 449.154491 l
159.001474 449.51155 l
163.114496 449.854678 l
167.227518 450.187718 l
171.340541 450.573377 l
175.453563 451.011562 l
179.566585 451.297891 l
183.679607 451.485075 l
187.792629 451.463137 l
191.905651 450.791104 l
196.018673 450.260105 l
200.131695 449.785925 l
204.244717 449.766761 l
208.35774 449.328815 l
212.470762 448.457743 l
216.583784 444.997532 l
220.696806 440.97954 l
224.809828 435.855184 l
228.92285 431.432402 l
233.035872 426.299671 l
237.148894 421.399122 l
241.261916 416.489677 l
245.374939 411.725129 l
249.487961 406.292583 l
253.600983 399.072365 l
257.714005 391.909208 l
261.827027 384.716821 l
265.940049 377.11275 l
270.053071 370.014516 l
274.166093 362.88162 l
278.279115 354.44499 l
282.392138 344.071736 l
286.50516 330.933211 l
290.618182 317.310364 l
294.731204 303.978524 l
298.844226 290.295568 l
302.957248 278.244337 l
307.07027 269.15691 l
311.183292 260.680121 l
315.296314 251.455746 l
319.409337 242.445638 l
323.522359 233.493405 l
327.635381 226.484261 l
331.748403 223.917579 l
335.861425 217.904283 l
339.974447 213.17263 l
344.087469 206.960916 l
348.200491 198.751204 l
352.313514 186.218047 l
356.426536 174.049042 l
360.539558 161.600501 l
364.65258 151.032117 l
368.765602 143.595444 l
372.878624 140.776556 l
376.991646 137.192698 l
381.104668 135.356949 l
385.21769 131.596877 l
389.330713 129.190602 l
393.443735 125.142829 l
397.556757 122.236325 l
401.669779 118.115263 l
405.782801 116.299289 l
409.895823 112.988266 l
414.008845 112.236202 l
418.121867 110.894569 l
422.234889 110.984397 l
426.347912 109.958108 l
430.460934 108.060974 l
434.573956 105.952169 l
438.686978 105.262709 l
442.8 105.458902 l
446.913022 105.43032 l
451.026044 105.389552 l
455.139066 105.797957 l
459.252088 105.581254 l
463.365111 105.375966 l
467.478133 105.955483 l
471.591155 105.934041 l
475.704177 105.7872 l
479.817199 106.121809 l
483.930221 107.089605 l
488.043243 106.97466 l
492.156265 105.842925 l
496.269287 105.245549 l
500.38231 105.706635 l
504.495332 106.14151 l
508.608354 106.549487 l
512.721376 106.374013 l
516.834398 106.407632 l
520.94742 106.222966 l
525.060442 106.069547 l
529.173464 105.725174 l
533.286486 104.695306 l
537.399509 104.527414 l
541.512531 104.388331 l
545.625553 104.509377 l
549.738575 104.200765 l
553.851597 103.392188 l
557.964619 102.809337 l
562.077641 103.495957 l
566.190663 104.293915 l
570.303686 105.584176 l
574.416708 106.594182 l
578.52973 107.469549 l
582.642752 107.170034 l
586.755774 107.099481 l
590.868796 106.409913 l
594.981818 105.806881 l
599.09484 105.134831 l
603.207862 104.659926 l
607.320885 104.395091 l
611.433907 104.344214 l
615.546929 103.89598 l
619.659951 103.603057 l
623.772973 102.758273 l
627.885995 102.198847 l
631.999017 101.978625 l
636.112039 101.611328 l
640.225061 101.183955 l
644.338084 101.700568 l
648.451106 101.812133 l
652.564128 102.052024 l
656.67715 102.911104 l
660.790172 103.181426 l
664.903194 102.782339 l
669.016216 102.015768 l
673.129238 101.490413 l
677.24226 101.021276 l
681.355283 100.02928 l
685.468305 100.139989 l
689.581327 101.345948 l
693.694349 102.218443 l
697.807371 103.312586 l
701.920393 103.792118 l
706.033415 104.150828 l
710.146437 104.644886 l
714.259459 105.161752 l
718.372482 105.262624 l
722.485504 105.379569 l
726.598526 104.970772 l
730.711548 104.215011 l
734.82457 103.596407 l
738.937592 103.552363 l
743.050614 102.954277 l
747.163636 102.22345 l
747.163636 110.223471 l
747.163636 110.223471 l
743.050614 111.629796 l
738.937592 112.41068 l
734.82457 113.221981 l
730.711548 113.019034 l
726.598526 112.720975 l
722.485504 112.344531 l
718.372482 112.749831 l
714.259459 112.599737 l
710.146437 112.771863 l
706.033415 113.473469 l
701.920393 114.463237 l
697.807371 115.093389 l
693.694349 116.5134 l
689.581327 118.379186 l
685.468305 119.569872 l
681.355283 119.166182 l
677.24226 117.645102 l
673.129238 116.320904 l
669.016216 116.533388 l
664.903194 116.45517 l
660.790172 116.602166 l
656.67715 117.958168 l
652.564128 119.034156 l
648.451106 118.094179 l
644.338084 117.545927 l
640.225061 118.557966 l
636.112039 119.152268 l
631.999017 118.668965 l
627.885995 118.159586 l
623.772973 117.711849 l
619.659951 115.764812 l
615.546929 113.567948 l
611.433907 112.122354 l
607.320885 111.378243 l
603.207862 111.061901 l
599.09484 111.340643 l
594.981818 111.726898 l
590.868796 113.092842 l
586.755774 114.982103 l
582.642752 117.021634 l
578.52973 118.548436 l
574.416708 120.202283 l
570.303686 121.270668 l
566.190663 122.718435 l
562.077641 123.2643 l
557.964619 123.247848 l
553.851597 121.23387 l
549.738575 119.342475 l
545.625553 118.080046 l
541.512531 118.451729 l
537.399509 119.524861 l
533.286486 121.24002 l
529.173464 122.168391 l
525.060442 122.323333 l
520.94742 121.26949 l
516.834398 120.684903 l
512.721376 120.29439 l
508.608354 118.975221 l
504.495332 118.74701 l
500.38231 118.901045 l
496.269287 119.81939 l
492.156265 120.615994 l
488.043243 121.944684 l
483.930221 122.828658 l
479.817199 122.911171 l
475.704177 123.841777 l
471.591155 125.694675 l
467.478133 128.189705 l
463.365111 131.524283 l
459.252088 134.438077 l
455.139066 136.120781 l
451.026044 139.517692 l
446.913022 143.211564 l
442.8 148.746082 l
438.686978 156.059259 l
434.573956 162.62719 l
430.460934 167.431097 l
426.347912 171.178936 l
422.234889 176.274395 l
418.121867 182.613722 l
414.008845 189.436861 l
409.895823 196.506797 l
405.782801 207.677708 l
401.669779 215.479087 l
397.556757 222.881647 l
393.443735 231.556451 l
389.330713 240.233948 l
385.21769 251.312828 l
381.104668 264.246245 l
376.991646 278.667116 l
372.878624 290.675015 l
368.765602 300.679944 l
364.65258 308.71732 l
360.539558 315.27446 l
356.426536 316.295876 l
352.313514 320.243535 l
348.200491 324.447711 l
344.087469 328.075848 l
339.974447 334.660565 l
335.861425 347.13582 l
331.748403 362.952894 l
327.635381 378.364435 l
323.522359 395.663115 l
319.409337 404.143285 l
315.296314 411.633798 l
311.183292 414.497933 l
307.07027 420.464881 l
302.957248 422.754017 l
298.844226 423.593811 l
294.731204 424.176721 l
290.618182 427.194038 l
286.50516 430.510742 l
282.392138 436.330983 l
278.279115 442.13823 l
274.166093 446.623928 l
270.053071 450.913663 l
265.940049 457.376701 l
261.827027 461.142188 l
257.714005 462.886713 l
253.600983 465.379859 l
249.487961 466.730395 l
245.374939 466.469519 l
241.261916 466.029116 l
237.148894 464.227333 l
233.035872 462.253428 l
228.92285 460.469449 l
224.809828 458.389059 l
220.696806 455.847595 l
216.583784 453.77944 l
212.470762 452.411212 l
208.35774 452.702572 l
204.244717 452.718576 l
200.131695 452.812612 l
196.018673 453.264935 l
191.905651 453.591374 l
187.792629 453.569615 l
183.679607 453.482223 l
179.566585 453.495719 l
175.453563 453.213678 l
171.340541 452.705595 l
167.227518 451.980802 l
163.114496 451.237416 l
159.001474 450.250303 l
154.888452 449.671841 l
150.77543 449.044479 l
146.662408 448.722028 l
142.549386 448.375096 l
138.436364 448.256123 l
cl
0.839 0.153 0.157 setrgbcolor
fill
grestore
gsave
669.6 434.9 108 72 clipbox
138.436364 448.249799 m
138.436364 448.246089 l
142.549386 448.304112 l
146.662408 448.416083 l
150.77543 448.596463 l
154.888452 448.871526 l
159.001474 449.285436 l
163.114496 449.585288 l
167.227518 450.023525 l
171.340541 450.354117 l
175.453563 450.82714 l
179.566585 451.216884 l
183.679607 451.656875 l
187.792629 451.991738 l
191.905651 452.067861 l
196.018673 452.207009 l
200.131695 452.141433 l
204.244717 451.909192 l
208.35774 451.299667 l
212.470762 450.552947 l
216.583784 449.635194 l
220.696806 448.444982 l
224.809828 447.060665 l
228.92285 445.085599 l
233.035872 443.090585 l
237.148894 440.057321 l
241.261916 438.497557 l
245.374939 436.682708 l
249.487961 434.002853 l
253.600983 431.739214 l
257.714005 428.905062 l
261.827027 426.271089 l
265.940049 423.516764 l
270.053071 420.762072 l
274.166093 416.632536 l
278.279115 411.47251 l
282.392138 406.868338 l
286.50516 402.842575 l
290.618182 396.896387 l
294.731204 391.162753 l
298.844226 385.303809 l
302.957248 379.199062 l
307.07027 372.781714 l
311.183292 368.043735 l
315.296314 364.596355 l
319.409337 362.605609 l
323.522359 361.042854 l
327.635381 360.420314 l
331.748403 359.435449 l
335.861425 356.667366 l
339.974447 352.779294 l
344.087469 347.420781 l
348.200491 340.500052 l
352.313514 335.639163 l
356.426536 330.228088 l
360.539558 324.964573 l
364.65258 318.133292 l
368.765602 311.614326 l
372.878624 304.073996 l
376.991646 296.902364 l
381.104668 290.395114 l
385.21769 284.667305 l
389.330713 280.13378 l
393.443735 276.113726 l
397.556757 272.416984 l
401.669779 267.149802 l
405.782801 261.617875 l
409.895823 256.669615 l
414.008845 251.509719 l
418.121867 246.440438 l
422.234889 241.216327 l
426.347912 236.514402 l
430.460934 231.22612 l
434.573956 226.721371 l
438.686978 219.734567 l
442.8 213.07342 l
446.913022 205.97669 l
451.026044 199.932908 l
455.139066 193.226794 l
459.252088 187.558329 l
463.365111 182.702516 l
467.478133 179.085712 l
471.591155 173.730921 l
475.704177 169.366783 l
479.817199 164.139171 l
483.930221 159.156057 l
488.043243 154.384332 l
492.156265 150.429741 l
496.269287 146.606084 l
500.38231 144.15593 l
504.495332 140.867003 l
508.608354 134.928233 l
512.721376 129.804758 l
516.834398 126.298426 l
520.94742 125.445889 l
525.060442 125.03328 l
529.173464 124.767335 l
533.286486 122.632715 l
537.399509 120.374588 l
541.512531 117.628492 l
545.625553 116.590754 l
549.738575 114.346756 l
553.851597 112.460014 l
557.964619 111.246177 l
562.077641 109.521185 l
566.190663 108.543758 l
570.303686 108.572261 l
574.416708 107.765705 l
578.52973 106.459047 l
582.642752 106.262401 l
586.755774 105.157747 l
590.868796 103.303463 l
594.981818 102.411046 l
599.09484 101.888809 l
603.207862 103.14954 l
607.320885 104.106479 l
611.433907 103.561299 l
615.546929 103.07602 l
619.659951 104.807917 l
623.772973 105.808846 l
627.885995 108.757302 l
631.999017 110.334674 l
636.112039 109.234358 l
640.225061 108.765001 l
644.338084 108.594687 l
648.451106 108.077107 l
652.564128 110.016781 l
656.67715 112.150383 l
660.790172 113.08734 l
664.903194 112.578303 l
669.016216 112.897839 l
673.129238 113.074882 l
677.24226 113.534622 l
681.355283 113.383869 l
685.468305 113.532186 l
689.581327 113.288888 l
693.694349 113.95246 l
697.807371 115.145143 l
701.920393 116.178226 l
706.033415 114.967583 l
710.146437 116.21292 l
714.259459 113.905271 l
718.372482 112.645299 l
722.485504 111.770561 l
726.598526 114.032339 l
730.711548 115.180831 l
734.82457 118.638711 l
738.937592 121.004438 l
743.050614 122.095243 l
747.163636 123.29366 l
747.163636 136.654938 l
747.163636 136.654938 l
743.050614 135.616317 l
738.937592 135.084273 l
734.82457 134.935569 l
730.711548 136.534313 l
726.598526 137.755031 l
722.485504 140.738351 l
718.372482 137.39668 l
714.259459 136.713559 l
710.146437 137.321391 l
706.033415 139.133127 l
701.920393 140.641709 l
697.807371 139.651078 l
693.694349 139.572764 l
689.581327 138.78783 l
685.468305 137.985008 l
681.355283 138.295122 l
677.24226 138.052517 l
673.129238 141.240154 l
669.016216 143.42489 l
664.903194 143.653514 l
660.790172 144.217112 l
656.67715 149.40002 l
652.564128 156.238235 l
648.451106 163.052816 l
644.338084 166.381493 l
640.225061 168.95795 l
636.112039 168.31582 l
631.999017 167.200854 l
627.885995 167.720456 l
623.772973 172.091211 l
619.659951 175.002642 l
615.546929 180.535089 l
611.433907 180.675024 l
607.320885 180.003746 l
603.207862 180.316462 l
599.09484 182.114092 l
594.981818 182.434772 l
590.868796 186.217846 l
586.755774 188.29371 l
582.642752 192.074188 l
578.52973 198.314057 l
574.416708 205.43773 l
570.303686 213.794949 l
566.190663 225.000495 l
562.077641 231.723355 l
557.964619 232.646274 l
553.851597 237.285045 l
549.738575 239.630592 l
545.625553 243.042844 l
541.512531 246.675809 l
537.399509 251.128492 l
533.286486 255.558596 l
529.173464 257.358071 l
525.060442 259.64331 l
520.94742 262.949144 l
516.834398 269.421261 l
512.721376 276.039462 l
508.608354 280.902798 l
504.495332 286.909517 l
500.38231 291.046959 l
496.269287 294.063823 l
492.156265 295.879222 l
488.043243 296.775273 l
483.930221 298.004366 l
479.817199 299.693012 l
475.704177 302.737698 l
471.591155 306.62578 l
467.478133 313.366395 l
463.365111 319.018405 l
459.252088 322.924001 l
455.139066 327.459814 l
451.026044 332.176352 l
446.913022 335.955815 l
442.8 340.397991 l
438.686978 346.537245 l
434.573956 354.698699 l
430.460934 361.173883 l
426.347912 368.907605 l
422.234889 382.680249 l
418.121867 387.074194 l
414.008845 392.425944 l
409.895823 397.819487 l
405.782801 401.720923 l
401.669779 405.630927 l
397.556757 411.453997 l
393.443735 418.289081 l
389.330713 422.308326 l
385.21769 424.956683 l
381.104668 427.444137 l
376.991646 428.286937 l
372.878624 430.180192 l
368.765602 432.525455 l
364.65258 437.021976 l
360.539558 442.222767 l
356.426536 444.837705 l
352.313514 447.22073 l
348.200491 448.385629 l
344.087469 447.798716 l
339.974447 446.560971 l
335.861425 447.910588 l
331.748403 451.372717 l
327.635381 455.730927 l
323.522359 460.17952 l
319.409337 464.206121 l
315.296314 465.319424 l
311.183292 466.769753 l
307.07027 467.903158 l
302.957248 468.268988 l
298.844226 468.336847 l
294.731204 468.581667 l
290.618182 468.570191 l
286.50516 467.256406 l
282.392138 466.415255 l
278.279115 465.239083 l
274.166093 463.955048 l
270.053071 462.823086 l
265.940049 462.634739 l
261.827027 462.392786 l
257.714005 462.60195 l
253.600983 462.676821 l
249.487961 462.612454 l
245.374939 462.192575 l
241.261916 461.553427 l
237.148894 460.713395 l
233.035872 459.255705 l
228.92285 458.353009 l
224.809828 457.85195 l
220.696806 457.654194 l
216.583784 457.717995 l
212.470762 457.385088 l
208.35774 457.013434 l
204.244717 456.918013 l
200.131695 456.880596 l
196.018673 456.853115 l
191.905651 456.581546 l
187.792629 455.876195 l
183.679607 455.008433 l
179.566585 453.948561 l
175.453563 453.147057 l
171.340541 452.245371 l
167.227518 451.459538 l
163.114496 450.739964 l
159.001474 450.067914 l
154.888452 449.495994 l
150.77543 448.932122 l
146.662408 448.601605 l
142.549386 448.341441 l
138.436364 448.249799 l
cl
0.580 0.404 0.741 setrgbcolor
fill
grestore
gsave
669.6 434.9 108 72 clipbox
138.436364 448.251674 m
138.436364 448.245848 l
142.549386 448.305456 l
146.662408 448.431983 l
150.77543 448.638691 l
154.888452 448.867675 l
159.001474 449.209834 l
163.114496 449.632019 l
167.227518 450.14971 l
171.340541 450.719289 l
175.453563 451.260315 l
179.566585 451.625357 l
183.679607 452.025461 l
187.792629 452.31611 l
191.905651 452.894591 l
196.018673 453.132097 l
200.131695 453.316181 l
204.244717 452.844098 l
208.35774 451.989896 l
212.470762 450.66499 l
216.583784 449.548136 l
220.696806 447.276042 l
224.809828 446.267208 l
228.92285 445.83808 l
233.035872 445.910521 l
237.148894 444.307533 l
241.261916 443.548073 l
245.374939 440.670719 l
249.487961 436.391647 l
253.600983 431.343052 l
257.714005 426.674388 l
261.827027 420.196782 l
265.940049 415.277481 l
270.053071 409.417407 l
274.166093 402.663164 l
278.279115 394.802577 l
282.392138 389.2605 l
286.50516 384.555893 l
290.618182 381.360739 l
294.731204 378.617107 l
298.844226 374.773353 l
302.957248 370.040774 l
307.07027 364.535285 l
311.183292 360.473387 l
315.296314 356.047666 l
319.409337 350.354671 l
323.522359 346.071332 l
327.635381 342.064545 l
331.748403 337.510692 l
335.861425 332.299676 l
339.974447 327.926551 l
344.087469 324.413121 l
348.200491 322.881203 l
352.313514 321.502465 l
356.426536 321.321242 l
360.539558 321.084148 l
364.65258 319.453918 l
368.765602 316.657019 l
372.878624 313.032783 l
376.991646 307.780995 l
381.104668 299.640603 l
385.21769 293.866029 l
389.330713 288.9257 l
393.443735 284.594729 l
397.556757 279.308661 l
401.669779 274.379373 l
405.782801 270.584096 l
409.895823 265.130245 l
414.008845 259.254347 l
418.121867 253.469327 l
422.234889 248.659577 l
426.347912 242.673999 l
430.460934 239.375882 l
434.573956 235.074203 l
438.686978 230.598463 l
442.8 225.347874 l
446.913022 221.153132 l
451.026044 215.338401 l
455.139066 210.649109 l
459.252088 207.40961 l
463.365111 203.354942 l
467.478133 200.131576 l
471.591155 199.473442 l
475.704177 198.534607 l
479.817199 198.975447 l
483.930221 198.323981 l
488.043243 195.232537 l
492.156265 190.909172 l
496.269287 186.275109 l
500.38231 181.588477 l
504.495332 178.489201 l
508.608354 177.671565 l
512.721376 176.751882 l
516.834398 175.724807 l
520.94742 176.070152 l
525.060442 175.15748 l
529.173464 174.507679 l
533.286486 172.593205 l
537.399509 170.797517 l
541.512531 167.233218 l
545.625553 163.240887 l
549.738575 162.164442 l
553.851597 160.842367 l
557.964619 161.849467 l
562.077641 161.885118 l
566.190663 159.893259 l
570.303686 158.396444 l
574.416708 156.417539 l
578.52973 155.71871 l
582.642752 158.670004 l
586.755774 161.871027 l
590.868796 163.276843 l
594.981818 162.970303 l
599.09484 162.30386 l
603.207862 161.742253 l
607.320885 160.49433 l
611.433907 159.779984 l
615.546929 157.221415 l
619.659951 155.209918 l
623.772973 152.600973 l
627.885995 151.021399 l
631.999017 149.821404 l
636.112039 150.802062 l
640.225061 149.79378 l
644.338084 148.012901 l
648.451106 147.357373 l
652.564128 146.483607 l
656.67715 147.312079 l
660.790172 149.195999 l
664.903194 151.104732 l
669.016216 151.6641 l
673.129238 150.894226 l
677.24226 149.044462 l
681.355283 149.438344 l
685.468305 150.596192 l
689.581327 149.941884 l
693.694349 148.897755 l
697.807371 148.512671 l
701.920393 148.822552 l
706.033415 148.519765 l
710.146437 149.04656 l
714.259459 148.629177 l
718.372482 147.336913 l
722.485504 146.936391 l
726.598526 146.476438 l
730.711548 146.018614 l
734.82457 145.999564 l
738.937592 143.625541 l
743.050614 142.569784 l
747.163636 142.670891 l
747.163636 193.876405 l
747.163636 193.876405 l
743.050614 191.039793 l
738.937592 192.379146 l
734.82457 192.6526 l
730.711548 194.214914 l
726.598526 196.72079 l
722.485504 198.718774 l
718.372482 201.585578 l
714.259459 203.172721 l
710.146437 204.334163 l
706.033415 206.136463 l
701.920393 209.056169 l
697.807371 210.816975 l
693.694349 213.055709 l
689.581327 216.965232 l
685.468305 219.126606 l
681.355283 217.632984 l
677.24226 216.303079 l
673.129238 213.804498 l
669.016216 210.761163 l
664.903194 209.803704 l
660.790172 212.16539 l
656.67715 214.006693 l
652.564128 214.428659 l
648.451106 215.028171 l
644.338084 213.007794 l
640.225061 211.745848 l
636.112039 210.098554 l
631.999017 212.082108 l
627.885995 212.665558 l
623.772973 211.856313 l
619.659951 211.298615 l
615.546929 212.060142 l
611.433907 214.058288 l
607.320885 215.441948 l
603.207862 216.50856 l
599.09484 215.998345 l
594.981818 217.368881 l
590.868796 219.603297 l
586.755774 222.223014 l
582.642752 226.45094 l
578.52973 229.796454 l
574.416708 234.461707 l
570.303686 241.986243 l
566.190663 251.860746 l
562.077641 260.736639 l
557.964619 269.500238 l
553.851597 276.172905 l
549.738575 282.111502 l
545.625553 287.33811 l
541.512531 292.826781 l
537.399509 296.86241 l
533.286486 297.911872 l
529.173464 298.674456 l
525.060442 302.312231 l
520.94742 309.059657 l
516.834398 315.620132 l
512.721376 323.215404 l
508.608354 329.307491 l
504.495332 331.588627 l
500.38231 332.556981 l
496.269287 335.528211 l
492.156265 339.975478 l
488.043243 346.706891 l
483.930221 353.954532 l
479.817199 362.265757 l
475.704177 368.337674 l
471.591155 369.669479 l
467.478133 370.515656 l
463.365111 369.171418 l
459.252088 369.175574 l
455.139066 369.637064 l
451.026044 373.359262 l
446.913022 376.122192 l
442.8 378.46752 l
438.686978 383.185091 l
434.573956 385.955543 l
430.460934 388.375661 l
426.347912 389.138547 l
422.234889 390.641245 l
418.121867 389.754708 l
414.008845 390.68921 l
409.895823 390.805673 l
405.782801 392.588769 l
401.669779 394.709086 l
397.556757 398.137119 l
393.443735 401.63705 l
389.330713 405.17257 l
385.21769 407.935455 l
381.104668 411.818728 l
376.991646 419.238243 l
372.878624 425.249116 l
368.765602 430.873408 l
364.65258 437.068179 l
360.539558 443.124076 l
356.426536 444.821576 l
352.313514 445.963319 l
348.200491 447.858549 l
344.087469 449.067004 l
339.974447 450.763887 l
335.861425 452.164392 l
331.748403 455.859723 l
327.635381 457.216807 l
323.522359 458.212858 l
319.409337 460.218786 l
315.296314 467.167905 l
311.183292 466.849443 l
307.07027 467.128233 l
302.957248 467.371425 l
298.844226 467.816897 l
294.731204 469.174452 l
290.618182 471.733694 l
286.50516 473.854345 l
282.392138 475.093277 l
278.279115 475.979986 l
274.166093 474.936227 l
270.053071 473.988023 l
265.940049 472.848644 l
261.827027 471.297085 l
257.714005 469.11565 l
253.600983 468.115195 l
249.487961 466.457651 l
245.374939 465.742378 l
241.261916 465.376362 l
237.148894 464.968947 l
233.035872 463.48191 l
228.92285 462.626583 l
224.809828 461.5543 l
220.696806 460.653545 l
216.583784 459.130582 l
212.470762 458.213383 l
208.35774 457.423461 l
204.244717 456.610423 l
200.131695 456.033218 l
196.018673 455.44679 l
191.905651 454.798849 l
187.792629 454.322543 l
183.679607 453.616816 l
179.566585 452.979019 l
175.453563 452.309429 l
171.340541 451.568708 l
167.227518 450.96345 l
163.114496 450.234603 l
159.001474 449.670332 l
154.888452 449.157311 l
150.77543 448.777193 l
146.662408 448.528291 l
142.549386 448.328254 l
138.436364 448.251674 l
cl
0.549 0.337 0.294 setrgbcolor
fill
grestore
0.800 setlinewidth
1 setlinejoin
0 setlinecap
[] 0 setdash
0.000 setgray
gsave
/o {
gsave
newpath
translate
0.8 setlinewidth
1 setlinejoin
0 setlinecap
0 0 m
0 -3.5 l

gsave
0.000 setgray
fill
grestore
stroke
grestore
} bind def
138.436 72 o
grestore
/DejaVuSans findfont
16.000 scalefont
setfont
gsave
133.342614 52.843750 translate
0.000000 rotate
0.000000 0.000000 m /zero glyphshow
grestore
gsave
/o {
gsave
newpath
translate
0.8 setlinewidth
1 setlinejoin
0 setlinecap
0 0 m
0 -3.5 l

gsave
0.000 setgray
fill
grestore
stroke
grestore
} bind def
220.697 72 o
grestore
gsave
210.509306 52.843750 translate
0.000000 rotate
0.000000 0.000000 m /two glyphshow
10.179688 0.000000 m /zero glyphshow
grestore
gsave
/o {
gsave
newpath
translate
0.8 setlinewidth
1 setlinejoin
0 setlinecap
0 0 m
0 -3.5 l

gsave
0.000 setgray
fill
grestore
stroke
grestore
} bind def
302.957 72 o
grestore
gsave
292.769748 52.843750 translate
0.000000 rotate
0.000000 0.000000 m /four glyphshow
10.179688 0.000000 m /zero glyphshow
grestore
gsave
/o {
gsave
newpath
translate
0.8 setlinewidth
1 setlinejoin
0 setlinecap
0 0 m
0 -3.5 l

gsave
0.000 setgray
fill
grestore
stroke
grestore
} bind def
385.218 72 o
grestore
gsave
375.030190 52.843750 translate
0.000000 rotate
0.000000 0.000000 m /six glyphshow
10.179688 0.000000 m /zero glyphshow
grestore
gsave
/o {
gsave
newpath
translate
0.8 setlinewidth
1 setlinejoin
0 setlinecap
0 0 m
0 -3.5 l

gsave
0.000 setgray
fill
grestore
stroke
grestore
} bind def
467.478 72 o
grestore
gsave
457.290633 52.843750 translate
0.000000 rotate
0.000000 0.000000 m /eight glyphshow
10.179688 0.000000 m /zero glyphshow
grestore
gsave
/o {
gsave
newpath
translate
0.8 setlinewidth
1 setlinejoin
0 setlinecap
0 0 m
0 -3.5 l

gsave
0.000 setgray
fill
grestore
stroke
grestore
} bind def
549.739 72 o
grestore
gsave
534.457325 52.843750 translate
0.000000 rotate
0.000000 0.000000 m /one glyphshow
10.179688 0.000000 m /zero glyphshow
20.359375 0.000000 m /zero glyphshow
grestore
gsave
/o {
gsave
newpath
translate
0.8 setlinewidth
1 setlinejoin
0 setlinecap
0 0 m
0 -3.5 l

gsave
0.000 setgray
fill
grestore
stroke
grestore
} bind def
631.999 72 o
grestore
gsave
616.717767 52.843750 translate
0.000000 rotate
0.000000 0.000000 m /one glyphshow
10.179688 0.000000 m /two glyphshow
20.359375 0.000000 m /zero glyphshow
grestore
gsave
/o {
gsave
newpath
translate
0.8 setlinewidth
1 setlinejoin
0 setlinecap
0 0 m
0 -3.5 l

gsave
0.000 setgray
fill
grestore
stroke
grestore
} bind def
714.259 72 o
grestore
gsave
698.978209 52.843750 translate
0.000000 rotate
0.000000 0.000000 m /one glyphshow
10.179688 0.000000 m /four glyphshow
20.359375 0.000000 m /zero glyphshow
grestore
gsave
365.651563 33.359375 translate
0.000000 rotate
0.000000 0.000000 m /N glyphshow
11.968750 0.000000 m /u glyphshow
22.109375 0.000000 m /m glyphshow
37.695312 0.000000 m /b glyphshow
47.851562 0.000000 m /e glyphshow
57.695312 0.000000 m /r glyphshow
64.273438 0.000000 m /space glyphshow
69.359375 0.000000 m /o glyphshow
79.148438 0.000000 m /f glyphshow
84.781250 0.000000 m /space glyphshow
89.867188 0.000000 m /R glyphshow
100.984375 0.000000 m /o glyphshow
110.773438 0.000000 m /l glyphshow
115.218750 0.000000 m /l glyphshow
119.664062 0.000000 m /o glyphshow
129.453125 0.000000 m /u glyphshow
139.593750 0.000000 m /t glyphshow
145.867188 0.000000 m /s glyphshow
grestore
gsave
/o {
gsave
newpath
translate
0.8 setlinewidth
1 setlinejoin
0 setlinecap
0 0 m
-3.5 0 l

gsave
0.000 setgray
fill
grestore
stroke
grestore
} bind def
108 93.2291 o
grestore
gsave
90.812500 87.151017 translate
0.000000 rotate
0.000000 0.000000 m /zero glyphshow
grestore
gsave
/o {
gsave
newpath
translate
0.8 setlinewidth
1 setlinejoin
0 setlinecap
0 0 m
-3.5 0 l

gsave
0.000 setgray
fill
grestore
stroke
grestore
} bind def
108 158.369 o
grestore
gsave
70.437500 152.290868 translate
0.000000 rotate
0.000000 0.000000 m /two glyphshow
10.179688 0.000000 m /zero glyphshow
20.359375 0.000000 m /zero glyphshow
grestore
gsave
/o {
gsave
newpath
translate
0.8 setlinewidth
1 setlinejoin
0 setlinecap
0 0 m
-3.5 0 l

gsave
0.000 setgray
fill
grestore
stroke
grestore
} bind def
108 223.509 o
grestore
gsave
70.437500 217.430719 translate
0.000000 rotate
0.000000 0.000000 m /four glyphshow
10.179688 0.000000 m /zero glyphshow
20.359375 0.000000 m /zero glyphshow
grestore
gsave
/o {
gsave
newpath
translate
0.8 setlinewidth
1 setlinejoin
0 setlinecap
0 0 m
-3.5 0 l

gsave
0.000 setgray
fill
grestore
stroke
grestore
} bind def
108 288.649 o
grestore
gsave
70.437500 282.570570 translate
0.000000 rotate
0.000000 0.000000 m /six glyphshow
10.179688 0.000000 m /zero glyphshow
20.359375 0.000000 m /zero glyphshow
grestore
gsave
/o {
gsave
newpath
translate
0.8 setlinewidth
1 setlinejoin
0 setlinecap
0 0 m
-3.5 0 l

gsave
0.000 setgray
fill
grestore
stroke
grestore
} bind def
108 353.789 o
grestore
gsave
70.437500 347.710421 translate
0.000000 rotate
0.000000 0.000000 m /eight glyphshow
10.179688 0.000000 m /zero glyphshow
20.359375 0.000000 m /zero glyphshow
grestore
gsave
/o {
gsave
newpath
translate
0.8 setlinewidth
1 setlinejoin
0 setlinecap
0 0 m
-3.5 0 l

gsave
0.000 setgray
fill
grestore
stroke
grestore
} bind def
108 418.928 o
grestore
gsave
60.250000 412.850272 translate
0.000000 rotate
0.000000 0.000000 m /one glyphshow
10.179688 0.000000 m /zero glyphshow
20.359375 0.000000 m /zero glyphshow
30.539062 0.000000 m /zero glyphshow
grestore
gsave
/o {
gsave
newpath
translate
0.8 setlinewidth
1 setlinejoin
0 setlinecap
0 0 m
-3.5 0 l

gsave
0.000 setgray
fill
grestore
stroke
grestore
} bind def
108 484.068 o
grestore
gsave
60.250000 477.990123 translate
0.000000 rotate
0.000000 0.000000 m /one glyphshow
10.179688 0.000000 m /two glyphshow
20.359375 0.000000 m /zero glyphshow
30.539062 0.000000 m /zero glyphshow
grestore
gsave
52.921875 200.072812 translate
90.000000 rotate
0.000000 0.000000 m /A glyphshow
10.945312 0.000000 m /v glyphshow
20.414062 0.000000 m /e glyphshow
30.257812 0.000000 m /r glyphshow
36.835938 0.000000 m /a glyphshow
46.640625 0.000000 m /g glyphshow
56.796875 0.000000 m /e glyphshow
66.640625 0.000000 m /space glyphshow
71.726562 0.000000 m /R glyphshow
82.843750 0.000000 m /u glyphshow
92.984375 0.000000 m /n glyphshow
103.125000 0.000000 m /n glyphshow
113.265625 0.000000 m /i glyphshow
117.710938 0.000000 m /n glyphshow
127.851562 0.000000 m /g glyphshow
138.007812 0.000000 m /space glyphshow
143.093750 0.000000 m /C glyphshow
154.265625 0.000000 m /o glyphshow
164.054688 0.000000 m /s glyphshow
172.390625 0.000000 m /t glyphshow
grestore
1.500 setlinewidth
2 setlinecap
0.122 0.467 0.706 setrgbcolor
gsave
669.6 434.9 108 72 clipbox
138.436364 448.244884 m
142.549386 448.297391 l
146.662408 448.407662 l
150.77543 448.537321 l
154.888452 448.537057 l
159.001474 448.269861 l
163.114496 447.740867 l
167.227518 447.015064 l
171.340541 446.132268 l
175.453563 445.241866 l
179.566585 444.405159 l
183.679607 443.614574 l
187.792629 442.884127 l
191.905651 442.157108 l
196.018673 441.399925 l
200.131695 440.689272 l
204.244717 440.077522 l
208.35774 439.513663 l
212.470762 438.998877 l
216.583784 438.492053 l
220.696806 438.023848 l
224.809828 437.620431 l
228.92285 437.355749 l
233.035872 437.135848 l
237.148894 436.998793 l
241.261916 436.849763 l
245.374939 436.795435 l
249.487961 436.744266 l
253.600983 436.738425 l
257.714005 436.773696 l
261.827027 436.941458 l
265.940049 437.152963 l
270.053071 437.487499 l
274.166093 437.825491 l
278.279115 438.15384 l
282.392138 438.604008 l
286.50516 439.125599 l
290.618182 439.636564 l
294.731204 440.220507 l
298.844226 440.855199 l
302.957248 441.531783 l
307.07027 442.391992 l
311.183292 443.426846 l
315.296314 444.453311 l
319.409337 445.598456 l
323.522359 446.747218 l
327.635381 447.975809 l
331.748403 449.352095 l
335.861425 450.783178 l
339.974447 452.313733 l
344.087469 453.914298 l
348.200491 455.602342 l
352.313514 457.322039 l
356.426536 459.18922 l
360.539558 461.144139 l
364.65258 463.202584 l
368.765602 465.335341 l
372.878624 467.567076 l
376.991646 469.927708 l
stroke
grestore
1.000 0.498 0.055 setrgbcolor
gsave
669.6 434.9 108 72 clipbox
138.436364 448.247583 m
142.549386 448.312297 l
146.662408 448.466317 l
150.77543 448.608438 l
154.888452 448.822384 l
159.001474 448.957777 l
163.114496 449.268357 l
167.227518 449.28304 l
171.340541 449.334888 l
175.453563 448.250307 l
179.566585 446.336815 l
183.679607 443.381338 l
187.792629 439.834207 l
191.905651 435.374743 l
196.018673 430.61726 l
200.131695 425.532023 l
204.244717 420.284445 l
208.35774 415.702769 l
212.470762 411.380127 l
216.583784 407.749566 l
220.696806 404.217666 l
224.809828 400.796112 l
228.92285 397.149233 l
233.035872 393.67361 l
237.148894 390.301625 l
241.261916 386.96386 l
245.374939 383.51938 l
249.487961 380.814055 l
253.600983 378.324366 l
257.714005 375.801535 l
261.827027 373.270206 l
265.940049 371.207443 l
270.053071 369.350523 l
274.166093 367.47653 l
278.279115 366.254846 l
282.392138 364.997215 l
286.50516 363.512836 l
290.618182 362.219474 l
294.731204 361.370415 l
298.844226 360.633018 l
302.957248 360.441982 l
307.07027 360.492319 l
311.183292 360.809835 l
315.296314 361.007228 l
319.409337 361.401923 l
323.522359 362.13026 l
327.635381 363.001207 l
331.748403 364.177632 l
335.861425 365.252607 l
339.974447 366.580765 l
344.087469 368.138836 l
348.200491 370.287955 l
352.313514 372.568181 l
356.426536 375.022115 l
360.539558 377.88487 l
364.65258 381.021568 l
368.765602 384.580903 l
stroke
grestore
0.173 0.627 0.173 setrgbcolor
gsave
669.6 434.9 108 72 clipbox
138.436364 448.248925 m
142.549386 448.320494 l
150.77543 448.743439 l
159.001474 449.451022 l
167.227518 450.086903 l
175.453563 450.462624 l
179.566585 450.45343 l
187.792629 450.629797 l
191.905651 450.695419 l
196.018673 450.922506 l
200.131695 451.29513 l
204.244717 450.989904 l
208.35774 451.045152 l
212.470762 450.544775 l
216.583784 450.297452 l
220.696806 448.088653 l
224.809828 445.347926 l
228.92285 440.771478 l
233.035872 435.94286 l
237.148894 430.714045 l
241.261916 424.904907 l
245.374939 419.625614 l
249.487961 413.879447 l
253.600983 406.397362 l
265.940049 377.738266 l
270.053071 368.716556 l
274.166093 360.164514 l
278.279115 352.724427 l
286.50516 341.144127 l
307.07027 302.989384 l
311.183292 296.484327 l
319.409337 282.257318 l
323.522359 274.520915 l
327.635381 266.35312 l
331.748403 259.013689 l
335.861425 253.01273 l
339.974447 246.786287 l
344.087469 241.098046 l
348.200491 236.532296 l
352.313514 232.507986 l
356.426536 227.913198 l
360.539558 223.536283 l
368.765602 211.583881 l
372.878624 205.295543 l
376.991646 199.583028 l
381.104668 194.78611 l
385.21769 190.985277 l
389.330713 186.930376 l
393.443735 182.445579 l
401.669779 173.681537 l
405.782801 170.120438 l
414.008845 164.633275 l
418.121867 163.1792 l
422.234889 161.17224 l
430.460934 158.654695 l
438.686978 156.508183 l
442.8 155.229024 l
446.913022 153.748056 l
451.026044 151.955058 l
459.252088 148.629513 l
463.365111 147.566097 l
467.478133 146.222811 l
479.817199 143.462395 l
496.269287 141.972432 l
500.38231 141.890169 l
504.495332 141.507928 l
512.721376 140.158549 l
525.060442 138.659868 l
537.399509 136.37986 l
541.512531 135.42139 l
545.625553 134.7976 l
549.738575 134.800237 l
553.851597 135.379389 l
557.964619 135.657133 l
562.077641 135.352489 l
566.190663 135.319845 l
570.303686 134.796668 l
574.416708 133.710163 l
578.52973 132.07841 l
582.642752 130.652262 l
586.755774 129.001856 l
594.981818 123.9167 l
599.09484 121.891543 l
603.207862 120.103278 l
607.320885 118.801749 l
611.433907 117.91299 l
615.546929 117.230391 l
627.885995 113.239396 l
631.999017 112.294538 l
636.112039 112.332817 l
644.338084 111.947257 l
648.451106 111.973675 l
652.564128 112.285973 l
656.67715 111.774555 l
660.790172 111.091207 l
664.903194 110.08778 l
673.129238 108.359756 l
681.355283 107.674549 l
685.468305 107.647937 l
701.920393 109.710334 l
706.033415 109.79706 l
710.146437 109.390841 l
714.259459 108.856974 l
726.598526 106.524033 l
730.711548 105.327303 l
734.82457 104.571705 l
743.050614 103.818365 l
747.163636 103.690289 l
747.163636 103.690289 l
stroke
grestore
0.839 0.153 0.157 setrgbcolor
gsave
669.6 434.9 108 72 clipbox
138.436364 448.250856 m
142.549386 448.343115 l
150.77543 448.890028 l
167.227518 451.08426 l
175.453563 452.11262 l
179.566585 452.396805 l
187.792629 452.516376 l
196.018673 451.76252 l
200.131695 451.299269 l
204.244717 451.242668 l
208.35774 451.015693 l
212.470762 450.434477 l
220.696806 448.413568 l
224.809828 447.122122 l
228.92285 445.950925 l
233.035872 444.27655 l
241.261916 441.259397 l
245.374939 439.097324 l
249.487961 436.511489 l
253.600983 432.226112 l
257.714005 427.397961 l
261.827027 422.929505 l
265.940049 417.244726 l
270.053071 410.46409 l
274.166093 404.752774 l
278.279115 398.29161 l
282.392138 390.201359 l
286.50516 380.721977 l
290.618182 372.252201 l
294.731204 364.077623 l
298.844226 356.94469 l
302.957248 350.499177 l
307.07027 344.810896 l
311.183292 337.589027 l
315.296314 331.544772 l
319.409337 323.294461 l
323.522359 314.57826 l
327.635381 302.424348 l
331.748403 293.435237 l
335.861425 282.520052 l
339.974447 273.916598 l
344.087469 267.518382 l
348.200491 261.599457 l
352.313514 253.230791 l
356.426536 245.172459 l
360.539558 238.43748 l
364.65258 229.874719 l
368.765602 222.137694 l
372.878624 215.725786 l
376.991646 207.929907 l
385.21769 191.454853 l
389.330713 184.712275 l
393.443735 178.34964 l
401.669779 166.797175 l
405.782801 161.988499 l
409.895823 154.747532 l
414.008845 150.836532 l
418.121867 146.754145 l
426.347912 140.568522 l
430.460934 137.746035 l
434.573956 134.28968 l
442.8 127.102492 l
446.913022 124.320942 l
451.026044 122.453622 l
455.139066 120.959369 l
459.252088 120.009665 l
463.365111 118.450124 l
467.478133 117.072594 l
471.591155 115.814358 l
475.704177 114.814488 l
479.817199 114.51649 l
483.930221 114.959131 l
488.043243 114.459672 l
492.156265 113.22946 l
496.269287 112.532469 l
500.38231 112.30384 l
504.495332 112.44426 l
508.608354 112.762354 l
512.721376 113.334202 l
520.94742 113.746228 l
525.060442 114.19644 l
529.173464 113.946783 l
537.399509 112.026138 l
541.512531 111.42003 l
545.625553 111.294712 l
553.851597 112.313029 l
557.964619 113.028592 l
562.077641 113.380128 l
566.190663 113.506175 l
574.416708 113.398232 l
578.52973 113.008993 l
582.642752 112.095834 l
586.755774 111.040792 l
590.868796 109.751378 l
594.981818 108.76689 l
599.09484 108.237737 l
603.207862 107.860913 l
607.320885 107.886667 l
611.433907 108.233284 l
615.546929 108.731964 l
619.659951 109.683934 l
623.772973 110.235061 l
627.885995 110.179217 l
636.112039 110.381798 l
640.225061 109.87096 l
644.338084 109.623248 l
648.451106 109.953156 l
652.564128 110.54309 l
656.67715 110.434636 l
660.790172 109.891796 l
669.016216 109.274578 l
673.129238 108.905659 l
677.24226 109.333189 l
685.468305 109.85493 l
689.581327 109.862567 l
693.694349 109.365921 l
710.146437 108.708375 l
718.372482 109.006227 l
722.485504 108.86205 l
726.598526 108.845874 l
734.82457 108.409194 l
738.937592 107.981522 l
743.050614 107.292036 l
747.163636 106.223461 l
747.163636 106.223461 l
stroke
grestore
0.580 0.404 0.741 setrgbcolor
gsave
669.6 434.9 108 72 clipbox
138.436364 448.247944 m
142.549386 448.322777 l
150.77543 448.764292 l
159.001474 449.676675 l
167.227518 450.741532 l
171.340541 451.299744 l
183.679607 453.332654 l
187.792629 453.933966 l
191.905651 454.324703 l
196.018673 454.530062 l
204.244717 454.413603 l
216.583784 453.676594 l
233.035872 451.173145 l
237.148894 450.385358 l
241.261916 450.025492 l
245.374939 449.437641 l
253.600983 447.208018 l
261.827027 444.331937 l
270.053071 441.792579 l
274.166093 440.293792 l
278.279115 438.355797 l
282.392138 436.641796 l
286.50516 435.049491 l
290.618182 432.733289 l
294.731204 429.87221 l
302.957248 423.734025 l
307.07027 420.342436 l
311.183292 417.406744 l
315.296314 414.957889 l
319.409337 413.405865 l
323.522359 410.611187 l
327.635381 408.07562 l
331.748403 405.404083 l
335.861425 402.288977 l
339.974447 399.670133 l
344.087469 397.609749 l
348.200491 394.442841 l
352.313514 391.429946 l
360.539558 383.59367 l
364.65258 377.577634 l
368.765602 372.069891 l
372.878624 367.127094 l
376.991646 362.59465 l
381.104668 358.919626 l
385.21769 354.811994 l
389.330713 351.221053 l
393.443735 347.201403 l
397.556757 341.935491 l
401.669779 336.390365 l
405.782801 331.669399 l
409.895823 327.244551 l
418.121867 316.757316 l
422.234889 311.948288 l
426.347912 302.711003 l
430.460934 296.200002 l
434.573956 290.710035 l
438.686978 283.135906 l
442.8 276.735705 l
446.913022 270.966252 l
451.026044 266.05463 l
455.139066 260.343304 l
459.252088 255.241165 l
463.365111 250.86046 l
467.478133 246.226054 l
471.591155 240.17835 l
479.817199 231.916091 l
483.930221 228.580212 l
488.043243 225.579802 l
492.156265 223.154481 l
500.38231 217.601444 l
504.495332 213.88826 l
508.608354 207.915516 l
516.834398 197.859843 l
520.94742 194.197517 l
525.060442 192.338295 l
529.173464 191.062703 l
533.286486 189.095656 l
537.399509 185.75154 l
541.512531 182.15215 l
545.625553 179.816799 l
549.738575 176.988674 l
553.851597 174.872529 l
557.964619 171.946225 l
562.077641 170.62227 l
566.190663 166.772126 l
570.303686 161.183605 l
574.416708 156.601717 l
578.52973 152.386552 l
582.642752 149.168295 l
586.755774 146.725728 l
590.868796 144.760655 l
594.981818 142.422909 l
599.09484 142.001451 l
603.207862 141.733001 l
607.320885 142.055113 l
611.433907 142.118162 l
615.546929 141.805555 l
619.659951 139.905279 l
623.772973 138.950028 l
627.885995 138.238879 l
631.999017 138.767764 l
640.225061 138.861476 l
644.338084 137.48809 l
648.451106 135.564961 l
656.67715 130.775201 l
660.790172 128.652226 l
664.903194 128.115909 l
669.016216 128.161364 l
673.129238 127.157518 l
677.24226 125.793569 l
681.355283 125.839495 l
685.468305 125.758597 l
689.581327 126.038359 l
697.807371 127.398111 l
701.920393 128.409967 l
706.033415 127.050355 l
710.146437 126.767155 l
714.259459 125.309415 l
718.372482 125.02099 l
722.485504 126.254456 l
726.598526 125.893685 l
730.711548 125.857572 l
734.82457 126.78714 l
738.937592 128.044356 l
743.050614 128.85578 l
747.163636 129.974299 l
747.163636 129.974299 l
stroke
grestore
0.549 0.337 0.294 setrgbcolor
gsave
669.6 434.9 108 72 clipbox
138.436364 448.248761 m
146.662408 448.480137 l
154.888452 449.012493 l
163.114496 449.933311 l
175.453563 451.784872 l
196.018673 454.289444 l
200.131695 454.6747 l
208.35774 454.706678 l
212.470762 454.439187 l
216.583784 454.339359 l
220.696806 453.964793 l
224.809828 453.910754 l
228.92285 454.232331 l
233.035872 454.696216 l
237.148894 454.63824 l
241.261916 454.462218 l
245.374939 453.206548 l
257.714005 447.895019 l
261.827027 445.746933 l
265.940049 444.063063 l
270.053071 441.702715 l
274.166093 438.799695 l
278.279115 435.391281 l
282.392138 432.176888 l
286.50516 429.205119 l
298.844226 421.295125 l
302.957248 418.7061 l
307.07027 415.831759 l
315.296314 411.607785 l
319.409337 405.286728 l
323.522359 402.142095 l
327.635381 399.640676 l
331.748403 396.685207 l
335.861425 392.232034 l
339.974447 389.345219 l
344.087469 386.740062 l
348.200491 385.369876 l
352.313514 383.732892 l
356.426536 383.071409 l
360.539558 382.104112 l
364.65258 378.261049 l
372.878624 369.14095 l
376.991646 363.509619 l
381.104668 355.729666 l
385.21769 350.900742 l
393.443735 343.11589 l
397.556757 338.72289 l
401.669779 334.544229 l
405.782801 331.586433 l
409.895823 327.967959 l
414.008845 324.971778 l
418.121867 321.612018 l
422.234889 319.650411 l
426.347912 315.906273 l
430.460934 313.875771 l
434.573956 310.514873 l
438.686978 306.891777 l
442.8 301.907697 l
446.913022 298.637662 l
455.139066 290.143087 l
459.252088 288.292592 l
463.365111 286.26318 l
467.478133 285.323616 l
471.591155 284.57146 l
475.704177 283.436141 l
479.817199 280.620602 l
483.930221 276.139256 l
488.043243 270.969714 l
492.156265 265.442325 l
496.269287 260.90166 l
500.38231 257.072729 l
504.495332 255.038914 l
508.608354 253.489528 l
512.721376 249.983643 l
516.834398 245.672469 l
520.94742 242.564905 l
525.060442 238.734856 l
529.173464 236.591068 l
537.399509 233.829963 l
541.512531 230.03 l
545.625553 225.289499 l
549.738575 222.137972 l
553.851597 218.507636 l
557.964619 215.674852 l
562.077641 211.310878 l
566.190663 205.877003 l
570.303686 200.191343 l
574.416708 195.439623 l
578.52973 192.757582 l
582.642752 192.560472 l
590.868796 191.44007 l
594.981818 190.169592 l
599.09484 189.151103 l
603.207862 189.125406 l
611.433907 186.919136 l
615.546929 184.640778 l
619.659951 183.254267 l
623.772973 182.228643 l
627.885995 181.843478 l
631.999017 180.951756 l
636.112039 180.450308 l
640.225061 180.769814 l
644.338084 180.510348 l
648.451106 181.192772 l
652.564128 180.456133 l
656.67715 180.659386 l
660.790172 180.680695 l
664.903194 180.454218 l
669.016216 181.212631 l
673.129238 182.349362 l
677.24226 182.673771 l
681.355283 183.535664 l
685.468305 184.861399 l
689.581327 183.453558 l
693.694349 180.976732 l
697.807371 179.664823 l
701.920393 178.939361 l
706.033415 177.328114 l
710.146437 176.690362 l
714.259459 175.900949 l
718.372482 174.461245 l
722.485504 172.827583 l
726.598526 171.598614 l
730.711548 170.116764 l
734.82457 169.326082 l
738.937592 168.002343 l
743.050614 166.804788 l
747.163636 168.273648 l
747.163636 168.273648 l
stroke
grestore
0.000 setgray
gsave
669.6 434.9 108 72 clipbox
138.436364 448.24133 m
142.549386 474.531884 l
146.662408 451.292638 l
150.77543 470.39885 l
154.888452 452.738697 l
159.001474 462.877645 l
163.114496 449.398723 l
167.227518 451.567415 l
171.340541 440.88771 l
175.453563 437.038933 l
179.566585 427.954606 l
183.679607 420.002023 l
187.792629 411.629098 l
191.905651 401.107426 l
196.018673 392.913864 l
200.131695 380.957042 l
204.244717 372.709683 l
208.35774 360.129323 l
212.470762 351.803855 l
216.583784 339.171449 l
220.696806 330.860238 l
224.809828 318.567123 l
228.92285 310.404375 l
233.035872 298.703736 l
237.148894 290.818373 l
241.261916 279.858475 l
245.374939 272.351294 l
249.487961 262.203218 l
253.600983 255.140443 l
257.714005 245.821317 l
261.827027 239.237381 l
265.940049 230.729018 l
270.053071 224.633222 l
274.166093 216.896245 l
278.279115 211.28012 l
282.392138 204.264059 l
286.50516 199.107848 l
290.618182 192.75794 l
294.731204 188.035643 l
298.844226 182.297129 l
302.957248 177.980092 l
307.07027 172.800688 l
311.183292 168.859942 l
315.296314 164.191078 l
319.409337 160.598711 l
323.522359 156.395951 l
327.635381 153.125798 l
331.748403 149.348784 l
335.861425 146.376665 l
339.974447 142.988798 l
344.087469 140.292494 l
348.200491 137.260529 l
352.313514 134.819635 l
356.426536 132.113262 l
360.539558 129.909006 l
364.65258 127.500494 l
368.765602 125.515542 l
372.878624 123.37935 l
385.21769 118.115213 l
389.330713 116.454057 l
397.556757 113.578876 l
405.782801 111.053746 l
414.008845 108.851288 l
422.234889 106.946439 l
430.460934 105.315756 l
438.686978 103.936793 l
446.913022 102.787599 l
455.139066 101.846354 l
463.365111 101.09118 l
471.591155 100.500096 l
479.817199 100.051122 l
488.043243 99.722497 l
500.38231 99.391767 l
525.060442 99.175279 l
562.077641 99.132004 l
594.981818 98.847492 l
631.999017 98.182608 l
738.937592 96.051954 l
747.163636 95.939861 l
747.163636 95.939861 l
stroke
grestore
0.800 setlinewidth
0 setlinejoin
[] 0 setdash
gsave
108 72 m
108 506.88 l
stroke
grestore
gsave
777.6 72 m
777.6 506.88 l
stroke
grestore
gsave
108 72 m
777.6 72 l
stroke
grestore
gsave
108 506.88 m
777.6 506.88 l
stroke
grestore
/DejaVuSans findfont
19.200 scalefont
setfont
gsave
262.370313 512.880000 translate
0.000000 rotate
0.000000 0.000000 m /C glyphshow
13.397522 0.000000 m /o glyphshow
25.136749 0.000000 m /m glyphshow
43.827698 0.000000 m /p glyphshow
56.007263 0.000000 m /a glyphshow
67.765228 0.000000 m /r glyphshow
75.653839 0.000000 m /i glyphshow
80.984741 0.000000 m /s glyphshow
90.981354 0.000000 m /o glyphshow
102.720581 0.000000 m /n glyphshow
114.881409 0.000000 m /space glyphshow
120.980560 0.000000 m /o glyphshow
132.719788 0.000000 m /f glyphshow
139.474762 0.000000 m /space glyphshow
145.573914 0.000000 m /d glyphshow
157.753479 0.000000 m /i glyphshow
163.084381 0.000000 m /f glyphshow
169.839355 0.000000 m /f glyphshow
176.594330 0.000000 m /e glyphshow
188.399139 0.000000 m /r glyphshow
196.287750 0.000000 m /e glyphshow
208.092560 0.000000 m /n glyphshow
220.253387 0.000000 m /t glyphshow
227.776611 0.000000 m /space glyphshow
233.875763 0.000000 m /T glyphshow
245.596252 0.000000 m /i glyphshow
250.927155 0.000000 m /m glyphshow
269.618103 0.000000 m /e glyphshow
281.422913 0.000000 m /space glyphshow
287.522064 0.000000 m /H glyphshow
301.950165 0.000000 m /o glyphshow
313.689392 0.000000 m /r glyphshow
321.578003 0.000000 m /i glyphshow
326.908905 0.000000 m /z glyphshow
336.980469 0.000000 m /o glyphshow
348.719696 0.000000 m /n glyphshow
grestore
1.000 setlinewidth
0 setlinecap
0.800 setgray
gsave
682.559375 329.689375 m
766.4 329.689375 l
768.533333 329.689375 769.6 330.756042 769.6 332.889375 c
769.6 495.68 l
769.6 497.813333 768.533333 498.88 766.4 498.88 c
682.559375 498.88 l
680.426042 498.88 679.359375 497.813333 679.359375 495.68 c
679.359375 332.889375 l
679.359375 330.756042 680.426042 329.689375 682.559375 329.689375 c
cl
gsave
1.000 setgray
fill
grestore
stroke
grestore
1.500 setlinewidth
1 setlinejoin
2 setlinecap
[] 0 setdash
0.122 0.467 0.706 setrgbcolor
gsave
685.759375 485.92375 m
717.759375 485.92375 l
stroke
grestore
0.000 setgray
/DejaVuSans findfont
16.000 scalefont
setfont
gsave
730.559375 480.323750 translate
0.000000 rotate
0.000000 0.000000 m /five glyphshow
grestore
1.000 0.498 0.055 setrgbcolor
gsave
685.759375 462.439375 m
717.759375 462.439375 l
stroke
grestore
0.000 setgray
gsave
730.559375 456.839375 translate
0.000000 rotate
0.000000 0.000000 m /one glyphshow
10.179688 0.000000 m /zero glyphshow
grestore
0.173 0.627 0.173 setrgbcolor
gsave
685.759375 438.955 m
717.759375 438.955 l
stroke
grestore
0.000 setgray
gsave
730.559375 433.355000 translate
0.000000 rotate
0.000000 0.000000 m /three glyphshow
10.179688 0.000000 m /zero glyphshow
grestore
0.839 0.153 0.157 setrgbcolor
gsave
685.759375 415.470625 m
717.759375 415.470625 l
stroke
grestore
0.000 setgray
gsave
730.559375 409.870625 translate
0.000000 rotate
0.000000 0.000000 m /five glyphshow
10.179688 0.000000 m /zero glyphshow
grestore
0.580 0.404 0.741 setrgbcolor
gsave
685.759375 391.98625 m
717.759375 391.98625 l
stroke
grestore
0.000 setgray
gsave
730.559375 386.386250 translate
0.000000 rotate
0.000000 0.000000 m /eight glyphshow
10.179688 0.000000 m /zero glyphshow
grestore
0.549 0.337 0.294 setrgbcolor
gsave
685.759375 368.501875 m
717.759375 368.501875 l
stroke
grestore
0.000 setgray
gsave
730.559375 362.901875 translate
0.000000 rotate
0.000000 0.000000 m /one glyphshow
10.179688 0.000000 m /zero glyphshow
20.359375 0.000000 m /zero glyphshow
grestore
gsave
685.759375 345.0175 m
717.759375 345.0175 l
stroke
grestore
gsave
730.559375 339.417500 translate
0.000000 rotate
0.000000 0.000000 m /L glyphshow
8.914062 0.000000 m /Q glyphshow
21.507812 0.000000 m /R glyphshow
grestore

end
showpage
