%!PS-Adobe-3.0 EPSF-3.0
%%Title: C:\Users\wlkob\OneDrive\8_Masterarbeit\Programs Masterarbeit\xExperiment\Figures\Goal_SamplingNumber.eps
%%Creator: matplotlib version 3.0.1, http://matplotlib.org/
%%CreationDate: Fri Mar 27 00:10:54 2020
%%Orientation: portrait
%%BoundingBox: -126 108 738 684
%%EndComments
%%BeginProlog
/mpldict 8 dict def
mpldict begin
/m { moveto } bind def
/l { lineto } bind def
/r { rlineto } bind def
/c { curveto } bind def
/cl { closepath } bind def
/box {
m
1 index 0 r
0 exch r
neg 0 r
cl
} bind def
/clipbox {
box
clip
newpath
} bind def
%!PS-Adobe-3.0 Resource-Font
%%Title: DejaVu Sans
%%Copyright: Copyright (c) 2003 by Bitstream, Inc. All Rights Reserved. Copyright (c) 2006 by Tavmjong Bah. All Rights Reserved. DejaVu changes are in public domain 
%%Creator: Converted from TrueType to type 3 by PPR
25 dict begin
/_d{bind def}bind def
/_m{moveto}_d
/_l{lineto}_d
/_cl{closepath eofill}_d
/_c{curveto}_d
/_sc{7 -1 roll{setcachedevice}{pop pop pop pop pop pop}ifelse}_d
/_e{exec}_d
/FontName /DejaVuSans def
/PaintType 0 def
/FontMatrix[.001 0 0 .001 0 0]def
/FontBBox[-1021 -463 1793 1232]def
/FontType 3 def
/Encoding [ /space /zero /one /two /four /five /six /eight /A /C /N /R /S /a /b /d /e /f /g /i /l /m /n /o /p /r /s /t /u /v ] def
/FontInfo 10 dict dup begin
/FamilyName (DejaVu Sans) def
/FullName (DejaVu Sans) def
/Notice (Copyright (c) 2003 by Bitstream, Inc. All Rights Reserved. Copyright (c) 2006 by Tavmjong Bah. All Rights Reserved. DejaVu changes are in public domain ) def
/Weight (Book) def
/Version (Version 2.35) def
/ItalicAngle 0.0 def
/isFixedPitch false def
/UnderlinePosition -130 def
/UnderlineThickness 90 def
end readonly def
/CharStrings 31 dict dup begin
/.notdef 0 def
/space{318 0 0 0 0 0 _sc
}_d
/zero{636 0 66 -13 570 742 _sc
318 664 _m
267 664 229 639 203 589 _c
177 539 165 464 165 364 _c
165 264 177 189 203 139 _c
229 89 267 64 318 64 _c
369 64 407 89 433 139 _c
458 189 471 264 471 364 _c
471 464 458 539 433 589 _c
407 639 369 664 318 664 _c
318 742 _m
399 742 461 709 505 645 _c
548 580 570 486 570 364 _c
570 241 548 147 505 83 _c
461 19 399 -13 318 -13 _c
236 -13 173 19 130 83 _c
87 147 66 241 66 364 _c
66 486 87 580 130 645 _c
173 709 236 742 318 742 _c
_cl}_d
/one{636 0 110 0 544 729 _sc
124 83 _m
285 83 _l
285 639 _l
110 604 _l
110 694 _l
284 729 _l
383 729 _l
383 83 _l
544 83 _l
544 0 _l
124 0 _l
124 83 _l
_cl}_d
/two{{636 0 73 0 536 742 _sc
192 83 _m
536 83 _l
536 0 _l
73 0 _l
73 83 _l
110 121 161 173 226 239 _c
290 304 331 346 348 365 _c
380 400 402 430 414 455 _c
426 479 433 504 433 528 _c
433 566 419 598 392 622 _c
365 646 330 659 286 659 _c
255 659 222 653 188 643 _c
154 632 117 616 78 594 _c
78 694 _l
118 710 155 722 189 730 _c
223 738 255 742 284 742 _c
}_e{359 742 419 723 464 685 _c
509 647 532 597 532 534 _c
532 504 526 475 515 449 _c
504 422 484 390 454 354 _c
446 344 420 317 376 272 _c
332 227 271 164 192 83 _c
_cl}_e}_d
/four{636 0 49 0 580 729 _sc
378 643 _m
129 254 _l
378 254 _l
378 643 _l
352 729 _m
476 729 _l
476 254 _l
580 254 _l
580 172 _l
476 172 _l
476 0 _l
378 0 _l
378 172 _l
49 172 _l
49 267 _l
352 729 _l
_cl}_d
/five{{636 0 77 -13 549 729 _sc
108 729 _m
495 729 _l
495 646 _l
198 646 _l
198 467 _l
212 472 227 476 241 478 _c
255 480 270 482 284 482 _c
365 482 429 459 477 415 _c
525 370 549 310 549 234 _c
549 155 524 94 475 51 _c
426 8 357 -13 269 -13 _c
238 -13 207 -10 175 -6 _c
143 -1 111 6 77 17 _c
77 116 _l
106 100 136 88 168 80 _c
199 72 232 69 267 69 _c
}_e{323 69 368 83 401 113 _c
433 143 450 183 450 234 _c
450 284 433 324 401 354 _c
368 384 323 399 267 399 _c
241 399 214 396 188 390 _c
162 384 135 375 108 363 _c
108 729 _l
_cl}_e}_d
/six{{636 0 70 -13 573 742 _sc
330 404 _m
286 404 251 388 225 358 _c
199 328 186 286 186 234 _c
186 181 199 139 225 109 _c
251 79 286 64 330 64 _c
374 64 409 79 435 109 _c
461 139 474 181 474 234 _c
474 286 461 328 435 358 _c
409 388 374 404 330 404 _c
526 713 _m
526 623 _l
501 635 476 644 451 650 _c
425 656 400 659 376 659 _c
310 659 260 637 226 593 _c
}_e{192 549 172 482 168 394 _c
187 422 211 444 240 459 _c
269 474 301 482 336 482 _c
409 482 467 459 509 415 _c
551 371 573 310 573 234 _c
573 159 550 99 506 54 _c
462 9 403 -13 330 -13 _c
246 -13 181 19 137 83 _c
92 147 70 241 70 364 _c
70 479 97 571 152 639 _c
206 707 280 742 372 742 _c
396 742 421 739 447 735 _c
472 730 498 723 526 713 _c
_cl}_e}_d
/eight{{636 0 68 -13 568 742 _sc
318 346 _m
271 346 234 333 207 308 _c
180 283 167 249 167 205 _c
167 161 180 126 207 101 _c
234 76 271 64 318 64 _c
364 64 401 76 428 102 _c
455 127 469 161 469 205 _c
469 249 455 283 429 308 _c
402 333 365 346 318 346 _c
219 388 _m
177 398 144 418 120 447 _c
96 476 85 511 85 553 _c
85 611 105 657 147 691 _c
188 725 245 742 318 742 _c
}_e{390 742 447 725 489 691 _c
530 657 551 611 551 553 _c
551 511 539 476 515 447 _c
491 418 459 398 417 388 _c
464 377 501 355 528 323 _c
554 291 568 251 568 205 _c
568 134 546 80 503 43 _c
459 5 398 -13 318 -13 _c
237 -13 175 5 132 43 _c
89 80 68 134 68 205 _c
68 251 81 291 108 323 _c
134 355 171 377 219 388 _c
183 544 _m
183 506 194 476 218 455 _c
}_e{242 434 275 424 318 424 _c
360 424 393 434 417 455 _c
441 476 453 506 453 544 _c
453 582 441 611 417 632 _c
393 653 360 664 318 664 _c
275 664 242 653 218 632 _c
194 611 183 582 183 544 _c
_cl}_e}_d
/A{684 0 8 0 676 729 _sc
342 632 _m
208 269 _l
476 269 _l
342 632 _l
286 729 _m
398 729 _l
676 0 _l
573 0 _l
507 187 _l
178 187 _l
112 0 _l
8 0 _l
286 729 _l
_cl}_d
/C{{698 0 56 -13 644 742 _sc
644 673 _m
644 569 _l
610 599 575 622 537 638 _c
499 653 460 661 418 661 _c
334 661 270 635 226 584 _c
182 533 160 460 160 364 _c
160 268 182 194 226 143 _c
270 92 334 67 418 67 _c
460 67 499 74 537 90 _c
575 105 610 128 644 159 _c
644 56 _l
609 32 572 15 534 4 _c
496 -7 455 -13 412 -13 _c
302 -13 215 20 151 87 _c
}_e{87 154 56 246 56 364 _c
56 481 87 573 151 641 _c
215 708 302 742 412 742 _c
456 742 497 736 535 725 _c
573 713 610 696 644 673 _c
_cl}_e}_d
/N{748 0 98 0 650 729 _sc
98 729 _m
231 729 _l
554 119 _l
554 729 _l
650 729 _l
650 0 _l
517 0 _l
194 610 _l
194 0 _l
98 0 _l
98 729 _l
_cl}_d
/R{{695 0 98 0 666 729 _sc
444 342 _m
465 334 486 319 506 296 _c
526 272 546 240 566 199 _c
666 0 _l
560 0 _l
467 187 _l
443 235 419 268 397 284 _c
374 300 343 308 304 308 _c
197 308 _l
197 0 _l
98 0 _l
98 729 _l
321 729 _l
404 729 466 711 507 677 _c
548 642 569 589 569 519 _c
569 473 558 434 537 404 _c
515 374 484 353 444 342 _c
197 648 _m
197 389 _l
321 389 _l
}_e{368 389 404 400 428 422 _c
452 444 465 476 465 519 _c
465 561 452 593 428 615 _c
404 637 368 648 321 648 _c
197 648 _l
_cl}_e}_d
/S{{635 0 66 -13 579 742 _sc
535 705 _m
535 609 _l
497 627 462 640 429 649 _c
395 657 363 662 333 662 _c
279 662 237 651 208 631 _c
179 610 165 580 165 542 _c
165 510 174 485 194 469 _c
213 452 250 439 304 429 _c
364 417 _l
437 403 491 378 526 343 _c
561 307 579 260 579 201 _c
579 130 555 77 508 41 _c
460 5 391 -13 300 -13 _c
265 -13 228 -9 189 -2 _c
}_e{150 5 110 16 69 32 _c
69 134 _l
109 111 148 94 186 83 _c
224 71 262 66 300 66 _c
356 66 399 77 430 99 _c
460 121 476 152 476 194 _c
476 230 465 258 443 278 _c
421 298 385 313 335 323 _c
275 335 _l
201 349 148 372 115 404 _c
82 435 66 478 66 534 _c
66 598 88 649 134 686 _c
179 723 242 742 322 742 _c
356 742 390 739 426 733 _c
461 727 497 717 535 705 _c
}_e{_cl}_e}_d
/a{{613 0 60 -13 522 560 _sc
343 275 _m
270 275 220 266 192 250 _c
164 233 150 205 150 165 _c
150 133 160 107 181 89 _c
202 70 231 61 267 61 _c
317 61 357 78 387 114 _c
417 149 432 196 432 255 _c
432 275 _l
343 275 _l
522 312 _m
522 0 _l
432 0 _l
432 83 _l
411 49 385 25 355 10 _c
325 -5 287 -13 243 -13 _c
187 -13 142 2 109 33 _c
76 64 60 106 60 159 _c
}_e{60 220 80 266 122 298 _c
163 329 224 345 306 345 _c
432 345 _l
432 354 _l
432 395 418 427 391 450 _c
364 472 326 484 277 484 _c
245 484 215 480 185 472 _c
155 464 127 453 100 439 _c
100 522 _l
132 534 164 544 195 550 _c
226 556 256 560 286 560 _c
365 560 424 539 463 498 _c
502 457 522 395 522 312 _c
_cl}_e}_d
/b{{635 0 91 -13 580 760 _sc
487 273 _m
487 339 473 390 446 428 _c
418 466 381 485 334 485 _c
286 485 249 466 222 428 _c
194 390 181 339 181 273 _c
181 207 194 155 222 117 _c
249 79 286 61 334 61 _c
381 61 418 79 446 117 _c
473 155 487 207 487 273 _c
181 464 _m
199 496 223 520 252 536 _c
281 552 316 560 356 560 _c
422 560 476 533 518 481 _c
559 428 580 359 580 273 _c
}_e{580 187 559 117 518 65 _c
476 13 422 -13 356 -13 _c
316 -13 281 -5 252 10 _c
223 25 199 49 181 82 _c
181 0 _l
91 0 _l
91 760 _l
181 760 _l
181 464 _l
_cl}_e}_d
/d{{635 0 55 -13 544 760 _sc
454 464 _m
454 760 _l
544 760 _l
544 0 _l
454 0 _l
454 82 _l
435 49 411 25 382 10 _c
353 -5 319 -13 279 -13 _c
213 -13 159 13 117 65 _c
75 117 55 187 55 273 _c
55 359 75 428 117 481 _c
159 533 213 560 279 560 _c
319 560 353 552 382 536 _c
411 520 435 496 454 464 _c
148 273 _m
148 207 161 155 188 117 _c
215 79 253 61 301 61 _c
}_e{348 61 385 79 413 117 _c
440 155 454 207 454 273 _c
454 339 440 390 413 428 _c
385 466 348 485 301 485 _c
253 485 215 466 188 428 _c
161 390 148 339 148 273 _c
_cl}_e}_d
/e{{615 0 55 -13 562 560 _sc
562 296 _m
562 252 _l
149 252 _l
153 190 171 142 205 110 _c
238 78 284 62 344 62 _c
378 62 412 66 444 74 _c
476 82 509 95 541 113 _c
541 28 _l
509 14 476 3 442 -3 _c
408 -9 373 -13 339 -13 _c
251 -13 182 12 131 62 _c
80 112 55 181 55 268 _c
55 357 79 428 127 481 _c
175 533 241 560 323 560 _c
397 560 455 536 498 489 _c
}_e{540 441 562 377 562 296 _c
472 322 _m
471 371 457 410 431 440 _c
404 469 368 484 324 484 _c
274 484 234 469 204 441 _c
174 413 156 373 152 322 _c
472 322 _l
_cl}_e}_d
/f{352 0 23 0 371 760 _sc
371 760 _m
371 685 _l
285 685 _l
253 685 230 678 218 665 _c
205 652 199 629 199 595 _c
199 547 _l
347 547 _l
347 477 _l
199 477 _l
199 0 _l
109 0 _l
109 477 _l
23 477 _l
23 547 _l
109 547 _l
109 585 _l
109 645 123 690 151 718 _c
179 746 224 760 286 760 _c
371 760 _l
_cl}_d
/g{{635 0 55 -207 544 560 _sc
454 280 _m
454 344 440 395 414 431 _c
387 467 349 485 301 485 _c
253 485 215 467 188 431 _c
161 395 148 344 148 280 _c
148 215 161 165 188 129 _c
215 93 253 75 301 75 _c
349 75 387 93 414 129 _c
440 165 454 215 454 280 _c
544 68 _m
544 -24 523 -93 482 -139 _c
440 -184 377 -207 292 -207 _c
260 -207 231 -204 203 -200 _c
175 -195 147 -188 121 -178 _c
}_e{121 -91 _l
147 -105 173 -115 199 -122 _c
225 -129 251 -133 278 -133 _c
336 -133 380 -117 410 -87 _c
439 -56 454 -10 454 52 _c
454 96 _l
435 64 411 40 382 24 _c
353 8 319 0 279 0 _c
211 0 157 25 116 76 _c
75 127 55 195 55 280 _c
55 364 75 432 116 483 _c
157 534 211 560 279 560 _c
319 560 353 552 382 536 _c
411 520 435 496 454 464 _c
454 547 _l
544 547 _l
}_e{544 68 _l
_cl}_e}_d
/i{278 0 94 0 184 760 _sc
94 547 _m
184 547 _l
184 0 _l
94 0 _l
94 547 _l
94 760 _m
184 760 _l
184 646 _l
94 646 _l
94 760 _l
_cl}_d
/l{278 0 94 0 184 760 _sc
94 760 _m
184 760 _l
184 0 _l
94 0 _l
94 760 _l
_cl}_d
/m{{974 0 91 0 889 560 _sc
520 442 _m
542 482 569 511 600 531 _c
631 550 668 560 711 560 _c
767 560 811 540 842 500 _c
873 460 889 403 889 330 _c
889 0 _l
799 0 _l
799 327 _l
799 379 789 418 771 444 _c
752 469 724 482 686 482 _c
639 482 602 466 575 435 _c
548 404 535 362 535 309 _c
535 0 _l
445 0 _l
445 327 _l
445 379 435 418 417 444 _c
398 469 369 482 331 482 _c
}_e{285 482 248 466 221 435 _c
194 404 181 362 181 309 _c
181 0 _l
91 0 _l
91 547 _l
181 547 _l
181 462 _l
201 495 226 520 255 536 _c
283 552 317 560 357 560 _c
397 560 430 550 458 530 _c
486 510 506 480 520 442 _c
_cl}_e}_d
/n{634 0 91 0 549 560 _sc
549 330 _m
549 0 _l
459 0 _l
459 327 _l
459 379 448 417 428 443 _c
408 469 378 482 338 482 _c
289 482 251 466 223 435 _c
195 404 181 362 181 309 _c
181 0 _l
91 0 _l
91 547 _l
181 547 _l
181 462 _l
202 494 227 519 257 535 _c
286 551 320 560 358 560 _c
420 560 468 540 500 501 _c
532 462 549 405 549 330 _c
_cl}_d
/o{612 0 55 -13 557 560 _sc
306 484 _m
258 484 220 465 192 427 _c
164 389 150 338 150 273 _c
150 207 163 156 191 118 _c
219 80 257 62 306 62 _c
354 62 392 80 420 118 _c
448 156 462 207 462 273 _c
462 337 448 389 420 427 _c
392 465 354 484 306 484 _c
306 560 _m
384 560 445 534 490 484 _c
534 433 557 363 557 273 _c
557 183 534 113 490 63 _c
445 12 384 -13 306 -13 _c
227 -13 165 12 121 63 _c
77 113 55 183 55 273 _c
55 363 77 433 121 484 _c
165 534 227 560 306 560 _c
_cl}_d
/p{{635 0 91 -207 580 560 _sc
181 82 _m
181 -207 _l
91 -207 _l
91 547 _l
181 547 _l
181 464 _l
199 496 223 520 252 536 _c
281 552 316 560 356 560 _c
422 560 476 533 518 481 _c
559 428 580 359 580 273 _c
580 187 559 117 518 65 _c
476 13 422 -13 356 -13 _c
316 -13 281 -5 252 10 _c
223 25 199 49 181 82 _c
487 273 _m
487 339 473 390 446 428 _c
418 466 381 485 334 485 _c
}_e{286 485 249 466 222 428 _c
194 390 181 339 181 273 _c
181 207 194 155 222 117 _c
249 79 286 61 334 61 _c
381 61 418 79 446 117 _c
473 155 487 207 487 273 _c
_cl}_e}_d
/r{411 0 91 0 411 560 _sc
411 463 _m
401 469 390 473 378 476 _c
366 478 353 480 339 480 _c
288 480 249 463 222 430 _c
194 397 181 350 181 288 _c
181 0 _l
91 0 _l
91 547 _l
181 547 _l
181 462 _l
199 495 224 520 254 536 _c
284 552 321 560 365 560 _c
371 560 378 559 386 559 _c
393 558 401 557 411 555 _c
411 463 _l
_cl}_d
/s{{521 0 54 -13 472 560 _sc
443 531 _m
443 446 _l
417 458 391 468 364 475 _c
336 481 308 485 279 485 _c
234 485 200 478 178 464 _c
156 450 145 430 145 403 _c
145 382 153 366 169 354 _c
185 342 217 330 265 320 _c
296 313 _l
360 299 405 279 432 255 _c
458 230 472 195 472 151 _c
472 100 452 60 412 31 _c
372 1 316 -13 246 -13 _c
216 -13 186 -10 154 -5 _c
}_e{122 0 89 8 54 20 _c
54 113 _l
87 95 120 82 152 74 _c
184 65 216 61 248 61 _c
290 61 323 68 346 82 _c
368 96 380 117 380 144 _c
380 168 371 187 355 200 _c
339 213 303 226 247 238 _c
216 245 _l
160 257 119 275 95 299 _c
70 323 58 356 58 399 _c
58 450 76 490 112 518 _c
148 546 200 560 268 560 _c
301 560 332 557 362 552 _c
391 547 418 540 443 531 _c
}_e{_cl}_e}_d
/t{392 0 27 0 368 702 _sc
183 702 _m
183 547 _l
368 547 _l
368 477 _l
183 477 _l
183 180 _l
183 135 189 106 201 94 _c
213 81 238 75 276 75 _c
368 75 _l
368 0 _l
276 0 _l
206 0 158 13 132 39 _c
106 65 93 112 93 180 _c
93 477 _l
27 477 _l
27 547 _l
93 547 _l
93 702 _l
183 702 _l
_cl}_d
/u{634 0 85 -13 543 560 _sc
85 216 _m
85 547 _l
175 547 _l
175 219 _l
175 167 185 129 205 103 _c
225 77 255 64 296 64 _c
344 64 383 79 411 110 _c
439 141 453 183 453 237 _c
453 547 _l
543 547 _l
543 0 _l
453 0 _l
453 84 _l
431 50 405 26 377 10 _c
348 -5 315 -13 277 -13 _c
214 -13 166 6 134 45 _c
101 83 85 140 85 216 _c
311 560 _m
311 560 _l
_cl}_d
/v{592 0 30 0 562 547 _sc
30 547 _m
125 547 _l
296 88 _l
467 547 _l
562 547 _l
357 0 _l
235 0 _l
30 547 _l
_cl}_d
end readonly def

/BuildGlyph
 {exch begin
 CharStrings exch
 2 copy known not{pop /.notdef}if
 true 3 1 roll get exec
 end}_d

/BuildChar {
 1 index /Encoding get exch get
 1 index /BuildGlyph get exec
}_d

FontName currentdict end definefont pop
end
%%EndProlog
mpldict begin
-126 108 translate
864 576 0 0 clipbox
gsave
0 0 m
864 0 l
864 576 l
0 576 l
cl
1.000 setgray
fill
grestore
gsave
108 72 m
777.6 72 l
777.6 506.88 l
108 506.88 l
cl
1.000 setgray
fill
grestore
gsave
669.6 434.9 108 72 clipbox
138.436364 449.669779 m
138.436364 449.666299 l
142.549386 449.721724 l
146.662408 449.790613 l
150.77543 449.981863 l
154.888452 450.135722 l
159.001474 450.354933 l
163.114496 450.542663 l
167.227518 450.772928 l
171.340541 451.069205 l
175.453563 451.711465 l
179.566585 452.539121 l
183.679607 452.557826 l
187.792629 453.047241 l
191.905651 453.243938 l
196.018673 453.508314 l
200.131695 453.620884 l
204.244717 453.816834 l
208.35774 453.784007 l
212.470762 453.700829 l
216.583784 453.92284 l
220.696806 454.306044 l
224.809828 455.050502 l
228.92285 455.135042 l
233.035872 454.90519 l
237.148894 454.335497 l
241.261916 453.917297 l
245.374939 453.732364 l
249.487961 453.241483 l
253.600983 452.657849 l
257.714005 451.385901 l
261.827027 449.872994 l
265.940049 447.96218 l
270.053071 446.028666 l
274.166093 444.255017 l
278.279115 442.756714 l
282.392138 441.065062 l
286.50516 439.471127 l
290.618182 437.98787 l
294.731204 436.638123 l
298.844226 434.772125 l
302.957248 433.372151 l
307.07027 431.668161 l
311.183292 430.437297 l
315.296314 428.898898 l
319.409337 428.496602 l
323.522359 427.442824 l
327.635381 426.518568 l
331.748403 425.787077 l
335.861425 424.485894 l
339.974447 421.946553 l
344.087469 419.699812 l
348.200491 416.254968 l
352.313514 412.527964 l
356.426536 409.809213 l
360.539558 406.688752 l
364.65258 403.768825 l
368.765602 401.002788 l
372.878624 399.055934 l
376.991646 396.53399 l
381.104668 393.902149 l
385.21769 391.247912 l
389.330713 388.055573 l
393.443735 385.42261 l
397.556757 383.009056 l
401.669779 380.719845 l
405.782801 378.35649 l
409.895823 376.229891 l
414.008845 374.022292 l
418.121867 371.285477 l
422.234889 368.834639 l
426.347912 366.500206 l
430.460934 364.745123 l
434.573956 362.495266 l
438.686978 360.957875 l
442.8 359.074337 l
446.913022 356.137363 l
451.026044 352.829347 l
455.139066 350.066807 l
459.252088 347.240899 l
463.365111 344.796058 l
467.478133 342.201227 l
471.591155 339.871728 l
475.704177 336.643011 l
479.817199 333.410795 l
483.930221 331.318863 l
488.043243 328.109416 l
492.156265 324.269075 l
496.269287 320.301758 l
500.38231 316.446267 l
504.495332 312.1799 l
508.608354 308.144033 l
512.721376 304.178108 l
516.834398 300.758802 l
520.94742 298.374352 l
525.060442 296.464747 l
529.173464 293.153542 l
533.286486 291.215655 l
537.399509 288.930819 l
541.512531 286.729704 l
545.625553 284.992459 l
549.738575 283.387243 l
553.851597 281.486421 l
557.964619 279.773409 l
562.077641 276.428364 l
566.190663 273.874637 l
570.303686 270.642062 l
574.416708 266.875866 l
578.52973 263.170627 l
582.642752 260.087309 l
586.755774 257.053371 l
590.868796 255.065527 l
594.981818 253.945982 l
599.09484 253.115655 l
603.207862 252.473271 l
607.320885 251.948887 l
611.433907 250.836313 l
615.546929 249.876753 l
619.659951 248.856273 l
623.772973 247.992621 l
627.885995 247.223161 l
631.999017 246.701192 l
636.112039 246.037612 l
640.225061 245.625495 l
644.338084 245.206087 l
648.451106 244.160465 l
652.564128 243.349797 l
656.67715 242.261469 l
660.790172 241.03869 l
664.903194 239.970063 l
669.016216 239.513527 l
673.129238 238.659191 l
677.24226 237.657106 l
681.355283 236.908888 l
685.468305 236.279088 l
689.581327 235.109865 l
693.694349 234.247447 l
697.807371 232.82473 l
701.920393 231.381699 l
706.033415 229.414295 l
710.146437 227.814209 l
714.259459 225.911204 l
718.372482 223.876017 l
722.485504 221.816943 l
726.598526 220.61394 l
730.711548 219.572416 l
734.82457 217.740264 l
738.937592 215.220084 l
743.050614 213.040207 l
747.163636 210.271229 l
747.163636 341.242867 l
747.163636 341.242867 l
743.050614 343.122258 l
738.937592 344.813966 l
734.82457 347.142932 l
730.711548 349.97303 l
726.598526 352.606129 l
722.485504 354.822797 l
718.372482 357.134652 l
714.259459 359.739461 l
710.146437 362.205717 l
706.033415 364.564193 l
701.920393 367.667516 l
697.807371 370.581209 l
693.694349 373.681484 l
689.581327 376.487661 l
685.468305 380.370526 l
681.355283 383.308773 l
677.24226 385.518414 l
673.129238 388.087711 l
669.016216 390.607935 l
664.903194 392.432174 l
660.790172 394.058636 l
656.67715 396.423159 l
652.564128 399.824721 l
648.451106 400.913454 l
644.338084 401.769318 l
640.225061 402.374426 l
636.112039 403.364271 l
631.999017 404.809553 l
627.885995 405.95945 l
623.772973 407.386808 l
619.659951 408.824044 l
615.546929 410.733321 l
611.433907 412.746697 l
607.320885 414.782641 l
603.207862 416.250716 l
599.09484 417.335594 l
594.981818 418.165165 l
590.868796 418.822571 l
586.755774 419.153953 l
582.642752 419.487575 l
578.52973 420.201848 l
574.416708 421.221424 l
570.303686 422.63772 l
566.190663 423.864171 l
562.077641 425.054106 l
557.964619 426.695182 l
553.851597 427.375681 l
549.738575 428.350908 l
545.625553 429.438457 l
541.512531 430.226481 l
537.399509 431.098933 l
533.286486 431.880306 l
529.173464 433.390016 l
525.060442 436.135531 l
520.94742 436.726991 l
516.834398 438.652289 l
512.721376 438.533354 l
508.608354 438.817143 l
504.495332 438.889113 l
500.38231 439.72105 l
496.269287 440.864749 l
492.156265 441.603948 l
488.043243 442.51529 l
483.930221 443.779617 l
479.817199 445.568281 l
475.704177 447.855148 l
471.591155 449.884978 l
467.478133 451.643489 l
463.365111 453.158658 l
459.252088 455.338781 l
455.139066 457.200267 l
451.026044 459.18287 l
446.913022 461.106574 l
442.8 463.031944 l
438.686978 464.572528 l
434.573956 466.415761 l
430.460934 468.215809 l
426.347912 470.033187 l
422.234889 471.509536 l
418.121867 473.00214 l
414.008845 473.915179 l
409.895823 473.965818 l
405.782801 474.116372 l
401.669779 474.667625 l
397.556757 475.445036 l
393.443735 476.183429 l
389.330713 477.393027 l
385.21769 478.633237 l
381.104668 479.770719 l
376.991646 481.203206 l
372.878624 482.121803 l
368.765602 483.983602 l
364.65258 482.179538 l
360.539558 481.314931 l
356.426536 480.55854 l
352.313514 480.137979 l
348.200491 480.117134 l
344.087469 481.273641 l
339.974447 484.85025 l
335.861425 484.139195 l
331.748403 483.392813 l
327.635381 483.164272 l
323.522359 484.059915 l
319.409337 485.28617 l
315.296314 487.112727 l
311.183292 486.216538 l
307.07027 485.718189 l
302.957248 484.145154 l
298.844226 483.731674 l
294.731204 481.024967 l
290.618182 479.655432 l
286.50516 479.3381 l
282.392138 478.307829 l
278.279115 477.636592 l
274.166093 476.947432 l
270.053071 475.718721 l
265.940049 474.333249 l
261.827027 472.899678 l
257.714005 471.542454 l
253.600983 470.510306 l
249.487961 469.387597 l
245.374939 468.299065 l
241.261916 467.154416 l
237.148894 465.854995 l
233.035872 464.701383 l
228.92285 463.427413 l
224.809828 462.182671 l
220.696806 461.041502 l
216.583784 459.829637 l
212.470762 458.436384 l
208.35774 457.678218 l
204.244717 457.018914 l
200.131695 456.277215 l
196.018673 455.62097 l
191.905651 455.003661 l
187.792629 454.533912 l
183.679607 454.024261 l
179.566585 453.378727 l
175.453563 452.913848 l
171.340541 452.448463 l
167.227518 451.861844 l
163.114496 451.38124 l
159.001474 450.814807 l
154.888452 450.471583 l
150.77543 450.075891 l
146.662408 450.015581 l
142.549386 449.735407 l
138.436364 449.669779 l
cl
0.122 0.467 0.706 setrgbcolor
fill
grestore
gsave
669.6 434.9 108 72 clipbox
138.436364 449.670235 m
138.436364 449.66636 l
142.549386 449.72615 l
146.662408 449.915588 l
150.77543 450.070559 l
154.888452 450.389386 l
159.001474 450.634275 l
163.114496 451.03726 l
167.227518 451.36235 l
171.340541 451.740661 l
175.453563 452.000561 l
179.566585 452.20419 l
183.679607 452.39681 l
187.792629 452.589001 l
191.905651 452.862231 l
196.018673 452.976087 l
200.131695 452.841646 l
204.244717 452.576004 l
208.35774 451.863496 l
212.470762 450.722395 l
216.583784 449.45482 l
220.696806 448.606689 l
224.809828 446.485155 l
228.92285 442.550631 l
233.035872 438.435164 l
237.148894 434.488374 l
241.261916 431.352631 l
245.374939 429.022084 l
249.487961 425.657452 l
253.600983 421.259498 l
257.714005 413.253011 l
261.827027 405.011045 l
265.940049 393.801508 l
270.053071 384.553409 l
274.166093 373.703948 l
278.279115 362.713077 l
282.392138 352.002165 l
286.50516 341.257409 l
290.618182 331.91325 l
294.731204 322.927885 l
298.844226 314.841907 l
302.957248 305.511885 l
307.07027 296.047045 l
311.183292 285.931595 l
315.296314 276.528769 l
319.409337 267.642884 l
323.522359 259.378023 l
327.635381 252.10058 l
331.748403 245.058108 l
335.861425 238.865225 l
339.974447 233.411 l
344.087469 227.238082 l
348.200491 221.509724 l
352.313514 215.840352 l
356.426536 209.946506 l
360.539558 204.004612 l
364.65258 197.898597 l
368.765602 193.231618 l
372.878624 189.744323 l
376.991646 186.423413 l
381.104668 182.621904 l
385.21769 179.144761 l
389.330713 174.791712 l
393.443735 171.727669 l
397.556757 168.311415 l
401.669779 166.105193 l
405.782801 163.334759 l
409.895823 161.004408 l
414.008845 158.239272 l
418.121867 156.018554 l
422.234889 152.739382 l
426.347912 149.618454 l
430.460934 147.30317 l
434.573956 145.656756 l
438.686978 143.842552 l
442.8 142.718424 l
446.913022 141.63003 l
451.026044 139.925436 l
455.139066 138.137587 l
459.252088 136.145598 l
463.365111 134.666798 l
467.478133 133.40368 l
471.591155 132.226424 l
475.704177 130.440029 l
479.817199 130.009645 l
483.930221 129.123995 l
488.043243 128.100277 l
492.156265 127.118165 l
496.269287 126.804241 l
500.38231 126.511925 l
504.495332 126.697668 l
508.608354 127.506876 l
512.721376 128.271289 l
516.834398 128.183205 l
520.94742 128.03727 l
525.060442 127.271808 l
529.173464 126.348501 l
533.286486 124.954182 l
537.399509 123.643897 l
541.512531 121.912866 l
545.625553 120.143759 l
549.738575 117.621636 l
553.851597 115.41145 l
557.964619 113.589812 l
562.077641 112.032865 l
566.190663 110.606677 l
570.303686 109.206788 l
574.416708 107.557428 l
578.52973 106.008065 l
582.642752 104.636175 l
586.755774 102.554704 l
590.868796 99.478586 l
594.981818 96.047177 l
599.09484 91.767273 l
603.207862 100.869684 l
607.320885 100.656882 l
611.433907 100.392749 l
615.546929 100.094082 l
619.659951 99.719963 l
623.772973 99.288686 l
627.885995 98.743082 l
631.999017 98.152795 l
636.112039 98.060326 l
640.225061 98.273097 l
644.338084 98.849358 l
648.451106 99.464531 l
652.564128 100.505485 l
656.67715 100.35488 l
660.790172 100.229182 l
664.903194 99.607432 l
669.016216 99.814761 l
673.129238 99.976851 l
677.24226 101.070729 l
681.355283 101.887368 l
685.468305 103.066122 l
689.581327 103.726975 l
693.694349 103.572744 l
697.807371 103.297036 l
701.920393 104.102557 l
706.033415 105.433841 l
710.146437 106.715121 l
714.259459 108.157721 l
718.372482 109.220083 l
722.485504 109.508388 l
726.598526 108.80899 l
730.711548 108.31446 l
734.82457 107.648736 l
738.937592 107.001589 l
743.050614 106.721438 l
747.163636 106.972754 l
747.163636 163.903547 l
747.163636 163.903547 l
743.050614 165.138603 l
738.937592 165.126945 l
734.82457 165.142847 l
730.711548 165.978446 l
726.598526 167.478293 l
722.485504 168.820203 l
718.372482 171.189647 l
714.259459 174.560933 l
710.146437 178.632378 l
706.033415 182.53171 l
701.920393 186.914739 l
697.807371 191.09795 l
693.694349 192.603898 l
689.581327 193.732467 l
685.468305 196.455953 l
681.355283 200.444503 l
677.24226 204.902047 l
673.129238 208.582903 l
669.016216 211.29755 l
664.903194 213.189427 l
660.790172 214.557373 l
656.67715 216.703774 l
652.564128 219.45264 l
648.451106 221.375806 l
644.338084 223.753165 l
640.225061 225.578315 l
636.112039 225.259742 l
631.999017 225.350821 l
627.885995 225.940664 l
623.772973 226.770586 l
619.659951 227.628568 l
615.546929 228.886243 l
611.433907 229.7403 l
607.320885 231.116761 l
603.207862 233.066549 l
599.09484 253.879857 l
594.981818 248.157327 l
590.868796 244.064431 l
586.755774 240.116988 l
582.642752 235.86804 l
578.52973 233.5772 l
574.416708 232.385151 l
570.303686 232.428791 l
566.190663 233.066838 l
562.077641 234.189625 l
557.964619 234.761869 l
553.851597 233.925329 l
549.738575 232.588385 l
545.625553 232.02941 l
541.512531 231.383886 l
537.399509 232.156203 l
533.286486 233.583603 l
529.173464 234.759774 l
525.060442 236.229011 l
520.94742 237.529337 l
516.834398 238.658797 l
512.721376 239.983291 l
508.608354 242.115833 l
504.495332 242.905131 l
500.38231 242.694814 l
496.269287 242.426008 l
492.156265 243.15344 l
488.043243 243.230574 l
483.930221 243.484509 l
479.817199 245.453471 l
475.704177 248.343787 l
471.591155 249.852566 l
467.478133 253.214297 l
463.365111 257.230688 l
459.252088 260.48789 l
455.139066 262.244369 l
451.026044 264.395853 l
446.913022 266.18671 l
442.8 268.646613 l
438.686978 272.044164 l
434.573956 276.240447 l
430.460934 279.075186 l
426.347912 281.447545 l
422.234889 283.621782 l
418.121867 286.394207 l
414.008845 289.221487 l
409.895823 293.471755 l
405.782801 296.429469 l
401.669779 298.934998 l
397.556757 300.932568 l
393.443735 303.240193 l
389.330713 304.9205 l
385.21769 307.735239 l
381.104668 310.261553 l
376.991646 313.371195 l
372.878624 316.26862 l
368.765602 319.926848 l
364.65258 323.640397 l
360.539558 329.111499 l
356.426536 334.744464 l
352.313514 340.832952 l
348.200491 345.70009 l
344.087469 350.869414 l
339.974447 355.496244 l
335.861425 359.306373 l
331.748403 364.580733 l
327.635381 371.087618 l
323.522359 379.333192 l
319.409337 387.766558 l
315.296314 396.511589 l
311.183292 402.690932 l
307.07027 409.232291 l
302.957248 413.299363 l
298.844226 417.797532 l
294.731204 421.2314 l
290.618182 425.924777 l
286.50516 430.699166 l
282.392138 435.574502 l
278.279115 440.210731 l
274.166093 445.041365 l
270.053071 448.064055 l
265.940049 451.644558 l
261.827027 453.559161 l
257.714005 456.058135 l
253.600983 457.437422 l
249.487961 459.147157 l
245.374939 460.266883 l
241.261916 460.874384 l
237.148894 460.234231 l
233.035872 459.329823 l
228.92285 458.263062 l
224.809828 457.740207 l
220.696806 458.578598 l
216.583784 459.268196 l
212.470762 458.173459 l
208.35774 456.511056 l
204.244717 455.290812 l
200.131695 454.528455 l
196.018673 453.977173 l
191.905651 453.670768 l
187.792629 453.258979 l
183.679607 452.930539 l
179.566585 452.59036 l
175.453563 452.39329 l
171.340541 452.182551 l
167.227518 451.950551 l
163.114496 451.688832 l
159.001474 451.08544 l
154.888452 450.696395 l
150.77543 450.207331 l
146.662408 450.048371 l
142.549386 449.753728 l
138.436364 449.670235 l
cl
1.000 0.498 0.055 setrgbcolor
fill
grestore
gsave
669.6 434.9 108 72 clipbox
138.436364 449.67165 m
138.436364 449.666185 l
142.549386 449.734047 l
146.662408 449.882902 l
150.77543 450.087908 l
154.888452 450.371362 l
159.001474 450.664193 l
163.114496 451.045776 l
167.227518 451.289675 l
171.340541 451.607673 l
175.453563 451.815996 l
179.566585 451.856863 l
183.679607 451.61601 l
187.792629 451.181976 l
191.905651 450.338673 l
196.018673 449.325731 l
200.131695 447.800238 l
204.244717 446.565435 l
208.35774 444.911016 l
212.470762 442.699821 l
216.583784 439.200394 l
220.696806 435.609545 l
224.809828 430.545034 l
228.92285 425.745411 l
233.035872 419.269453 l
237.148894 410.645067 l
241.261916 399.782929 l
245.374939 387.581508 l
249.487961 375.927558 l
253.600983 363.450209 l
257.714005 351.153635 l
261.827027 337.530082 l
265.940049 324.379645 l
270.053071 312.753142 l
274.166093 301.3761 l
278.279115 290.059003 l
282.392138 281.716699 l
286.50516 273.650173 l
290.618182 266.537919 l
294.731204 261.208068 l
298.844226 256.516882 l
302.957248 250.681271 l
307.07027 245.383723 l
311.183292 240.688417 l
315.296314 236.180798 l
319.409337 232.169774 l
323.522359 227.802396 l
327.635381 222.865237 l
331.748403 218.994055 l
335.861425 215.37148 l
339.974447 210.518413 l
344.087469 206.270653 l
348.200491 202.505401 l
352.313514 197.632413 l
356.426536 194.061388 l
360.539558 191.495311 l
364.65258 189.216313 l
368.765602 186.677136 l
372.878624 184.038606 l
376.991646 180.805178 l
381.104668 177.524864 l
385.21769 174.482225 l
389.330713 171.465936 l
393.443735 169.026265 l
397.556757 166.877177 l
401.669779 165.266747 l
405.782801 163.602786 l
409.895823 162.320789 l
414.008845 161.666948 l
418.121867 160.104065 l
422.234889 158.382443 l
426.347912 155.864864 l
430.460934 152.936584 l
434.573956 150.393096 l
438.686978 148.608552 l
442.8 147.298682 l
446.913022 146.919018 l
451.026044 146.418357 l
455.139066 146.380105 l
459.252088 145.979615 l
463.365111 145.238806 l
467.478133 143.999776 l
471.591155 143.13027 l
475.704177 141.480516 l
479.817199 139.905745 l
483.930221 138.660404 l
488.043243 137.268053 l
492.156265 135.544676 l
496.269287 133.934813 l
500.38231 132.427954 l
504.495332 131.126995 l
508.608354 129.973109 l
512.721376 128.48431 l
516.834398 127.120625 l
520.94742 125.615224 l
525.060442 124.565603 l
529.173464 123.832332 l
533.286486 123.354756 l
537.399509 122.487387 l
541.512531 121.819152 l
545.625553 121.444948 l
549.738575 121.046048 l
553.851597 120.572681 l
557.964619 120.547661 l
562.077641 120.226997 l
566.190663 120.086629 l
570.303686 119.920631 l
574.416708 119.653068 l
578.52973 119.259396 l
582.642752 118.776892 l
586.755774 118.702276 l
590.868796 119.419809 l
594.981818 120.37457 l
599.09484 120.804616 l
603.207862 120.818769 l
607.320885 120.605434 l
611.433907 120.375662 l
615.546929 120.172086 l
619.659951 120.090455 l
623.772973 119.790078 l
627.885995 119.391724 l
631.999017 118.941074 l
636.112039 118.69176 l
640.225061 118.713163 l
644.338084 118.859568 l
648.451106 119.146909 l
652.564128 119.95996 l
656.67715 120.155291 l
660.790172 119.726541 l
664.903194 118.722338 l
669.016216 118.0237 l
673.129238 117.900541 l
677.24226 117.62307 l
681.355283 116.542549 l
685.468305 115.506988 l
689.581327 114.92476 l
693.694349 114.226728 l
697.807371 113.526919 l
701.920393 113.130111 l
706.033415 112.254627 l
710.146437 111.56002 l
714.259459 110.821893 l
718.372482 110.636396 l
722.485504 110.769508 l
726.598526 110.912587 l
730.711548 110.451165 l
734.82457 109.981361 l
738.937592 109.313433 l
743.050614 108.627764 l
747.163636 108.407558 l
747.163636 142.987296 l
747.163636 142.987296 l
743.050614 143.134108 l
738.937592 143.168938 l
734.82457 143.386166 l
730.711548 143.721491 l
726.598526 145.184543 l
722.485504 146.670771 l
718.372482 146.932515 l
714.259459 146.958593 l
710.146437 146.336145 l
706.033415 145.034889 l
701.920393 144.253554 l
697.807371 144.538488 l
693.694349 143.1465 l
689.581327 141.138457 l
685.468305 140.572563 l
681.355283 140.416888 l
677.24226 140.489903 l
673.129238 142.118852 l
669.016216 144.010695 l
664.903194 143.928078 l
660.790172 142.494353 l
656.67715 141.19527 l
652.564128 140.308466 l
648.451106 140.441685 l
644.338084 141.038819 l
640.225061 141.887825 l
636.112039 143.15147 l
631.999017 144.958541 l
627.885995 147.487253 l
623.772973 149.437868 l
619.659951 151.228484 l
615.546929 153.388514 l
611.433907 154.456686 l
607.320885 155.406231 l
603.207862 156.654856 l
599.09484 158.640344 l
594.981818 160.897625 l
590.868796 163.151065 l
586.755774 165.489067 l
582.642752 167.100806 l
578.52973 167.814188 l
574.416708 168.576261 l
570.303686 170.269609 l
566.190663 171.453512 l
562.077641 172.196027 l
557.964619 173.643024 l
553.851597 175.130698 l
549.738575 176.594047 l
545.625553 177.454349 l
541.512531 178.056089 l
537.399509 178.626094 l
533.286486 179.836939 l
529.173464 180.803139 l
525.060442 181.810676 l
520.94742 183.201541 l
516.834398 184.548424 l
512.721376 184.76373 l
508.608354 185.127319 l
504.495332 185.469263 l
500.38231 185.797717 l
496.269287 186.547807 l
492.156265 187.832915 l
488.043243 189.074198 l
483.930221 191.103436 l
479.817199 192.301899 l
475.704177 193.943841 l
471.591155 196.89712 l
467.478133 198.869861 l
463.365111 199.901553 l
459.252088 200.945867 l
455.139066 201.455137 l
451.026044 201.584709 l
446.913022 202.576914 l
442.8 204.053216 l
438.686978 205.977156 l
434.573956 208.229331 l
430.460934 209.502391 l
426.347912 209.662036 l
422.234889 209.039307 l
418.121867 209.260357 l
414.008845 210.436563 l
409.895823 212.252992 l
405.782801 214.31067 l
401.669779 216.663247 l
397.556757 218.643587 l
393.443735 219.777428 l
389.330713 221.043469 l
385.21769 223.393516 l
381.104668 225.700291 l
376.991646 228.965841 l
372.878624 233.498083 l
368.765602 238.48366 l
364.65258 243.661811 l
360.539558 249.72405 l
356.426536 256.04097 l
352.313514 260.178056 l
348.200491 266.309519 l
344.087469 273.966653 l
339.974447 283.200691 l
335.861425 292.760078 l
331.748403 302.893419 l
327.635381 311.505704 l
323.522359 320.076099 l
319.409337 328.671166 l
315.296314 336.215991 l
311.183292 345.633142 l
307.07027 355.46903 l
302.957248 364.010543 l
298.844226 372.873973 l
294.731204 382.364116 l
290.618182 390.960131 l
286.50516 398.260393 l
282.392138 407.025755 l
278.279115 415.085224 l
274.166093 421.456582 l
270.053071 426.706241 l
265.940049 429.794826 l
261.827027 433.524024 l
257.714005 439.572896 l
253.600983 444.65119 l
249.487961 448.488237 l
245.374939 454.288778 l
241.261916 453.206135 l
237.148894 452.158291 l
233.035872 453.496517 l
228.92285 456.203623 l
224.809828 459.227639 l
220.696806 461.126533 l
216.583784 461.876424 l
212.470762 460.773128 l
208.35774 459.433485 l
204.244717 458.22147 l
200.131695 456.795864 l
196.018673 455.599294 l
191.905651 454.817457 l
187.792629 454.068481 l
183.679607 453.487582 l
179.566585 453.054005 l
175.453563 452.574956 l
171.340541 452.297664 l
167.227518 451.792345 l
163.114496 451.460841 l
159.001474 450.9762 l
154.888452 450.71258 l
150.77543 450.246647 l
146.662408 450.07396 l
142.549386 449.764178 l
138.436364 449.67165 l
cl
0.173 0.627 0.173 setrgbcolor
fill
grestore
gsave
669.6 434.9 108 72 clipbox
138.436364 449.672108 m
138.436364 449.663573 l
142.549386 449.716884 l
146.662408 449.855752 l
150.77543 450.048297 l
154.888452 450.395664 l
159.001474 450.640765 l
163.114496 451.064571 l
167.227518 451.366504 l
171.340541 451.808342 l
175.453563 451.958095 l
179.566585 452.292322 l
183.679607 452.471973 l
187.792629 452.592712 l
191.905651 452.516967 l
196.018673 452.431733 l
200.131695 451.755435 l
204.244717 451.412399 l
208.35774 450.725579 l
212.470762 448.358599 l
216.583784 444.474005 l
220.696806 439.76315 l
224.809828 435.491494 l
228.92285 430.256549 l
233.035872 425.562146 l
237.148894 420.679211 l
241.261916 412.950487 l
245.374939 404.800652 l
249.487961 395.383515 l
253.600983 385.241643 l
257.714005 371.357767 l
261.827027 359.913342 l
265.940049 347.021611 l
270.053071 335.2457 l
274.166093 325.096714 l
278.279115 315.882911 l
282.392138 305.603256 l
286.50516 296.992451 l
290.618182 288.42114 l
294.731204 280.98098 l
298.844226 271.217838 l
302.957248 262.883175 l
307.07027 253.819497 l
311.183292 245.51051 l
315.296314 236.917698 l
319.409337 229.920994 l
323.522359 223.114779 l
327.635381 218.443516 l
331.748403 214.704552 l
335.861425 210.995468 l
339.974447 205.594182 l
344.087469 201.482457 l
348.200491 196.73242 l
352.313514 192.066669 l
356.426536 187.1358 l
360.539558 182.645245 l
364.65258 179.526031 l
368.765602 176.680107 l
372.878624 175.584495 l
376.991646 175.145164 l
381.104668 174.735173 l
385.21769 173.0498 l
389.330713 170.778216 l
393.443735 167.094046 l
397.556757 164.237991 l
401.669779 161.781035 l
405.782801 159.613481 l
409.895823 158.314541 l
414.008845 157.215928 l
418.121867 156.135987 l
422.234889 155.352564 l
426.347912 154.035489 l
430.460934 151.88569 l
434.573956 149.64585 l
438.686978 147.029992 l
442.8 145.159498 l
446.913022 143.892101 l
451.026044 142.675714 l
455.139066 141.286076 l
459.252088 140.410384 l
463.365111 139.189087 l
467.478133 137.657468 l
471.591155 137.008952 l
475.704177 136.460583 l
479.817199 136.796744 l
483.930221 136.653176 l
488.043243 135.65792 l
492.156265 132.993715 l
496.269287 130.276946 l
500.38231 127.612174 l
504.495332 125.667292 l
508.608354 124.626613 l
512.721376 124.485151 l
516.834398 124.989055 l
520.94742 126.604013 l
525.060442 125.166665 l
529.173464 124.18619 l
533.286486 123.322736 l
537.399509 122.747586 l
541.512531 122.719691 l
545.625553 122.975551 l
549.738575 122.609352 l
553.851597 121.00737 l
557.964619 119.317907 l
562.077641 117.297362 l
566.190663 116.355145 l
570.303686 115.983433 l
574.416708 115.776456 l
578.52973 114.94322 l
582.642752 114.748525 l
586.755774 114.889364 l
590.868796 115.491486 l
594.981818 116.066455 l
599.09484 116.280158 l
603.207862 116.109301 l
607.320885 115.577554 l
611.433907 114.912837 l
615.546929 114.651069 l
619.659951 114.551356 l
623.772973 114.995265 l
627.885995 115.746494 l
631.999017 116.293966 l
636.112039 116.337823 l
640.225061 116.506304 l
644.338084 116.988078 l
648.451106 117.448524 l
652.564128 116.807736 l
656.67715 116.327035 l
660.790172 116.439158 l
664.903194 115.651091 l
669.016216 115.422045 l
673.129238 115.492135 l
677.24226 115.554602 l
681.355283 114.990961 l
685.468305 114.150779 l
689.581327 113.486247 l
693.694349 113.085068 l
697.807371 113.062013 l
701.920393 113.186563 l
706.033415 113.866233 l
710.146437 114.300424 l
714.259459 114.639328 l
718.372482 114.752214 l
722.485504 114.978744 l
726.598526 115.320657 l
730.711548 114.229094 l
734.82457 113.138768 l
738.937592 111.587114 l
743.050614 110.422529 l
747.163636 109.013472 l
747.163636 133.572662 l
747.163636 133.572662 l
743.050614 133.859403 l
738.937592 134.30209 l
734.82457 135.179995 l
730.711548 136.700283 l
726.598526 139.02735 l
722.485504 140.176881 l
718.372482 141.457602 l
714.259459 141.26458 l
710.146437 139.999255 l
706.033415 139.56033 l
701.920393 139.895564 l
697.807371 139.402483 l
693.694349 139.091319 l
689.581327 139.010288 l
685.468305 138.896685 l
681.355283 138.788624 l
677.24226 139.160872 l
673.129238 139.570922 l
669.016216 140.897999 l
664.903194 142.904773 l
660.790172 143.90599 l
656.67715 144.783992 l
652.564128 145.774022 l
648.451106 146.525713 l
644.338084 147.569183 l
640.225061 147.930643 l
636.112039 148.708924 l
631.999017 148.437676 l
627.885995 148.481607 l
623.772973 149.203336 l
619.659951 150.484465 l
615.546929 151.5797 l
611.433907 152.809496 l
607.320885 153.998354 l
603.207862 155.010779 l
599.09484 156.493671 l
594.981818 158.362802 l
590.868796 160.410141 l
586.755774 162.724992 l
582.642752 164.67989 l
578.52973 165.678646 l
574.416708 166.18754 l
570.303686 166.532156 l
566.190663 167.267556 l
562.077641 167.678516 l
557.964619 168.195657 l
553.851597 169.757684 l
549.738575 171.338734 l
545.625553 172.785331 l
541.512531 173.386472 l
537.399509 172.732532 l
533.286486 172.533128 l
529.173464 172.987619 l
525.060442 173.435056 l
520.94742 173.881184 l
516.834398 175.336228 l
512.721376 176.314667 l
508.608354 176.709644 l
504.495332 176.620813 l
500.38231 177.137872 l
496.269287 177.648867 l
492.156265 178.779805 l
488.043243 179.74196 l
483.930221 181.195098 l
479.817199 181.82872 l
475.704177 180.986825 l
471.591155 181.092055 l
467.478133 180.72681 l
463.365111 182.066625 l
459.252088 180.115476 l
455.139066 177.820653 l
451.026044 176.07039 l
446.913022 174.788619 l
442.8 173.4207 l
438.686978 172.564582 l
434.573956 171.897616 l
430.460934 170.548231 l
426.347912 169.735269 l
422.234889 170.319577 l
418.121867 171.665712 l
414.008845 172.518195 l
409.895823 175.291749 l
405.782801 177.694198 l
401.669779 180.436914 l
397.556757 183.549664 l
393.443735 187.415328 l
389.330713 190.518478 l
385.21769 194.011459 l
381.104668 197.499683 l
376.991646 201.357088 l
372.878624 205.755711 l
368.765602 210.706165 l
364.65258 216.651532 l
360.539558 222.558898 l
356.426536 227.10539 l
352.313514 234.500121 l
348.200491 241.199016 l
344.087469 247.783615 l
339.974447 253.322172 l
335.861425 260.974503 l
331.748403 266.246833 l
327.635381 273.381872 l
323.522359 281.523856 l
319.409337 292.094726 l
315.296314 301.641672 l
311.183292 310.407358 l
307.07027 318.945077 l
302.957248 328.654714 l
298.844226 337.388153 l
294.731204 348.267967 l
290.618182 360.229166 l
286.50516 372.743199 l
282.392138 386.034962 l
278.279115 400.98932 l
274.166093 413.138127 l
270.053071 425.025272 l
265.940049 435.498274 l
261.827027 444.395852 l
257.714005 452.122279 l
253.600983 457.001506 l
249.487961 459.878636 l
245.374939 461.528635 l
241.261916 461.436071 l
237.148894 461.178855 l
233.035872 461.031328 l
228.92285 461.963435 l
224.809828 461.588058 l
220.696806 459.903492 l
216.583784 458.499566 l
212.470762 456.915514 l
208.35774 456.886162 l
204.244717 456.563442 l
200.131695 456.158247 l
196.018673 454.775724 l
191.905651 453.767544 l
187.792629 453.349914 l
183.679607 452.971903 l
179.566585 452.978452 l
175.453563 452.61817 l
171.340541 452.278357 l
167.227518 451.968226 l
163.114496 451.647541 l
159.001474 451.139404 l
154.888452 450.793121 l
150.77543 450.290197 l
146.662408 450.116897 l
142.549386 449.765358 l
138.436364 449.672108 l
cl
0.839 0.153 0.157 setrgbcolor
fill
grestore
gsave
669.6 434.9 108 72 clipbox
138.436364 449.672346 m
138.436364 449.666369 l
142.549386 449.720521 l
146.662408 449.86068 l
150.77543 450.070722 l
154.888452 450.342212 l
159.001474 450.640238 l
163.114496 450.899254 l
167.227518 451.029867 l
171.340541 451.003286 l
175.453563 450.997842 l
179.566585 450.693279 l
183.679607 450.424844 l
187.792629 450.2171 l
191.905651 450.113585 l
196.018673 450.289568 l
200.131695 450.320782 l
204.244717 449.381103 l
208.35774 448.075495 l
212.470762 445.272362 l
216.583784 441.970383 l
220.696806 436.68502 l
224.809828 429.73046 l
228.92285 421.766454 l
233.035872 413.969415 l
237.148894 405.327345 l
241.261916 396.841348 l
245.374939 388.777704 l
249.487961 378.266019 l
253.600983 364.566485 l
257.714005 348.590035 l
261.827027 334.253577 l
265.940049 320.163841 l
270.053071 308.432894 l
274.166093 297.76595 l
278.279115 287.734616 l
282.392138 278.738203 l
286.50516 269.587715 l
290.618182 258.590669 l
294.731204 248.091554 l
298.844226 240.84877 l
302.957248 235.177651 l
307.07027 228.479808 l
311.183292 222.334441 l
315.296314 216.078373 l
319.409337 207.719667 l
323.522359 198.68215 l
327.635381 189.937597 l
331.748403 182.27368 l
335.861425 175.472442 l
339.974447 170.268995 l
344.087469 165.61978 l
348.200491 163.022089 l
352.313514 159.989742 l
356.426536 158.182152 l
360.539558 157.609352 l
364.65258 158.005564 l
368.765602 157.961736 l
372.878624 159.233723 l
376.991646 158.945681 l
381.104668 158.124315 l
385.21769 157.173801 l
389.330713 155.949342 l
393.443735 154.126434 l
397.556757 152.872472 l
401.669779 150.49902 l
405.782801 148.341828 l
409.895823 146.972227 l
414.008845 145.527022 l
418.121867 145.067122 l
422.234889 144.954734 l
426.347912 144.423969 l
430.460934 143.499291 l
434.573956 143.156764 l
438.686978 142.710499 l
442.8 142.495809 l
446.913022 142.420851 l
451.026044 141.754571 l
455.139066 140.956761 l
459.252088 140.041198 l
463.365111 139.45965 l
467.478133 138.487923 l
471.591155 137.467744 l
475.704177 136.525693 l
479.817199 135.80015 l
483.930221 135.665949 l
488.043243 135.76317 l
492.156265 135.669417 l
496.269287 135.390514 l
500.38231 135.180512 l
504.495332 134.943874 l
508.608354 134.550484 l
512.721376 134.075974 l
516.834398 133.900185 l
520.94742 133.586514 l
525.060442 133.242936 l
529.173464 132.205954 l
533.286486 131.035711 l
537.399509 129.040054 l
541.512531 126.089999 l
545.625553 123.44418 l
549.738575 122.234447 l
553.851597 120.917012 l
557.964619 119.983432 l
562.077641 119.66578 l
566.190663 119.256678 l
570.303686 119.544524 l
574.416708 119.674415 l
578.52973 119.624898 l
582.642752 119.621166 l
586.755774 119.010604 l
590.868796 118.228329 l
594.981818 116.364184 l
599.09484 114.65968 l
603.207862 112.400304 l
607.320885 110.423603 l
611.433907 109.014503 l
615.546929 107.528446 l
619.659951 107.174355 l
623.772973 107.31832 l
627.885995 107.200613 l
631.999017 107.027896 l
636.112039 107.113602 l
640.225061 106.728621 l
644.338084 106.193525 l
648.451106 105.712683 l
652.564128 105.427345 l
656.67715 105.314055 l
660.790172 105.523112 l
664.903194 105.869986 l
669.016216 105.531415 l
673.129238 105.043642 l
677.24226 104.317318 l
681.355283 103.740577 l
685.468305 102.923395 l
689.581327 102.009881 l
693.694349 100.506949 l
697.807371 99.841429 l
701.920393 99.294614 l
706.033415 99.243367 l
710.146437 100.093446 l
714.259459 100.941619 l
718.372482 102.406742 l
722.485504 103.386669 l
726.598526 104.097738 l
730.711548 104.012609 l
734.82457 103.512196 l
738.937592 103.191506 l
743.050614 102.777926 l
747.163636 102.500611 l
747.163636 119.427076 l
747.163636 119.427076 l
743.050614 119.401562 l
738.937592 119.686182 l
734.82457 120.148375 l
730.711548 121.133489 l
726.598526 123.401161 l
722.485504 125.72128 l
718.372482 128.188892 l
714.259459 131.143901 l
710.146437 133.04167 l
706.033415 134.690386 l
701.920393 134.468634 l
697.807371 132.99963 l
693.694349 131.414802 l
689.581327 128.716788 l
685.468305 126.785128 l
681.355283 126.020265 l
677.24226 126.205054 l
673.129238 126.064335 l
669.016216 127.227665 l
664.903194 128.63533 l
660.790172 130.954967 l
656.67715 132.507503 l
652.564128 133.399674 l
648.451106 132.500351 l
644.338084 131.96757 l
640.225061 131.813355 l
636.112039 131.805515 l
631.999017 131.815963 l
627.885995 133.50086 l
623.772973 136.00905 l
619.659951 138.831127 l
615.546929 141.019425 l
611.433907 140.875374 l
607.320885 141.213596 l
603.207862 141.795736 l
599.09484 143.052134 l
594.981818 145.329139 l
590.868796 148.536346 l
586.755774 152.680265 l
582.642752 155.314444 l
578.52973 158.114555 l
574.416708 161.273105 l
570.303686 163.539093 l
566.190663 164.855518 l
562.077641 164.510596 l
557.964619 164.791881 l
553.851597 163.31225 l
549.738575 160.856187 l
545.625553 159.641269 l
541.512531 158.221838 l
537.399509 157.156159 l
533.286486 156.839177 l
529.173464 156.962433 l
525.060442 157.435831 l
520.94742 157.93632 l
516.834398 158.758664 l
512.721376 159.549239 l
508.608354 160.411125 l
504.495332 161.33425 l
500.38231 161.849107 l
496.269287 161.800837 l
492.156265 162.138598 l
488.043243 162.948973 l
483.930221 163.728263 l
479.817199 164.320508 l
475.704177 165.192514 l
471.591155 166.239261 l
467.478133 167.059782 l
463.365111 168.728989 l
459.252088 170.238145 l
455.139066 172.678168 l
451.026044 175.062877 l
446.913022 177.921676 l
442.8 180.758339 l
438.686978 183.058508 l
434.573956 184.822221 l
430.460934 186.489813 l
426.347912 187.936649 l
422.234889 189.983928 l
418.121867 193.817273 l
414.008845 196.216124 l
409.895823 200.151027 l
405.782801 204.189219 l
401.669779 209.033238 l
397.556757 215.428843 l
393.443735 222.636153 l
389.330713 229.63047 l
385.21769 236.378048 l
381.104668 242.90007 l
376.991646 251.509566 l
372.878624 262.452473 l
368.765602 276.087492 l
364.65258 287.774499 l
360.539558 299.938601 l
356.426536 307.970928 l
352.313514 315.196808 l
348.200491 320.076357 l
344.087469 326.455046 l
339.974447 332.989056 l
335.861425 340.026955 l
331.748403 345.023755 l
327.635381 351.789345 l
323.522359 359.102886 l
319.409337 365.275334 l
315.296314 371.095082 l
311.183292 378.631221 l
307.07027 385.27496 l
302.957248 393.582295 l
298.844226 402.90877 l
294.731204 410.327364 l
290.618182 415.110437 l
286.50516 419.180248 l
282.392138 421.30552 l
278.279115 423.80051 l
274.166093 428.396576 l
270.053071 434.543164 l
265.940049 440.549127 l
261.827027 445.397587 l
257.714005 449.670169 l
253.600983 452.490995 l
249.487961 453.501429 l
245.374939 454.286855 l
241.261916 456.602435 l
237.148894 459.537351 l
233.035872 461.175264 l
228.92285 462.87141 l
224.809828 463.904817 l
220.696806 462.338598 l
216.583784 461.395789 l
212.470762 458.580052 l
208.35774 456.760674 l
204.244717 455.346446 l
200.131695 455.006849 l
196.018673 454.305475 l
191.905651 454.035 l
187.792629 453.80247 l
183.679607 453.526975 l
179.566585 452.979548 l
175.453563 452.693061 l
171.340541 452.353389 l
167.227518 451.92236 l
163.114496 451.458676 l
159.001474 451.06183 l
154.888452 450.725776 l
150.77543 450.240219 l
146.662408 450.048495 l
142.549386 449.758901 l
138.436364 449.672346 l
cl
0.580 0.404 0.741 setrgbcolor
fill
grestore
0.800 setlinewidth
1 setlinejoin
0 setlinecap
[] 0 setdash
0.000 setgray
gsave
/o {
gsave
newpath
translate
0.8 setlinewidth
1 setlinejoin
0 setlinecap
0 0 m
0 -3.5 l

gsave
0.000 setgray
fill
grestore
stroke
grestore
} bind def
138.436 72 o
grestore
/DejaVuSans findfont
16.000 scalefont
setfont
gsave
133.342614 52.843750 translate
0.000000 rotate
0.000000 0.000000 m /zero glyphshow
grestore
gsave
/o {
gsave
newpath
translate
0.8 setlinewidth
1 setlinejoin
0 setlinecap
0 0 m
0 -3.5 l

gsave
0.000 setgray
fill
grestore
stroke
grestore
} bind def
220.697 72 o
grestore
gsave
210.509306 52.843750 translate
0.000000 rotate
0.000000 0.000000 m /two glyphshow
10.179688 0.000000 m /zero glyphshow
grestore
gsave
/o {
gsave
newpath
translate
0.8 setlinewidth
1 setlinejoin
0 setlinecap
0 0 m
0 -3.5 l

gsave
0.000 setgray
fill
grestore
stroke
grestore
} bind def
302.957 72 o
grestore
gsave
292.769748 52.843750 translate
0.000000 rotate
0.000000 0.000000 m /four glyphshow
10.179688 0.000000 m /zero glyphshow
grestore
gsave
/o {
gsave
newpath
translate
0.8 setlinewidth
1 setlinejoin
0 setlinecap
0 0 m
0 -3.5 l

gsave
0.000 setgray
fill
grestore
stroke
grestore
} bind def
385.218 72 o
grestore
gsave
375.030190 52.843750 translate
0.000000 rotate
0.000000 0.000000 m /six glyphshow
10.179688 0.000000 m /zero glyphshow
grestore
gsave
/o {
gsave
newpath
translate
0.8 setlinewidth
1 setlinejoin
0 setlinecap
0 0 m
0 -3.5 l

gsave
0.000 setgray
fill
grestore
stroke
grestore
} bind def
467.478 72 o
grestore
gsave
457.290633 52.843750 translate
0.000000 rotate
0.000000 0.000000 m /eight glyphshow
10.179688 0.000000 m /zero glyphshow
grestore
gsave
/o {
gsave
newpath
translate
0.8 setlinewidth
1 setlinejoin
0 setlinecap
0 0 m
0 -3.5 l

gsave
0.000 setgray
fill
grestore
stroke
grestore
} bind def
549.739 72 o
grestore
gsave
534.457325 52.843750 translate
0.000000 rotate
0.000000 0.000000 m /one glyphshow
10.179688 0.000000 m /zero glyphshow
20.359375 0.000000 m /zero glyphshow
grestore
gsave
/o {
gsave
newpath
translate
0.8 setlinewidth
1 setlinejoin
0 setlinecap
0 0 m
0 -3.5 l

gsave
0.000 setgray
fill
grestore
stroke
grestore
} bind def
631.999 72 o
grestore
gsave
616.717767 52.843750 translate
0.000000 rotate
0.000000 0.000000 m /one glyphshow
10.179688 0.000000 m /two glyphshow
20.359375 0.000000 m /zero glyphshow
grestore
gsave
/o {
gsave
newpath
translate
0.8 setlinewidth
1 setlinejoin
0 setlinecap
0 0 m
0 -3.5 l

gsave
0.000 setgray
fill
grestore
stroke
grestore
} bind def
714.259 72 o
grestore
gsave
698.978209 52.843750 translate
0.000000 rotate
0.000000 0.000000 m /one glyphshow
10.179688 0.000000 m /four glyphshow
20.359375 0.000000 m /zero glyphshow
grestore
gsave
365.651563 33.359375 translate
0.000000 rotate
0.000000 0.000000 m /N glyphshow
11.968750 0.000000 m /u glyphshow
22.109375 0.000000 m /m glyphshow
37.695312 0.000000 m /b glyphshow
47.851562 0.000000 m /e glyphshow
57.695312 0.000000 m /r glyphshow
64.273438 0.000000 m /space glyphshow
69.359375 0.000000 m /o glyphshow
79.148438 0.000000 m /f glyphshow
84.781250 0.000000 m /space glyphshow
89.867188 0.000000 m /R glyphshow
100.984375 0.000000 m /o glyphshow
110.773438 0.000000 m /l glyphshow
115.218750 0.000000 m /l glyphshow
119.664062 0.000000 m /o glyphshow
129.453125 0.000000 m /u glyphshow
139.593750 0.000000 m /t glyphshow
145.867188 0.000000 m /s glyphshow
grestore
gsave
/o {
gsave
newpath
translate
0.8 setlinewidth
1 setlinejoin
0 setlinecap
0 0 m
-3.5 0 l

gsave
0.000 setgray
fill
grestore
stroke
grestore
} bind def
108 100.68 o
grestore
gsave
90.812500 94.602278 translate
0.000000 rotate
0.000000 0.000000 m /zero glyphshow
grestore
gsave
/o {
gsave
newpath
translate
0.8 setlinewidth
1 setlinejoin
0 setlinecap
0 0 m
-3.5 0 l

gsave
0.000 setgray
fill
grestore
stroke
grestore
} bind def
108 164.714 o
grestore
gsave
70.437500 158.635579 translate
0.000000 rotate
0.000000 0.000000 m /two glyphshow
10.179688 0.000000 m /zero glyphshow
20.359375 0.000000 m /zero glyphshow
grestore
gsave
/o {
gsave
newpath
translate
0.8 setlinewidth
1 setlinejoin
0 setlinecap
0 0 m
-3.5 0 l

gsave
0.000 setgray
fill
grestore
stroke
grestore
} bind def
108 228.747 o
grestore
gsave
70.437500 222.668879 translate
0.000000 rotate
0.000000 0.000000 m /four glyphshow
10.179688 0.000000 m /zero glyphshow
20.359375 0.000000 m /zero glyphshow
grestore
gsave
/o {
gsave
newpath
translate
0.8 setlinewidth
1 setlinejoin
0 setlinecap
0 0 m
-3.5 0 l

gsave
0.000 setgray
fill
grestore
stroke
grestore
} bind def
108 292.78 o
grestore
gsave
70.437500 286.702180 translate
0.000000 rotate
0.000000 0.000000 m /six glyphshow
10.179688 0.000000 m /zero glyphshow
20.359375 0.000000 m /zero glyphshow
grestore
gsave
/o {
gsave
newpath
translate
0.8 setlinewidth
1 setlinejoin
0 setlinecap
0 0 m
-3.5 0 l

gsave
0.000 setgray
fill
grestore
stroke
grestore
} bind def
108 356.814 o
grestore
gsave
70.437500 350.735481 translate
0.000000 rotate
0.000000 0.000000 m /eight glyphshow
10.179688 0.000000 m /zero glyphshow
20.359375 0.000000 m /zero glyphshow
grestore
gsave
/o {
gsave
newpath
translate
0.8 setlinewidth
1 setlinejoin
0 setlinecap
0 0 m
-3.5 0 l

gsave
0.000 setgray
fill
grestore
stroke
grestore
} bind def
108 420.847 o
grestore
gsave
60.250000 414.768781 translate
0.000000 rotate
0.000000 0.000000 m /one glyphshow
10.179688 0.000000 m /zero glyphshow
20.359375 0.000000 m /zero glyphshow
30.539062 0.000000 m /zero glyphshow
grestore
gsave
/o {
gsave
newpath
translate
0.8 setlinewidth
1 setlinejoin
0 setlinecap
0 0 m
-3.5 0 l

gsave
0.000 setgray
fill
grestore
stroke
grestore
} bind def
108 484.88 o
grestore
gsave
60.250000 478.802082 translate
0.000000 rotate
0.000000 0.000000 m /one glyphshow
10.179688 0.000000 m /two glyphshow
20.359375 0.000000 m /zero glyphshow
30.539062 0.000000 m /zero glyphshow
grestore
gsave
52.921875 200.072812 translate
90.000000 rotate
0.000000 0.000000 m /A glyphshow
10.945312 0.000000 m /v glyphshow
20.414062 0.000000 m /e glyphshow
30.257812 0.000000 m /r glyphshow
36.835938 0.000000 m /a glyphshow
46.640625 0.000000 m /g glyphshow
56.796875 0.000000 m /e glyphshow
66.640625 0.000000 m /space glyphshow
71.726562 0.000000 m /R glyphshow
82.843750 0.000000 m /u glyphshow
92.984375 0.000000 m /n glyphshow
103.125000 0.000000 m /n glyphshow
113.265625 0.000000 m /i glyphshow
117.710938 0.000000 m /n glyphshow
127.851562 0.000000 m /g glyphshow
138.007812 0.000000 m /space glyphshow
143.093750 0.000000 m /C glyphshow
154.265625 0.000000 m /o glyphshow
164.054688 0.000000 m /s glyphshow
172.390625 0.000000 m /t glyphshow
grestore
1.500 setlinewidth
2 setlinecap
0.122 0.467 0.706 setrgbcolor
gsave
669.6 434.9 108 72 clipbox
138.436364 449.668039 m
142.549386 449.728565 l
154.888452 450.303652 l
163.114496 450.961952 l
171.340541 451.758834 l
179.566585 452.958924 l
183.679607 453.291044 l
187.792629 453.790577 l
196.018673 454.564642 l
212.470762 456.068606 l
220.696806 457.673773 l
224.809828 458.616586 l
228.92285 459.281228 l
233.035872 459.803287 l
237.148894 460.095246 l
249.487961 461.31454 l
253.600983 461.584077 l
265.940049 461.147715 l
274.166093 460.601225 l
286.50516 459.404613 l
290.618182 458.821651 l
294.731204 458.831545 l
298.844226 459.251899 l
302.957248 458.758652 l
307.07027 458.693175 l
315.296314 458.005813 l
323.522359 455.751369 l
327.635381 454.84142 l
335.861425 454.312545 l
339.974447 453.398402 l
344.087469 450.486726 l
348.200491 448.186051 l
352.313514 446.332972 l
364.65258 442.974181 l
368.765602 442.493195 l
372.878624 440.588869 l
376.991646 438.868598 l
381.104668 436.836434 l
385.21769 434.940575 l
389.330713 432.7243 l
393.443735 430.803019 l
401.669779 427.693735 l
405.782801 426.236431 l
414.008845 423.968736 l
418.121867 422.143809 l
426.347912 418.266697 l
430.460934 416.480466 l
434.573956 414.455514 l
442.8 411.05314 l
446.913022 408.621969 l
451.026044 406.006108 l
463.365111 398.977358 l
471.591155 394.878353 l
479.817199 389.489538 l
483.930221 387.54924 l
488.043243 385.312353 l
500.38231 378.083658 l
504.495332 375.534507 l
512.721376 371.355731 l
516.834398 369.705546 l
520.94742 367.550671 l
525.060442 366.300139 l
529.173464 363.271779 l
533.286486 361.54798 l
541.512531 358.478092 l
549.738575 355.869076 l
553.851597 354.431051 l
557.964619 353.234295 l
562.077641 350.741235 l
566.190663 348.869404 l
570.303686 346.639891 l
574.416708 344.048645 l
578.52973 341.686238 l
582.642752 339.787442 l
586.755774 338.103662 l
590.868796 336.944049 l
607.320885 333.365764 l
615.546929 330.305037 l
619.659951 328.840158 l
627.885995 326.591305 l
631.999017 325.755372 l
636.112039 324.700941 l
640.225061 323.999961 l
644.338084 323.487702 l
652.564128 321.587259 l
656.67715 319.342314 l
660.790172 317.548663 l
664.903194 316.201118 l
669.016216 315.060731 l
685.468305 308.324807 l
689.581327 305.798763 l
693.694349 303.964466 l
701.920393 299.524608 l
706.033415 296.989244 l
710.146437 295.009963 l
714.259459 292.825332 l
718.372482 290.505334 l
722.485504 288.31987 l
726.598526 286.610035 l
730.711548 284.772723 l
738.937592 280.017025 l
743.050614 278.081232 l
747.163636 275.757048 l
747.163636 275.757048 l
stroke
grestore
1.000 0.498 0.055 setrgbcolor
gsave
669.6 434.9 108 72 clipbox
138.436364 449.668298 m
142.549386 449.739939 l
154.888452 450.54289 l
159.001474 450.859857 l
163.114496 451.363046 l
175.453563 452.196926 l
183.679607 452.663675 l
212.470762 454.447927 l
216.583784 454.361508 l
220.696806 453.592643 l
224.809828 452.112681 l
228.92285 450.406847 l
237.148894 447.361303 l
241.261916 446.113508 l
245.374939 444.644484 l
249.487961 442.402304 l
253.600983 439.34846 l
257.714005 434.655573 l
261.827027 429.285103 l
270.053071 416.308732 l
274.166093 409.372657 l
282.392138 393.788333 l
286.50516 385.978287 l
294.731204 372.079642 l
298.844226 366.319719 l
307.07027 352.639668 l
311.183292 344.311263 l
315.296314 336.520179 l
319.409337 327.704721 l
323.522359 319.355607 l
327.635381 311.594099 l
331.748403 304.81942 l
335.861425 299.085799 l
339.974447 294.453622 l
352.313514 278.336652 l
356.426536 272.345485 l
364.65258 260.769497 l
368.765602 256.579233 l
372.878624 253.006471 l
376.991646 249.897304 l
381.104668 246.441728 l
385.21769 243.44 l
389.330713 239.856106 l
393.443735 237.483931 l
397.556757 234.621991 l
401.669779 232.520095 l
409.895823 227.238081 l
414.008845 223.73038 l
418.121867 221.20638 l
422.234889 218.180582 l
426.347912 215.533 l
434.573956 210.948601 l
438.686978 207.943358 l
442.8 205.682518 l
451.026044 202.160645 l
459.252088 198.316744 l
463.365111 195.948743 l
467.478133 193.308989 l
471.591155 191.039495 l
479.817199 187.731558 l
483.930221 186.304252 l
492.156265 185.135803 l
496.269287 184.615124 l
500.38231 184.60337 l
504.495332 184.8014 l
508.608354 184.811354 l
520.94742 182.783303 l
525.060442 181.75041 l
533.286486 179.268892 l
537.399509 177.90005 l
541.512531 176.648376 l
545.625553 176.086585 l
549.738575 175.105011 l
557.964619 174.17584 l
562.077641 173.111245 l
566.190663 171.836758 l
570.303686 170.817789 l
574.416708 169.971289 l
578.52973 169.792633 l
582.642752 170.252108 l
586.755774 171.335846 l
594.981818 172.102252 l
599.09484 172.823565 l
603.207862 166.968116 l
607.320885 165.886821 l
611.433907 165.066524 l
615.546929 164.490162 l
619.659951 163.674266 l
631.999017 161.751808 l
636.112039 161.660034 l
640.225061 161.925706 l
644.338084 161.301261 l
648.451106 160.420168 l
652.564128 159.979063 l
656.67715 158.529327 l
660.790172 157.393277 l
664.903194 156.398429 l
669.016216 155.556155 l
677.24226 152.986388 l
681.355283 151.165936 l
685.468305 149.761037 l
689.581327 148.729721 l
693.694349 148.088321 l
697.807371 147.197493 l
701.920393 145.508648 l
706.033415 143.982775 l
714.259459 141.359327 l
722.485504 139.164295 l
730.711548 137.146453 l
734.82457 136.395792 l
738.937592 136.064267 l
743.050614 135.930021 l
747.163636 135.438151 l
747.163636 135.438151 l
stroke
grestore
0.173 0.627 0.173 setrgbcolor
gsave
669.6 434.9 108 72 clipbox
138.436364 449.668918 m
142.549386 449.749112 l
154.888452 450.541971 l
159.001474 450.820196 l
163.114496 451.253308 l
167.227518 451.54101 l
171.340541 451.952668 l
179.566585 452.455434 l
187.792629 452.625228 l
196.018673 452.462513 l
200.131695 452.298051 l
204.244717 452.393452 l
208.35774 452.172251 l
212.470762 451.736475 l
216.583784 450.538409 l
220.696806 448.368039 l
224.809828 444.886336 l
228.92285 440.974517 l
233.035872 436.382985 l
241.261916 426.494532 l
245.374939 420.935143 l
249.487961 412.207897 l
253.600983 404.050699 l
257.714005 395.363265 l
261.827027 385.527053 l
265.940049 377.087236 l
270.053071 369.729692 l
274.166093 361.416341 l
278.279115 352.572114 l
286.50516 335.955283 l
290.618182 328.749025 l
298.844226 314.695428 l
302.957248 307.345907 l
307.07027 300.426376 l
311.183292 293.16078 l
315.296314 286.198395 l
319.409337 280.42047 l
323.522359 273.939248 l
327.635381 267.185471 l
331.748403 260.943737 l
335.861425 254.065779 l
339.974447 246.859552 l
344.087469 240.118653 l
348.200491 234.40746 l
352.313514 228.905234 l
356.426536 225.051179 l
360.539558 220.609681 l
364.65258 216.439062 l
376.991646 204.885509 l
381.104668 201.612578 l
389.330713 196.254702 l
393.443735 194.401847 l
397.556757 192.760382 l
401.669779 190.964997 l
405.782801 188.956728 l
409.895823 187.28689 l
414.008845 186.051756 l
418.121867 184.682211 l
426.347912 182.76345 l
430.460934 181.219488 l
438.686978 177.292854 l
442.8 175.675949 l
446.913022 174.747966 l
451.026044 174.001533 l
455.139066 173.917621 l
459.252088 173.462741 l
463.365111 172.570179 l
467.478133 171.434818 l
471.591155 170.013695 l
475.704177 167.712179 l
479.817199 166.103822 l
483.930221 164.88192 l
488.043243 163.171125 l
496.269287 160.24131 l
500.38231 159.112835 l
516.834398 155.834525 l
520.94742 154.408382 l
525.060442 153.188139 l
529.173464 152.317735 l
533.286486 151.595847 l
537.399509 150.556741 l
541.512531 149.937621 l
545.625553 149.449649 l
549.738575 148.820048 l
553.851597 147.851689 l
557.964619 147.095342 l
562.077641 146.211512 l
566.190663 145.770071 l
570.303686 145.09512 l
574.416708 144.114665 l
582.642752 142.938849 l
590.868796 141.285437 l
594.981818 140.636097 l
607.320885 138.005833 l
615.546929 136.7803 l
627.885995 133.439488 l
631.999017 131.949808 l
636.112039 130.921615 l
640.225061 130.300494 l
644.338084 129.949193 l
648.451106 129.794297 l
652.564128 130.134213 l
660.790172 131.110447 l
664.903194 131.325208 l
669.016216 131.017197 l
677.24226 129.056487 l
681.355283 128.479719 l
685.468305 128.039775 l
689.581327 128.031609 l
693.694349 128.686614 l
697.807371 129.032704 l
701.920393 128.691832 l
706.033415 128.644758 l
710.146437 128.948083 l
722.485504 128.72014 l
726.598526 128.048565 l
730.711548 127.086328 l
743.050614 125.880936 l
747.163636 125.697427 l
747.163636 125.697427 l
stroke
grestore
0.839 0.153 0.157 setrgbcolor
gsave
669.6 434.9 108 72 clipbox
138.436364 449.66784 m
142.549386 449.741121 l
150.77543 450.169247 l
154.888452 450.594392 l
159.001474 450.890085 l
163.114496 451.356056 l
179.566585 452.635387 l
183.679607 452.721938 l
191.905651 453.142256 l
200.131695 453.956841 l
204.244717 453.987921 l
208.35774 453.80587 l
216.583784 451.486785 l
220.696806 449.833321 l
224.809828 448.539776 l
228.92285 446.109992 l
233.035872 443.296737 l
237.148894 440.929033 l
241.261916 437.193279 l
245.374939 433.164644 l
249.487961 427.631075 l
253.600983 421.121574 l
261.827027 402.154597 l
270.053071 380.135486 l
274.166093 369.11742 l
278.279115 358.436116 l
282.392138 345.819109 l
286.50516 334.867825 l
290.618182 324.325153 l
294.731204 314.624473 l
298.844226 304.302996 l
302.957248 295.768945 l
307.07027 286.382287 l
311.183292 277.958934 l
315.296314 269.279685 l
319.409337 261.00786 l
323.522359 252.319318 l
327.635381 245.912694 l
331.748403 240.475692 l
335.861425 235.984985 l
339.974447 229.458177 l
344.087469 224.633036 l
352.313514 213.283395 l
356.426536 207.120595 l
368.765602 193.693136 l
372.878624 190.670103 l
376.991646 188.251126 l
381.104668 186.117428 l
385.21769 183.530629 l
389.330713 180.648347 l
397.556757 173.893827 l
401.669779 171.108975 l
405.782801 168.653839 l
414.008845 164.867061 l
426.347912 161.885379 l
430.460934 161.216961 l
434.573956 160.771733 l
438.686978 159.797287 l
442.8 159.290099 l
451.026044 159.373052 l
455.139066 159.553365 l
459.252088 160.26293 l
463.365111 160.627856 l
467.478133 159.192139 l
471.591155 159.050503 l
475.704177 158.723704 l
479.817199 159.312732 l
483.930221 158.924137 l
488.043243 157.69994 l
500.38231 152.375023 l
504.495332 151.144053 l
508.608354 150.668129 l
516.834398 150.162641 l
520.94742 150.242599 l
525.060442 149.30086 l
533.286486 147.927932 l
537.399509 147.740059 l
541.512531 148.053082 l
545.625553 147.880441 l
549.738575 146.974043 l
557.964619 143.756782 l
562.077641 142.487939 l
566.190663 141.81135 l
570.303686 141.257795 l
574.416708 140.981998 l
582.642752 139.714207 l
590.868796 137.950813 l
599.09484 136.386914 l
615.546929 133.115385 l
619.659951 132.517911 l
623.772973 132.099301 l
627.885995 132.11405 l
636.112039 132.523374 l
640.225061 132.218474 l
644.338084 132.27863 l
648.451106 131.987119 l
656.67715 130.555513 l
660.790172 130.172574 l
664.903194 129.277932 l
669.016216 128.160022 l
673.129238 127.531528 l
677.24226 127.357737 l
685.468305 126.523732 l
689.581327 126.248268 l
693.694349 126.088194 l
697.807371 126.232248 l
701.920393 126.541064 l
706.033415 126.713282 l
710.146437 127.149839 l
714.259459 127.951954 l
718.372482 128.104908 l
722.485504 127.577812 l
726.598526 127.174003 l
730.711548 125.464689 l
738.937592 122.944602 l
747.163636 121.293067 l
747.163636 121.293067 l
stroke
grestore
0.580 0.404 0.741 setrgbcolor
gsave
669.6 434.9 108 72 clipbox
138.436364 449.669357 m
142.549386 449.739711 l
150.77543 450.155471 l
159.001474 450.851034 l
167.227518 451.476113 l
175.453563 451.845452 l
179.566585 451.836414 l
187.792629 452.009785 l
191.905651 452.074292 l
196.018673 452.297521 l
200.131695 452.663816 l
204.244717 452.363775 l
208.35774 452.418084 l
212.470762 451.926207 l
216.583784 451.683086 l
220.696806 449.511809 l
224.809828 446.817639 l
228.92285 442.318932 l
233.035872 437.57234 l
237.148894 432.432348 l
241.261916 426.721891 l
245.374939 421.53228 l
249.487961 415.883724 l
253.600983 408.52874 l
265.940049 380.356484 l
270.053071 371.488029 l
274.166093 363.081263 l
278.279115 355.767563 l
286.50516 344.383981 l
307.07027 306.877384 l
311.183292 300.482831 l
319.409337 286.4975 l
323.522359 278.892518 l
327.635381 270.863471 l
331.748403 263.648718 l
335.861425 257.749698 l
339.974447 251.629026 l
344.087469 246.037413 l
348.200491 241.549223 l
352.313514 237.593275 l
356.426536 233.07654 l
360.539558 228.773977 l
368.765602 217.024614 l
372.878624 210.843098 l
376.991646 205.227623 l
381.104668 200.512192 l
385.21769 196.775924 l
389.330713 192.789906 l
393.443735 188.381294 l
401.669779 179.766129 l
405.782801 176.265524 l
414.008845 170.871573 l
418.121867 169.442198 l
422.234889 167.469331 l
430.460934 164.994552 l
438.686978 162.884503 l
442.8 161.627074 l
446.913022 160.171264 l
451.026044 158.408724 l
459.252088 155.139671 l
463.365111 154.094319 l
467.478133 152.773852 l
479.817199 150.060329 l
496.269287 148.595676 l
500.38231 148.51481 l
504.495332 148.139062 l
512.721376 146.812606 l
525.060442 145.339383 l
537.399509 143.098106 l
541.512531 142.155918 l
545.625553 141.542724 l
549.738575 141.545317 l
553.851597 142.114631 l
557.964619 142.387657 l
562.077641 142.088188 l
566.190663 142.056098 l
570.303686 141.541809 l
574.416708 140.47376 l
578.52973 138.869726 l
582.642752 137.467805 l
586.755774 135.845435 l
594.981818 130.846662 l
599.09484 128.855907 l
603.207862 127.09802 l
607.320885 125.8186 l
611.433907 124.944939 l
615.546929 124.273935 l
627.885995 120.350737 l
631.999017 119.421929 l
636.112039 119.459558 l
644.338084 119.080548 l
648.451106 119.106517 l
652.564128 119.413509 l
656.67715 118.910779 l
660.790172 118.239039 l
669.016216 116.37954 l
673.129238 115.553989 l
681.355283 114.880421 l
685.468305 114.854261 l
701.920393 116.881624 l
706.033415 116.966877 l
710.146437 116.567558 l
714.259459 116.04276 l
726.598526 113.74945 l
730.711548 112.573049 l
734.82457 111.830286 l
743.050614 111.089744 l
747.163636 110.963844 l
747.163636 110.963844 l
stroke
grestore
0.800 setlinewidth
0 setlinejoin
[] 0 setdash
0.000 setgray
gsave
108 72 m
108 506.88 l
stroke
grestore
gsave
777.6 72 m
777.6 506.88 l
stroke
grestore
gsave
108 72 m
777.6 72 l
stroke
grestore
gsave
108 506.88 m
777.6 506.88 l
stroke
grestore
/DejaVuSans findfont
19.200 scalefont
setfont
gsave
239.354688 512.880000 translate
0.000000 rotate
0.000000 0.000000 m /C glyphshow
13.397522 0.000000 m /o glyphshow
25.136749 0.000000 m /m glyphshow
43.827698 0.000000 m /p glyphshow
56.007263 0.000000 m /a glyphshow
67.765228 0.000000 m /r glyphshow
75.653839 0.000000 m /i glyphshow
80.984741 0.000000 m /s glyphshow
90.981354 0.000000 m /o glyphshow
102.720581 0.000000 m /n glyphshow
114.881409 0.000000 m /space glyphshow
120.980560 0.000000 m /o glyphshow
132.719788 0.000000 m /f glyphshow
139.474762 0.000000 m /space glyphshow
145.573914 0.000000 m /d glyphshow
157.753479 0.000000 m /i glyphshow
163.084381 0.000000 m /f glyphshow
169.839355 0.000000 m /f glyphshow
176.594330 0.000000 m /e glyphshow
188.399139 0.000000 m /r glyphshow
196.287750 0.000000 m /e glyphshow
208.092560 0.000000 m /n glyphshow
220.253387 0.000000 m /t glyphshow
227.776611 0.000000 m /space glyphshow
233.875763 0.000000 m /S glyphshow
246.055328 0.000000 m /a glyphshow
257.813293 0.000000 m /m glyphshow
276.504242 0.000000 m /p glyphshow
288.683807 0.000000 m /l glyphshow
294.014709 0.000000 m /i glyphshow
299.345612 0.000000 m /n glyphshow
311.506439 0.000000 m /g glyphshow
323.686005 0.000000 m /space glyphshow
329.785156 0.000000 m /N glyphshow
344.138306 0.000000 m /u glyphshow
356.299133 0.000000 m /m glyphshow
374.990082 0.000000 m /b glyphshow
387.169647 0.000000 m /e glyphshow
398.974457 0.000000 m /r glyphshow
grestore
1.000 setlinewidth
0 setlinecap
0.800 setgray
gsave
684.6375 376.658125 m
766.4 376.658125 l
768.533333 376.658125 769.6 377.724792 769.6 379.858125 c
769.6 495.68 l
769.6 497.813333 768.533333 498.88 766.4 498.88 c
684.6375 498.88 l
682.504167 498.88 681.4375 497.813333 681.4375 495.68 c
681.4375 379.858125 l
681.4375 377.724792 682.504167 376.658125 684.6375 376.658125 c
cl
gsave
1.000 setgray
fill
grestore
stroke
grestore
1.500 setlinewidth
1 setlinejoin
2 setlinecap
[] 0 setdash
0.122 0.467 0.706 setrgbcolor
gsave
687.8375 485.92375 m
719.8375 485.92375 l
stroke
grestore
0.000 setgray
/DejaVuSans findfont
16.000 scalefont
setfont
gsave
732.637500 480.323750 translate
0.000000 rotate
0.000000 0.000000 m /five glyphshow
grestore
1.000 0.498 0.055 setrgbcolor
gsave
687.8375 462.439375 m
719.8375 462.439375 l
stroke
grestore
0.000 setgray
gsave
732.637500 456.839375 translate
0.000000 rotate
0.000000 0.000000 m /two glyphshow
10.179688 0.000000 m /five glyphshow
grestore
0.173 0.627 0.173 setrgbcolor
gsave
687.8375 438.955 m
719.8375 438.955 l
stroke
grestore
0.000 setgray
gsave
732.637500 433.355000 translate
0.000000 rotate
0.000000 0.000000 m /five glyphshow
10.179688 0.000000 m /zero glyphshow
grestore
0.839 0.153 0.157 setrgbcolor
gsave
687.8375 415.470625 m
719.8375 415.470625 l
stroke
grestore
0.000 setgray
gsave
732.637500 409.870625 translate
0.000000 rotate
0.000000 0.000000 m /one glyphshow
10.179688 0.000000 m /zero glyphshow
20.359375 0.000000 m /zero glyphshow
grestore
0.580 0.404 0.741 setrgbcolor
gsave
687.8375 391.98625 m
719.8375 391.98625 l
stroke
grestore
0.000 setgray
gsave
732.637500 386.386250 translate
0.000000 rotate
0.000000 0.000000 m /two glyphshow
10.179688 0.000000 m /zero glyphshow
20.359375 0.000000 m /zero glyphshow
grestore

end
showpage
