%!PS-Adobe-3.0 EPSF-3.0
%%Title: C:\Users\wlkob\OneDrive\8_Masterarbeit\Programs Masterarbeit\xExperiment\Figures\Ring_SamplingNumberWind.eps
%%Creator: matplotlib version 3.0.1, http://matplotlib.org/
%%CreationDate: Mon Mar 30 04:28:01 2020
%%Orientation: portrait
%%BoundingBox: -414 108 1026 684
%%EndComments
%%BeginProlog
/mpldict 8 dict def
mpldict begin
/m { moveto } bind def
/l { lineto } bind def
/r { rlineto } bind def
/c { curveto } bind def
/cl { closepath } bind def
/box {
m
1 index 0 r
0 exch r
neg 0 r
cl
} bind def
/clipbox {
box
clip
newpath
} bind def
%!PS-Adobe-3.0 Resource-Font
%%Title: DejaVu Sans
%%Copyright: Copyright (c) 2003 by Bitstream, Inc. All Rights Reserved. Copyright (c) 2006 by Tavmjong Bah. All Rights Reserved. DejaVu changes are in public domain 
%%Creator: Converted from TrueType to type 3 by PPR
25 dict begin
/_d{bind def}bind def
/_m{moveto}_d
/_l{lineto}_d
/_cl{closepath eofill}_d
/_c{curveto}_d
/_sc{7 -1 roll{setcachedevice}{pop pop pop pop pop pop}ifelse}_d
/_e{exec}_d
/FontName /DejaVuSans def
/PaintType 0 def
/FontMatrix[.001 0 0 .001 0 0]def
/FontBBox[-1021 -463 1793 1232]def
/FontType 3 def
/Encoding [ /space /percent /comma /zero /one /two /four /five /six /eight /C /D /F /M /N /P /R /S /W /bracketleft /bracketright /a /b /c /d /e /f /g /i /l /m /n /o /p /r /s /t /u ] def
/FontInfo 10 dict dup begin
/FamilyName (DejaVu Sans) def
/FullName (DejaVu Sans) def
/Notice (Copyright (c) 2003 by Bitstream, Inc. All Rights Reserved. Copyright (c) 2006 by Tavmjong Bah. All Rights Reserved. DejaVu changes are in public domain ) def
/Weight (Book) def
/Version (Version 2.35) def
/ItalicAngle 0.0 def
/isFixedPitch false def
/UnderlinePosition -130 def
/UnderlineThickness 90 def
end readonly def
/CharStrings 39 dict dup begin
/.notdef 0 def
/space{318 0 0 0 0 0 _sc
}_d
/percent{{950 0 55 -13 895 742 _sc
727 321 _m
699 321 676 309 660 285 _c
644 261 636 227 636 184 _c
636 142 644 108 660 84 _c
676 60 699 48 727 48 _c
755 48 777 60 793 84 _c
809 108 817 142 817 184 _c
817 226 809 260 793 284 _c
777 308 755 321 727 321 _c
727 383 _m
778 383 819 365 849 329 _c
879 293 895 244 895 184 _c
895 123 879 75 849 40 _c
819 4 778 -13 727 -13 _c
}_e{675 -13 633 4 603 40 _c
573 75 558 123 558 184 _c
558 245 573 293 603 329 _c
633 365 675 383 727 383 _c
223 680 _m
195 680 173 667 157 643 _c
141 619 133 586 133 544 _c
133 500 141 467 157 443 _c
173 419 195 407 223 407 _c
251 407 274 419 290 443 _c
306 467 314 500 314 544 _c
314 586 305 619 289 643 _c
273 667 251 680 223 680 _c
664 742 _m
742 742 _l
286 -13 _l
}_e{208 -13 _l
664 742 _l
223 742 _m
274 742 315 724 346 688 _c
376 652 392 604 392 544 _c
392 482 376 434 346 398 _c
316 362 275 345 223 345 _c
171 345 130 362 100 398 _c
70 434 55 482 55 544 _c
55 604 70 652 100 688 _c
130 724 171 742 223 742 _c
_cl}_e}_d
/comma{318 0 77 -115 220 124 _sc
117 124 _m
220 124 _l
220 40 _l
140 -115 _l
77 -115 _l
117 40 _l
117 124 _l
_cl}_d
/zero{636 0 66 -13 570 742 _sc
318 664 _m
267 664 229 639 203 589 _c
177 539 165 464 165 364 _c
165 264 177 189 203 139 _c
229 89 267 64 318 64 _c
369 64 407 89 433 139 _c
458 189 471 264 471 364 _c
471 464 458 539 433 589 _c
407 639 369 664 318 664 _c
318 742 _m
399 742 461 709 505 645 _c
548 580 570 486 570 364 _c
570 241 548 147 505 83 _c
461 19 399 -13 318 -13 _c
236 -13 173 19 130 83 _c
87 147 66 241 66 364 _c
66 486 87 580 130 645 _c
173 709 236 742 318 742 _c
_cl}_d
/one{636 0 110 0 544 729 _sc
124 83 _m
285 83 _l
285 639 _l
110 604 _l
110 694 _l
284 729 _l
383 729 _l
383 83 _l
544 83 _l
544 0 _l
124 0 _l
124 83 _l
_cl}_d
/two{{636 0 73 0 536 742 _sc
192 83 _m
536 83 _l
536 0 _l
73 0 _l
73 83 _l
110 121 161 173 226 239 _c
290 304 331 346 348 365 _c
380 400 402 430 414 455 _c
426 479 433 504 433 528 _c
433 566 419 598 392 622 _c
365 646 330 659 286 659 _c
255 659 222 653 188 643 _c
154 632 117 616 78 594 _c
78 694 _l
118 710 155 722 189 730 _c
223 738 255 742 284 742 _c
}_e{359 742 419 723 464 685 _c
509 647 532 597 532 534 _c
532 504 526 475 515 449 _c
504 422 484 390 454 354 _c
446 344 420 317 376 272 _c
332 227 271 164 192 83 _c
_cl}_e}_d
/four{636 0 49 0 580 729 _sc
378 643 _m
129 254 _l
378 254 _l
378 643 _l
352 729 _m
476 729 _l
476 254 _l
580 254 _l
580 172 _l
476 172 _l
476 0 _l
378 0 _l
378 172 _l
49 172 _l
49 267 _l
352 729 _l
_cl}_d
/five{{636 0 77 -13 549 729 _sc
108 729 _m
495 729 _l
495 646 _l
198 646 _l
198 467 _l
212 472 227 476 241 478 _c
255 480 270 482 284 482 _c
365 482 429 459 477 415 _c
525 370 549 310 549 234 _c
549 155 524 94 475 51 _c
426 8 357 -13 269 -13 _c
238 -13 207 -10 175 -6 _c
143 -1 111 6 77 17 _c
77 116 _l
106 100 136 88 168 80 _c
199 72 232 69 267 69 _c
}_e{323 69 368 83 401 113 _c
433 143 450 183 450 234 _c
450 284 433 324 401 354 _c
368 384 323 399 267 399 _c
241 399 214 396 188 390 _c
162 384 135 375 108 363 _c
108 729 _l
_cl}_e}_d
/six{{636 0 70 -13 573 742 _sc
330 404 _m
286 404 251 388 225 358 _c
199 328 186 286 186 234 _c
186 181 199 139 225 109 _c
251 79 286 64 330 64 _c
374 64 409 79 435 109 _c
461 139 474 181 474 234 _c
474 286 461 328 435 358 _c
409 388 374 404 330 404 _c
526 713 _m
526 623 _l
501 635 476 644 451 650 _c
425 656 400 659 376 659 _c
310 659 260 637 226 593 _c
}_e{192 549 172 482 168 394 _c
187 422 211 444 240 459 _c
269 474 301 482 336 482 _c
409 482 467 459 509 415 _c
551 371 573 310 573 234 _c
573 159 550 99 506 54 _c
462 9 403 -13 330 -13 _c
246 -13 181 19 137 83 _c
92 147 70 241 70 364 _c
70 479 97 571 152 639 _c
206 707 280 742 372 742 _c
396 742 421 739 447 735 _c
472 730 498 723 526 713 _c
_cl}_e}_d
/eight{{636 0 68 -13 568 742 _sc
318 346 _m
271 346 234 333 207 308 _c
180 283 167 249 167 205 _c
167 161 180 126 207 101 _c
234 76 271 64 318 64 _c
364 64 401 76 428 102 _c
455 127 469 161 469 205 _c
469 249 455 283 429 308 _c
402 333 365 346 318 346 _c
219 388 _m
177 398 144 418 120 447 _c
96 476 85 511 85 553 _c
85 611 105 657 147 691 _c
188 725 245 742 318 742 _c
}_e{390 742 447 725 489 691 _c
530 657 551 611 551 553 _c
551 511 539 476 515 447 _c
491 418 459 398 417 388 _c
464 377 501 355 528 323 _c
554 291 568 251 568 205 _c
568 134 546 80 503 43 _c
459 5 398 -13 318 -13 _c
237 -13 175 5 132 43 _c
89 80 68 134 68 205 _c
68 251 81 291 108 323 _c
134 355 171 377 219 388 _c
183 544 _m
183 506 194 476 218 455 _c
}_e{242 434 275 424 318 424 _c
360 424 393 434 417 455 _c
441 476 453 506 453 544 _c
453 582 441 611 417 632 _c
393 653 360 664 318 664 _c
275 664 242 653 218 632 _c
194 611 183 582 183 544 _c
_cl}_e}_d
/C{{698 0 56 -13 644 742 _sc
644 673 _m
644 569 _l
610 599 575 622 537 638 _c
499 653 460 661 418 661 _c
334 661 270 635 226 584 _c
182 533 160 460 160 364 _c
160 268 182 194 226 143 _c
270 92 334 67 418 67 _c
460 67 499 74 537 90 _c
575 105 610 128 644 159 _c
644 56 _l
609 32 572 15 534 4 _c
496 -7 455 -13 412 -13 _c
302 -13 215 20 151 87 _c
}_e{87 154 56 246 56 364 _c
56 481 87 573 151 641 _c
215 708 302 742 412 742 _c
456 742 497 736 535 725 _c
573 713 610 696 644 673 _c
_cl}_e}_d
/D{770 0 98 0 711 729 _sc
197 648 _m
197 81 _l
316 81 _l
416 81 490 103 537 149 _c
583 195 607 267 607 365 _c
607 463 583 534 537 580 _c
490 625 416 648 316 648 _c
197 648 _l
98 729 _m
301 729 _l
442 729 546 699 612 641 _c
678 582 711 490 711 365 _c
711 239 677 147 611 88 _c
545 29 441 0 301 0 _c
98 0 _l
98 729 _l
_cl}_d
/F{575 0 98 0 517 729 _sc
98 729 _m
517 729 _l
517 646 _l
197 646 _l
197 431 _l
486 431 _l
486 348 _l
197 348 _l
197 0 _l
98 0 _l
98 729 _l
_cl}_d
/M{863 0 98 0 765 729 _sc
98 729 _m
245 729 _l
431 233 _l
618 729 _l
765 729 _l
765 0 _l
669 0 _l
669 640 _l
481 140 _l
382 140 _l
194 640 _l
194 0 _l
98 0 _l
98 729 _l
_cl}_d
/N{748 0 98 0 650 729 _sc
98 729 _m
231 729 _l
554 119 _l
554 729 _l
650 729 _l
650 0 _l
517 0 _l
194 610 _l
194 0 _l
98 0 _l
98 729 _l
_cl}_d
/P{603 0 98 0 569 729 _sc
197 648 _m
197 374 _l
321 374 _l
367 374 402 385 427 409 _c
452 433 465 467 465 511 _c
465 555 452 588 427 612 _c
402 636 367 648 321 648 _c
197 648 _l
98 729 _m
321 729 _l
402 729 464 710 506 673 _c
548 636 569 582 569 511 _c
569 439 548 384 506 348 _c
464 311 402 293 321 293 _c
197 293 _l
197 0 _l
98 0 _l
98 729 _l
_cl}_d
/R{{695 0 98 0 666 729 _sc
444 342 _m
465 334 486 319 506 296 _c
526 272 546 240 566 199 _c
666 0 _l
560 0 _l
467 187 _l
443 235 419 268 397 284 _c
374 300 343 308 304 308 _c
197 308 _l
197 0 _l
98 0 _l
98 729 _l
321 729 _l
404 729 466 711 507 677 _c
548 642 569 589 569 519 _c
569 473 558 434 537 404 _c
515 374 484 353 444 342 _c
197 648 _m
197 389 _l
321 389 _l
}_e{368 389 404 400 428 422 _c
452 444 465 476 465 519 _c
465 561 452 593 428 615 _c
404 637 368 648 321 648 _c
197 648 _l
_cl}_e}_d
/S{{635 0 66 -13 579 742 _sc
535 705 _m
535 609 _l
497 627 462 640 429 649 _c
395 657 363 662 333 662 _c
279 662 237 651 208 631 _c
179 610 165 580 165 542 _c
165 510 174 485 194 469 _c
213 452 250 439 304 429 _c
364 417 _l
437 403 491 378 526 343 _c
561 307 579 260 579 201 _c
579 130 555 77 508 41 _c
460 5 391 -13 300 -13 _c
265 -13 228 -9 189 -2 _c
}_e{150 5 110 16 69 32 _c
69 134 _l
109 111 148 94 186 83 _c
224 71 262 66 300 66 _c
356 66 399 77 430 99 _c
460 121 476 152 476 194 _c
476 230 465 258 443 278 _c
421 298 385 313 335 323 _c
275 335 _l
201 349 148 372 115 404 _c
82 435 66 478 66 534 _c
66 598 88 649 134 686 _c
179 723 242 742 322 742 _c
356 742 390 739 426 733 _c
461 727 497 717 535 705 _c
}_e{_cl}_e}_d
/W{989 0 33 0 956 729 _sc
33 729 _m
133 729 _l
286 113 _l
439 729 _l
550 729 _l
703 113 _l
856 729 _l
956 729 _l
773 0 _l
649 0 _l
495 633 _l
340 0 _l
216 0 _l
33 729 _l
_cl}_d
/bracketleft{390 0 86 -131 293 760 _sc
86 760 _m
293 760 _l
293 690 _l
176 690 _l
176 -61 _l
293 -61 _l
293 -131 _l
86 -131 _l
86 760 _l
_cl}_d
/bracketright{390 0 97 -131 304 760 _sc
304 760 _m
304 -131 _l
97 -131 _l
97 -61 _l
214 -61 _l
214 690 _l
97 690 _l
97 760 _l
304 760 _l
_cl}_d
/a{{613 0 60 -13 522 560 _sc
343 275 _m
270 275 220 266 192 250 _c
164 233 150 205 150 165 _c
150 133 160 107 181 89 _c
202 70 231 61 267 61 _c
317 61 357 78 387 114 _c
417 149 432 196 432 255 _c
432 275 _l
343 275 _l
522 312 _m
522 0 _l
432 0 _l
432 83 _l
411 49 385 25 355 10 _c
325 -5 287 -13 243 -13 _c
187 -13 142 2 109 33 _c
76 64 60 106 60 159 _c
}_e{60 220 80 266 122 298 _c
163 329 224 345 306 345 _c
432 345 _l
432 354 _l
432 395 418 427 391 450 _c
364 472 326 484 277 484 _c
245 484 215 480 185 472 _c
155 464 127 453 100 439 _c
100 522 _l
132 534 164 544 195 550 _c
226 556 256 560 286 560 _c
365 560 424 539 463 498 _c
502 457 522 395 522 312 _c
_cl}_e}_d
/b{{635 0 91 -13 580 760 _sc
487 273 _m
487 339 473 390 446 428 _c
418 466 381 485 334 485 _c
286 485 249 466 222 428 _c
194 390 181 339 181 273 _c
181 207 194 155 222 117 _c
249 79 286 61 334 61 _c
381 61 418 79 446 117 _c
473 155 487 207 487 273 _c
181 464 _m
199 496 223 520 252 536 _c
281 552 316 560 356 560 _c
422 560 476 533 518 481 _c
559 428 580 359 580 273 _c
}_e{580 187 559 117 518 65 _c
476 13 422 -13 356 -13 _c
316 -13 281 -5 252 10 _c
223 25 199 49 181 82 _c
181 0 _l
91 0 _l
91 760 _l
181 760 _l
181 464 _l
_cl}_e}_d
/c{{550 0 55 -13 488 560 _sc
488 526 _m
488 442 _l
462 456 437 466 411 473 _c
385 480 360 484 334 484 _c
276 484 230 465 198 428 _c
166 391 150 339 150 273 _c
150 206 166 154 198 117 _c
230 80 276 62 334 62 _c
360 62 385 65 411 72 _c
437 79 462 90 488 104 _c
488 21 _l
462 9 436 0 410 -5 _c
383 -10 354 -13 324 -13 _c
242 -13 176 12 128 64 _c
}_e{79 115 55 185 55 273 _c
55 362 79 432 128 483 _c
177 534 244 560 330 560 _c
358 560 385 557 411 551 _c
437 545 463 537 488 526 _c
_cl}_e}_d
/d{{635 0 55 -13 544 760 _sc
454 464 _m
454 760 _l
544 760 _l
544 0 _l
454 0 _l
454 82 _l
435 49 411 25 382 10 _c
353 -5 319 -13 279 -13 _c
213 -13 159 13 117 65 _c
75 117 55 187 55 273 _c
55 359 75 428 117 481 _c
159 533 213 560 279 560 _c
319 560 353 552 382 536 _c
411 520 435 496 454 464 _c
148 273 _m
148 207 161 155 188 117 _c
215 79 253 61 301 61 _c
}_e{348 61 385 79 413 117 _c
440 155 454 207 454 273 _c
454 339 440 390 413 428 _c
385 466 348 485 301 485 _c
253 485 215 466 188 428 _c
161 390 148 339 148 273 _c
_cl}_e}_d
/e{{615 0 55 -13 562 560 _sc
562 296 _m
562 252 _l
149 252 _l
153 190 171 142 205 110 _c
238 78 284 62 344 62 _c
378 62 412 66 444 74 _c
476 82 509 95 541 113 _c
541 28 _l
509 14 476 3 442 -3 _c
408 -9 373 -13 339 -13 _c
251 -13 182 12 131 62 _c
80 112 55 181 55 268 _c
55 357 79 428 127 481 _c
175 533 241 560 323 560 _c
397 560 455 536 498 489 _c
}_e{540 441 562 377 562 296 _c
472 322 _m
471 371 457 410 431 440 _c
404 469 368 484 324 484 _c
274 484 234 469 204 441 _c
174 413 156 373 152 322 _c
472 322 _l
_cl}_e}_d
/f{352 0 23 0 371 760 _sc
371 760 _m
371 685 _l
285 685 _l
253 685 230 678 218 665 _c
205 652 199 629 199 595 _c
199 547 _l
347 547 _l
347 477 _l
199 477 _l
199 0 _l
109 0 _l
109 477 _l
23 477 _l
23 547 _l
109 547 _l
109 585 _l
109 645 123 690 151 718 _c
179 746 224 760 286 760 _c
371 760 _l
_cl}_d
/g{{635 0 55 -207 544 560 _sc
454 280 _m
454 344 440 395 414 431 _c
387 467 349 485 301 485 _c
253 485 215 467 188 431 _c
161 395 148 344 148 280 _c
148 215 161 165 188 129 _c
215 93 253 75 301 75 _c
349 75 387 93 414 129 _c
440 165 454 215 454 280 _c
544 68 _m
544 -24 523 -93 482 -139 _c
440 -184 377 -207 292 -207 _c
260 -207 231 -204 203 -200 _c
175 -195 147 -188 121 -178 _c
}_e{121 -91 _l
147 -105 173 -115 199 -122 _c
225 -129 251 -133 278 -133 _c
336 -133 380 -117 410 -87 _c
439 -56 454 -10 454 52 _c
454 96 _l
435 64 411 40 382 24 _c
353 8 319 0 279 0 _c
211 0 157 25 116 76 _c
75 127 55 195 55 280 _c
55 364 75 432 116 483 _c
157 534 211 560 279 560 _c
319 560 353 552 382 536 _c
411 520 435 496 454 464 _c
454 547 _l
544 547 _l
}_e{544 68 _l
_cl}_e}_d
/i{278 0 94 0 184 760 _sc
94 547 _m
184 547 _l
184 0 _l
94 0 _l
94 547 _l
94 760 _m
184 760 _l
184 646 _l
94 646 _l
94 760 _l
_cl}_d
/l{278 0 94 0 184 760 _sc
94 760 _m
184 760 _l
184 0 _l
94 0 _l
94 760 _l
_cl}_d
/m{{974 0 91 0 889 560 _sc
520 442 _m
542 482 569 511 600 531 _c
631 550 668 560 711 560 _c
767 560 811 540 842 500 _c
873 460 889 403 889 330 _c
889 0 _l
799 0 _l
799 327 _l
799 379 789 418 771 444 _c
752 469 724 482 686 482 _c
639 482 602 466 575 435 _c
548 404 535 362 535 309 _c
535 0 _l
445 0 _l
445 327 _l
445 379 435 418 417 444 _c
398 469 369 482 331 482 _c
}_e{285 482 248 466 221 435 _c
194 404 181 362 181 309 _c
181 0 _l
91 0 _l
91 547 _l
181 547 _l
181 462 _l
201 495 226 520 255 536 _c
283 552 317 560 357 560 _c
397 560 430 550 458 530 _c
486 510 506 480 520 442 _c
_cl}_e}_d
/n{634 0 91 0 549 560 _sc
549 330 _m
549 0 _l
459 0 _l
459 327 _l
459 379 448 417 428 443 _c
408 469 378 482 338 482 _c
289 482 251 466 223 435 _c
195 404 181 362 181 309 _c
181 0 _l
91 0 _l
91 547 _l
181 547 _l
181 462 _l
202 494 227 519 257 535 _c
286 551 320 560 358 560 _c
420 560 468 540 500 501 _c
532 462 549 405 549 330 _c
_cl}_d
/o{612 0 55 -13 557 560 _sc
306 484 _m
258 484 220 465 192 427 _c
164 389 150 338 150 273 _c
150 207 163 156 191 118 _c
219 80 257 62 306 62 _c
354 62 392 80 420 118 _c
448 156 462 207 462 273 _c
462 337 448 389 420 427 _c
392 465 354 484 306 484 _c
306 560 _m
384 560 445 534 490 484 _c
534 433 557 363 557 273 _c
557 183 534 113 490 63 _c
445 12 384 -13 306 -13 _c
227 -13 165 12 121 63 _c
77 113 55 183 55 273 _c
55 363 77 433 121 484 _c
165 534 227 560 306 560 _c
_cl}_d
/p{{635 0 91 -207 580 560 _sc
181 82 _m
181 -207 _l
91 -207 _l
91 547 _l
181 547 _l
181 464 _l
199 496 223 520 252 536 _c
281 552 316 560 356 560 _c
422 560 476 533 518 481 _c
559 428 580 359 580 273 _c
580 187 559 117 518 65 _c
476 13 422 -13 356 -13 _c
316 -13 281 -5 252 10 _c
223 25 199 49 181 82 _c
487 273 _m
487 339 473 390 446 428 _c
418 466 381 485 334 485 _c
}_e{286 485 249 466 222 428 _c
194 390 181 339 181 273 _c
181 207 194 155 222 117 _c
249 79 286 61 334 61 _c
381 61 418 79 446 117 _c
473 155 487 207 487 273 _c
_cl}_e}_d
/r{411 0 91 0 411 560 _sc
411 463 _m
401 469 390 473 378 476 _c
366 478 353 480 339 480 _c
288 480 249 463 222 430 _c
194 397 181 350 181 288 _c
181 0 _l
91 0 _l
91 547 _l
181 547 _l
181 462 _l
199 495 224 520 254 536 _c
284 552 321 560 365 560 _c
371 560 378 559 386 559 _c
393 558 401 557 411 555 _c
411 463 _l
_cl}_d
/s{{521 0 54 -13 472 560 _sc
443 531 _m
443 446 _l
417 458 391 468 364 475 _c
336 481 308 485 279 485 _c
234 485 200 478 178 464 _c
156 450 145 430 145 403 _c
145 382 153 366 169 354 _c
185 342 217 330 265 320 _c
296 313 _l
360 299 405 279 432 255 _c
458 230 472 195 472 151 _c
472 100 452 60 412 31 _c
372 1 316 -13 246 -13 _c
216 -13 186 -10 154 -5 _c
}_e{122 0 89 8 54 20 _c
54 113 _l
87 95 120 82 152 74 _c
184 65 216 61 248 61 _c
290 61 323 68 346 82 _c
368 96 380 117 380 144 _c
380 168 371 187 355 200 _c
339 213 303 226 247 238 _c
216 245 _l
160 257 119 275 95 299 _c
70 323 58 356 58 399 _c
58 450 76 490 112 518 _c
148 546 200 560 268 560 _c
301 560 332 557 362 552 _c
391 547 418 540 443 531 _c
}_e{_cl}_e}_d
/t{392 0 27 0 368 702 _sc
183 702 _m
183 547 _l
368 547 _l
368 477 _l
183 477 _l
183 180 _l
183 135 189 106 201 94 _c
213 81 238 75 276 75 _c
368 75 _l
368 0 _l
276 0 _l
206 0 158 13 132 39 _c
106 65 93 112 93 180 _c
93 477 _l
27 477 _l
27 547 _l
93 547 _l
93 702 _l
183 702 _l
_cl}_d
/u{634 0 85 -13 543 560 _sc
85 216 _m
85 547 _l
175 547 _l
175 219 _l
175 167 185 129 205 103 _c
225 77 255 64 296 64 _c
344 64 383 79 411 110 _c
439 141 453 183 453 237 _c
453 547 _l
543 547 _l
543 0 _l
453 0 _l
453 84 _l
431 50 405 26 377 10 _c
348 -5 315 -13 277 -13 _c
214 -13 166 6 134 45 _c
101 83 85 140 85 216 _c
311 560 _m
311 560 _l
_cl}_d
end readonly def

/BuildGlyph
 {exch begin
 CharStrings exch
 2 copy known not{pop /.notdef}if
 true 3 1 roll get exec
 end}_d

/BuildChar {
 1 index /Encoding get exch get
 1 index /BuildGlyph get exec
}_d

FontName currentdict end definefont pop
end
%%EndProlog
mpldict begin
-414 108 translate
1440 576 0 0 clipbox
gsave
0 0 m
1440 0 l
1440 576 l
0 576 l
cl
1.000 setgray
fill
grestore
gsave
93.93 73.68 m
1026.72 73.68 l
1026.72 528.32 l
93.93 528.32 l
cl
1.000 setgray
fill
grestore
0.800 setlinewidth
1 setlinejoin
0 setlinecap
[] 0 setdash
0.000 setgray
gsave
/o {
gsave
newpath
translate
0.8 setlinewidth
1 setlinejoin
0 setlinecap
0 0 m
0 -3.5 l

gsave
0.000 setgray
fill
grestore
stroke
grestore
} bind def
136.33 73.68 o
grestore
/DejaVuSans findfont
21.000 scalefont
setfont
gsave
129.649858 50.726875 translate
0.000000 rotate
0.000000 0.000000 m /five glyphshow
grestore
gsave
/o {
gsave
newpath
translate
0.8 setlinewidth
1 setlinejoin
0 setlinecap
0 0 m
0 -3.5 l

gsave
0.000 setgray
fill
grestore
stroke
grestore
} bind def
348.327 73.68 o
grestore
gsave
334.967898 50.726875 translate
0.000000 rotate
0.000000 0.000000 m /two glyphshow
13.360840 0.000000 m /five glyphshow
grestore
gsave
/o {
gsave
newpath
translate
0.8 setlinewidth
1 setlinejoin
0 setlinecap
0 0 m
0 -3.5 l

gsave
0.000 setgray
fill
grestore
stroke
grestore
} bind def
560.325 73.68 o
grestore
gsave
546.965625 50.726875 translate
0.000000 rotate
0.000000 0.000000 m /five glyphshow
13.360840 0.000000 m /zero glyphshow
grestore
gsave
/o {
gsave
newpath
translate
0.8 setlinewidth
1 setlinejoin
0 setlinecap
0 0 m
0 -3.5 l

gsave
0.000 setgray
fill
grestore
stroke
grestore
} bind def
772.323 73.68 o
grestore
gsave
752.283665 50.726875 translate
0.000000 rotate
0.000000 0.000000 m /one glyphshow
13.360840 0.000000 m /zero glyphshow
26.721680 0.000000 m /zero glyphshow
grestore
gsave
/o {
gsave
newpath
translate
0.8 setlinewidth
1 setlinejoin
0 setlinecap
0 0 m
0 -3.5 l

gsave
0.000 setgray
fill
grestore
stroke
grestore
} bind def
984.32 73.68 o
grestore
gsave
964.281392 50.726875 translate
0.000000 rotate
0.000000 0.000000 m /two glyphshow
13.360840 0.000000 m /zero glyphshow
26.721680 0.000000 m /zero glyphshow
grestore
gsave
460.200000 26.398750 translate
0.000000 rotate
0.000000 0.000000 m /S glyphshow
13.330078 0.000000 m /a glyphshow
26.198730 0.000000 m /m glyphshow
46.655273 0.000000 m /p glyphshow
59.985352 0.000000 m /l glyphshow
65.819824 0.000000 m /i glyphshow
71.654297 0.000000 m /n glyphshow
84.963867 0.000000 m /g glyphshow
98.293945 0.000000 m /space glyphshow
104.969238 0.000000 m /N glyphshow
120.678223 0.000000 m /u glyphshow
133.987793 0.000000 m /m glyphshow
154.444336 0.000000 m /b glyphshow
167.774414 0.000000 m /e glyphshow
180.694336 0.000000 m /r glyphshow
189.328125 0.000000 m /s glyphshow
grestore
gsave
/o {
gsave
newpath
translate
0.8 setlinewidth
1 setlinejoin
0 setlinecap
0 0 m
-3.5 0 l

gsave
0.000 setgray
fill
grestore
stroke
grestore
} bind def
93.93 94.3455 o
grestore
gsave
73.570625 86.368892 translate
0.000000 rotate
0.000000 0.000000 m /zero glyphshow
grestore
gsave
/o {
gsave
newpath
translate
0.8 setlinewidth
1 setlinejoin
0 setlinecap
0 0 m
-3.5 0 l

gsave
0.000 setgray
fill
grestore
stroke
grestore
} bind def
93.93 177.007 o
grestore
gsave
60.211250 169.030710 translate
0.000000 rotate
0.000000 0.000000 m /two glyphshow
13.360840 0.000000 m /zero glyphshow
grestore
gsave
/o {
gsave
newpath
translate
0.8 setlinewidth
1 setlinejoin
0 setlinecap
0 0 m
-3.5 0 l

gsave
0.000 setgray
fill
grestore
stroke
grestore
} bind def
93.93 259.669 o
grestore
gsave
60.211250 251.692528 translate
0.000000 rotate
0.000000 0.000000 m /four glyphshow
13.360840 0.000000 m /zero glyphshow
grestore
gsave
/o {
gsave
newpath
translate
0.8 setlinewidth
1 setlinejoin
0 setlinecap
0 0 m
-3.5 0 l

gsave
0.000 setgray
fill
grestore
stroke
grestore
} bind def
93.93 342.331 o
grestore
gsave
60.211250 334.354347 translate
0.000000 rotate
0.000000 0.000000 m /six glyphshow
13.360840 0.000000 m /zero glyphshow
grestore
gsave
/o {
gsave
newpath
translate
0.8 setlinewidth
1 setlinejoin
0 setlinecap
0 0 m
-3.5 0 l

gsave
0.000 setgray
fill
grestore
stroke
grestore
} bind def
93.93 424.993 o
grestore
gsave
60.211250 417.016165 translate
0.000000 rotate
0.000000 0.000000 m /eight glyphshow
13.360840 0.000000 m /zero glyphshow
grestore
gsave
/o {
gsave
newpath
translate
0.8 setlinewidth
1 setlinejoin
0 setlinecap
0 0 m
-3.5 0 l

gsave
0.000 setgray
fill
grestore
stroke
grestore
} bind def
93.93 507.655 o
grestore
gsave
46.851875 499.677983 translate
0.000000 rotate
0.000000 0.000000 m /one glyphshow
13.360840 0.000000 m /zero glyphshow
26.721680 0.000000 m /zero glyphshow
grestore
gsave
38.476875 129.000000 translate
90.000000 rotate
0.000000 0.000000 m /P glyphshow
12.663574 0.000000 m /e glyphshow
25.583496 0.000000 m /r glyphshow
34.217285 0.000000 m /c glyphshow
45.763184 0.000000 m /e glyphshow
58.683105 0.000000 m /n glyphshow
71.992676 0.000000 m /t glyphshow
80.226562 0.000000 m /s glyphshow
91.167480 0.000000 m /space glyphshow
97.842773 0.000000 m /o glyphshow
110.690918 0.000000 m /f glyphshow
118.083984 0.000000 m /space glyphshow
124.759277 0.000000 m /D glyphshow
140.929688 0.000000 m /i glyphshow
146.764160 0.000000 m /f glyphshow
154.157227 0.000000 m /f glyphshow
161.550293 0.000000 m /e glyphshow
174.470215 0.000000 m /r glyphshow
183.104004 0.000000 m /e glyphshow
196.023926 0.000000 m /n glyphshow
209.333496 0.000000 m /t glyphshow
217.567383 0.000000 m /space glyphshow
224.242676 0.000000 m /R glyphshow
238.818359 0.000000 m /e glyphshow
251.738281 0.000000 m /s glyphshow
262.679199 0.000000 m /u glyphshow
275.988770 0.000000 m /l glyphshow
281.823242 0.000000 m /t glyphshow
290.057129 0.000000 m /s glyphshow
300.998047 0.000000 m /space glyphshow
307.673340 0.000000 m /bracketleft glyphshow
315.866211 0.000000 m /percent glyphshow
335.820312 0.000000 m /bracketright glyphshow
grestore
1.500 setlinewidth
[1.5 2.475] 0 setdash
1.000 0.000 0.000 setrgbcolor
gsave
932.8 454.6 93.93 73.68 clipbox
136.329545 319.786777 m
348.327273 94.345455 l
560.325 94.345455 l
772.322727 94.345455 l
984.320455 94.345455 l
stroke
grestore
[5.55 2.4] 0 setdash
gsave
932.8 454.6 93.93 73.68 clipbox
136.329545 507.654545 m
348.327273 94.345455 l
560.325 94.345455 l
772.322727 94.345455 l
984.320455 94.345455 l
stroke
grestore
1.000 setlinewidth
[] 0 setdash
gsave
932.8 454.6 93.93 73.68 clipbox
/o {
gsave
newpath
translate
1.0 setlinewidth
1 setlinejoin
0 setlinecap
0 -1.5 m
0.397805 -1.5 0.77937 -1.341951 1.06066 -1.06066 c
1.341951 -0.77937 1.5 -0.397805 1.5 0 c
1.5 0.397805 1.341951 0.77937 1.06066 1.06066 c
0.77937 1.341951 0.397805 1.5 0 1.5 c
-0.397805 1.5 -0.77937 1.341951 -1.06066 1.06066 c
-1.341951 0.77937 -1.5 0.397805 -1.5 0 c
-1.5 -0.397805 -1.341951 -0.77937 -1.06066 -1.06066 c
-0.77937 -1.341951 -0.397805 -1.5 0 -1.5 c
cl

gsave
1.000 0.000 0.000 setrgbcolor
fill
grestore
stroke
grestore
} bind def
136.33 507.655 o
348.327 94.3455 o
560.325 94.3455 o
772.323 94.3455 o
984.32 94.3455 o
grestore
1.500 setlinewidth
[9.6 2.4 1.5 2.4] 0 setdash
gsave
932.8 454.6 93.93 73.68 clipbox
136.329545 394.933884 m
348.327273 94.345455 l
560.325 94.345455 l
772.322727 94.345455 l
984.320455 94.345455 l
stroke
grestore
1.000 setlinewidth
2 setlinejoin
[] 0 setdash
gsave
932.8 454.6 93.93 73.68 clipbox
/o {
gsave
newpath
translate
1.0 setlinewidth
2 setlinejoin
0 setlinecap
0 3 m
-0.673542 0.927051 l
-2.85317 0.927051 l
-1.089814 -0.354102 l
-1.763356 -2.427051 l
-0 -1.145898 l
1.763356 -2.427051 l
1.089814 -0.354102 l
2.85317 0.927051 l
0.673542 0.927051 l
cl

gsave
1.000 0.000 0.000 setrgbcolor
fill
grestore
stroke
grestore
} bind def
136.33 394.934 o
348.327 94.3455 o
560.325 94.3455 o
772.323 94.3455 o
984.32 94.3455 o
grestore
1.500 setlinewidth
1 setlinejoin
[1.5 2.475] 0 setdash
0.000 0.000 1.000 setrgbcolor
gsave
932.8 454.6 93.93 73.68 clipbox
136.329545 207.066116 m
348.327273 282.213223 l
560.325 94.345455 l
772.322727 131.919008 l
984.320455 131.919008 l
stroke
grestore
[5.55 2.4] 0 setdash
gsave
932.8 454.6 93.93 73.68 clipbox
136.329545 94.345455 m
348.327273 207.066116 l
560.325 131.919008 l
772.322727 169.492562 l
984.320455 94.345455 l
stroke
grestore
1.000 setlinewidth
[] 0 setdash
gsave
932.8 454.6 93.93 73.68 clipbox
/o {
gsave
newpath
translate
1.0 setlinewidth
1 setlinejoin
0 setlinecap
0 -1.5 m
0.397805 -1.5 0.77937 -1.341951 1.06066 -1.06066 c
1.341951 -0.77937 1.5 -0.397805 1.5 0 c
1.5 0.397805 1.341951 0.77937 1.06066 1.06066 c
0.77937 1.341951 0.397805 1.5 0 1.5 c
-0.397805 1.5 -0.77937 1.341951 -1.06066 1.06066 c
-1.341951 0.77937 -1.5 0.397805 -1.5 0 c
-1.5 -0.397805 -1.341951 -0.77937 -1.06066 -1.06066 c
-0.77937 -1.341951 -0.397805 -1.5 0 -1.5 c
cl

gsave
0.000 0.000 1.000 setrgbcolor
fill
grestore
stroke
grestore
} bind def
136.33 94.3455 o
348.327 207.066 o
560.325 131.919 o
772.323 169.493 o
984.32 94.3455 o
grestore
1.500 setlinewidth
[9.6 2.4 1.5 2.4] 0 setdash
gsave
932.8 454.6 93.93 73.68 clipbox
136.329545 131.919008 m
348.327273 244.639669 l
560.325 169.492562 l
772.322727 169.492562 l
984.320455 207.066116 l
stroke
grestore
1.000 setlinewidth
2 setlinejoin
[] 0 setdash
gsave
932.8 454.6 93.93 73.68 clipbox
/o {
gsave
newpath
translate
1.0 setlinewidth
2 setlinejoin
0 setlinecap
0 3 m
-0.673542 0.927051 l
-2.85317 0.927051 l
-1.089814 -0.354102 l
-1.763356 -2.427051 l
-0 -1.145898 l
1.763356 -2.427051 l
1.089814 -0.354102 l
2.85317 0.927051 l
0.673542 0.927051 l
cl

gsave
0.000 0.000 1.000 setrgbcolor
fill
grestore
stroke
grestore
} bind def
136.33 131.919 o
348.327 244.64 o
560.325 169.493 o
772.323 169.493 o
984.32 207.066 o
grestore
1.500 setlinewidth
1 setlinejoin
[1.5 2.475] 0 setdash
0.000 0.500 0.000 setrgbcolor
gsave
932.8 454.6 93.93 73.68 clipbox
136.329545 94.345455 m
348.327273 94.345455 l
560.325 94.345455 l
772.322727 94.345455 l
984.320455 94.345455 l
stroke
grestore
[5.55 2.4] 0 setdash
gsave
932.8 454.6 93.93 73.68 clipbox
136.329545 94.345455 m
348.327273 131.919008 l
560.325 282.213223 l
772.322727 319.786777 l
984.320455 282.213223 l
stroke
grestore
1.000 setlinewidth
[] 0 setdash
gsave
932.8 454.6 93.93 73.68 clipbox
/o {
gsave
newpath
translate
1.0 setlinewidth
1 setlinejoin
0 setlinecap
0 -1.5 m
0.397805 -1.5 0.77937 -1.341951 1.06066 -1.06066 c
1.341951 -0.77937 1.5 -0.397805 1.5 0 c
1.5 0.397805 1.341951 0.77937 1.06066 1.06066 c
0.77937 1.341951 0.397805 1.5 0 1.5 c
-0.397805 1.5 -0.77937 1.341951 -1.06066 1.06066 c
-1.341951 0.77937 -1.5 0.397805 -1.5 0 c
-1.5 -0.397805 -1.341951 -0.77937 -1.06066 -1.06066 c
-0.77937 -1.341951 -0.397805 -1.5 0 -1.5 c
cl

gsave
0.000 0.500 0.000 setrgbcolor
fill
grestore
stroke
grestore
} bind def
136.33 94.3455 o
348.327 131.919 o
560.325 282.213 o
772.323 319.787 o
984.32 282.213 o
grestore
1.500 setlinewidth
[9.6 2.4 1.5 2.4] 0 setdash
gsave
932.8 454.6 93.93 73.68 clipbox
136.329545 94.345455 m
348.327273 94.345455 l
560.325 94.345455 l
772.322727 94.345455 l
984.320455 94.345455 l
stroke
grestore
1.000 setlinewidth
2 setlinejoin
[] 0 setdash
gsave
932.8 454.6 93.93 73.68 clipbox
/o {
gsave
newpath
translate
1.0 setlinewidth
2 setlinejoin
0 setlinecap
0 3 m
-0.673542 0.927051 l
-2.85317 0.927051 l
-1.089814 -0.354102 l
-1.763356 -2.427051 l
-0 -1.145898 l
1.763356 -2.427051 l
1.089814 -0.354102 l
2.85317 0.927051 l
0.673542 0.927051 l
cl

gsave
0.000 0.500 0.000 setrgbcolor
fill
grestore
stroke
grestore
} bind def
136.33 94.3455 o
348.327 94.3455 o
560.325 94.3455 o
772.323 94.3455 o
984.32 94.3455 o
grestore
1.500 setlinewidth
1 setlinejoin
[1.5 2.475] 0 setdash
0.750 0.750 0.000 setrgbcolor
gsave
932.8 454.6 93.93 73.68 clipbox
136.329545 169.492562 m
348.327273 319.786777 l
560.325 507.654545 l
772.322727 470.080992 l
984.320455 470.080992 l
stroke
grestore
[5.55 2.4] 0 setdash
gsave
932.8 454.6 93.93 73.68 clipbox
136.329545 94.345455 m
348.327273 357.360331 l
560.325 282.213223 l
772.322727 207.066116 l
984.320455 319.786777 l
stroke
grestore
1.000 setlinewidth
[] 0 setdash
gsave
932.8 454.6 93.93 73.68 clipbox
/o {
gsave
newpath
translate
1.0 setlinewidth
1 setlinejoin
0 setlinecap
0 -1.5 m
0.397805 -1.5 0.77937 -1.341951 1.06066 -1.06066 c
1.341951 -0.77937 1.5 -0.397805 1.5 0 c
1.5 0.397805 1.341951 0.77937 1.06066 1.06066 c
0.77937 1.341951 0.397805 1.5 0 1.5 c
-0.397805 1.5 -0.77937 1.341951 -1.06066 1.06066 c
-1.341951 0.77937 -1.5 0.397805 -1.5 0 c
-1.5 -0.397805 -1.341951 -0.77937 -1.06066 -1.06066 c
-0.77937 -1.341951 -0.397805 -1.5 0 -1.5 c
cl

gsave
0.750 0.750 0.000 setrgbcolor
fill
grestore
stroke
grestore
} bind def
136.33 94.3455 o
348.327 357.36 o
560.325 282.213 o
772.323 207.066 o
984.32 319.787 o
grestore
1.500 setlinewidth
[9.6 2.4 1.5 2.4] 0 setdash
gsave
932.8 454.6 93.93 73.68 clipbox
136.329545 169.492562 m
348.327273 357.360331 l
560.325 432.507438 l
772.322727 432.507438 l
984.320455 394.933884 l
stroke
grestore
1.000 setlinewidth
2 setlinejoin
[] 0 setdash
gsave
932.8 454.6 93.93 73.68 clipbox
/o {
gsave
newpath
translate
1.0 setlinewidth
2 setlinejoin
0 setlinecap
0 3 m
-0.673542 0.927051 l
-2.85317 0.927051 l
-1.089814 -0.354102 l
-1.763356 -2.427051 l
-0 -1.145898 l
1.763356 -2.427051 l
1.089814 -0.354102 l
2.85317 0.927051 l
0.673542 0.927051 l
cl

gsave
0.750 0.750 0.000 setrgbcolor
fill
grestore
stroke
grestore
} bind def
136.33 169.493 o
348.327 357.36 o
560.325 432.507 o
772.323 432.507 o
984.32 394.934 o
grestore
0.800 setlinewidth
0 setlinejoin
2 setlinecap
[] 0 setdash
0.000 setgray
gsave
93.93 73.68 m
93.93 528.32 l
stroke
grestore
gsave
1026.72 73.68 m
1026.72 528.32 l
stroke
grestore
gsave
93.93 73.68 m
1026.72 73.68 l
stroke
grestore
gsave
93.93 528.32 m
1026.72 528.32 l
stroke
grestore
/DejaVuSans findfont
25.200 scalefont
setfont
gsave
98.262500 534.320000 translate
0.000000 rotate
0.000000 0.000000 m /C glyphshow
17.586975 0.000000 m /o glyphshow
32.997101 0.000000 m /m glyphshow
57.532776 0.000000 m /p glyphshow
73.520935 0.000000 m /a glyphshow
88.955658 0.000000 m /r glyphshow
99.311066 0.000000 m /i glyphshow
106.308960 0.000000 m /s glyphshow
119.431549 0.000000 m /o glyphshow
134.841675 0.000000 m /n glyphshow
150.805237 0.000000 m /space glyphshow
158.811615 0.000000 m /o glyphshow
174.221741 0.000000 m /f glyphshow
183.089020 0.000000 m /space glyphshow
191.095398 0.000000 m /D glyphshow
210.490265 0.000000 m /i glyphshow
217.488159 0.000000 m /f glyphshow
226.355438 0.000000 m /f glyphshow
235.222717 0.000000 m /e glyphshow
250.718933 0.000000 m /r glyphshow
261.074341 0.000000 m /e glyphshow
276.570557 0.000000 m /n glyphshow
292.534119 0.000000 m /t glyphshow
302.409882 0.000000 m /space glyphshow
310.416260 0.000000 m /S glyphshow
326.404419 0.000000 m /a glyphshow
341.839142 0.000000 m /m glyphshow
366.374817 0.000000 m /p glyphshow
382.362976 0.000000 m /l glyphshow
389.360870 0.000000 m /i glyphshow
396.358765 0.000000 m /n glyphshow
412.322327 0.000000 m /g glyphshow
428.310486 0.000000 m /space glyphshow
436.316864 0.000000 m /N glyphshow
455.158295 0.000000 m /u glyphshow
471.121857 0.000000 m /m glyphshow
495.657532 0.000000 m /b glyphshow
511.645691 0.000000 m /e glyphshow
527.141907 0.000000 m /r glyphshow
537.497314 0.000000 m /s glyphshow
550.619904 0.000000 m /space glyphshow
558.626282 0.000000 m /u glyphshow
574.589844 0.000000 m /n glyphshow
590.553406 0.000000 m /d glyphshow
606.541565 0.000000 m /e glyphshow
622.037781 0.000000 m /r glyphshow
632.393188 0.000000 m /space glyphshow
640.399567 0.000000 m /D glyphshow
659.794434 0.000000 m /i glyphshow
666.792328 0.000000 m /f glyphshow
675.659607 0.000000 m /f glyphshow
684.526886 0.000000 m /e glyphshow
700.023102 0.000000 m /r glyphshow
710.378510 0.000000 m /e glyphshow
725.874725 0.000000 m /n glyphshow
741.838287 0.000000 m /t glyphshow
751.714050 0.000000 m /space glyphshow
759.720428 0.000000 m /W glyphshow
784.625061 0.000000 m /i glyphshow
791.622955 0.000000 m /n glyphshow
807.586517 0.000000 m /d glyphshow
823.574677 0.000000 m /space glyphshow
831.581055 0.000000 m /F glyphshow
846.037537 0.000000 m /a glyphshow
861.472260 0.000000 m /c glyphshow
875.320465 0.000000 m /t glyphshow
885.196228 0.000000 m /o glyphshow
900.606354 0.000000 m /r glyphshow
910.961761 0.000000 m /s glyphshow
grestore
1.000 setlinewidth
0 setlinecap
0.800 setgray
gsave
1057.57775 152.0825 m
1348.9965 152.0825 l
1351.7965 152.0825 1353.1965 153.4825 1353.1965 156.2825 c
1353.1965 524.12 l
1353.1965 526.92 1351.7965 528.32 1348.9965 528.32 c
1057.57775 528.32 l
1054.77775 528.32 1053.37775 526.92 1053.37775 524.12 c
1053.37775 156.2825 l
1053.37775 153.4825 1054.77775 152.0825 1057.57775 152.0825 c
cl
gsave
1.000 setgray
fill
grestore
stroke
grestore
1.500 setlinewidth
1 setlinejoin
[1.5 2.475] 0 setdash
1.000 0.000 0.000 setrgbcolor
gsave
1061.77775 511.316875 m
1103.77775 511.316875 l
stroke
grestore
0.000 setgray
/DejaVuSans findfont
21.000 scalefont
setfont
gsave
1120.577750 503.966875 translate
0.000000 rotate
0.000000 0.000000 m /F glyphshow
12.063477 0.000000 m /a glyphshow
24.932129 0.000000 m /i glyphshow
30.766602 0.000000 m /l glyphshow
36.601074 0.000000 m /e glyphshow
49.520996 0.000000 m /d glyphshow
62.851074 0.000000 m /comma glyphshow
69.526367 0.000000 m /space glyphshow
76.201660 0.000000 m /N glyphshow
91.910645 0.000000 m /o glyphshow
104.758789 0.000000 m /space glyphshow
111.434082 0.000000 m /W glyphshow
132.198242 0.000000 m /i glyphshow
138.032715 0.000000 m /n glyphshow
151.342285 0.000000 m /d glyphshow
grestore
[5.55 2.4] 0 setdash
1.000 0.000 0.000 setrgbcolor
gsave
1061.77775 480.48875 m
1103.77775 480.48875 l
stroke
grestore
1.000 setlinewidth
[] 0 setdash
gsave
/o {
gsave
newpath
translate
1.0 setlinewidth
1 setlinejoin
0 setlinecap
0 -1.5 m
0.397805 -1.5 0.77937 -1.341951 1.06066 -1.06066 c
1.341951 -0.77937 1.5 -0.397805 1.5 0 c
1.5 0.397805 1.341951 0.77937 1.06066 1.06066 c
0.77937 1.341951 0.397805 1.5 0 1.5 c
-0.397805 1.5 -0.77937 1.341951 -1.06066 1.06066 c
-1.341951 0.77937 -1.5 0.397805 -1.5 0 c
-1.5 -0.397805 -1.341951 -0.77937 -1.06066 -1.06066 c
-0.77937 -1.341951 -0.397805 -1.5 0 -1.5 c
cl

gsave
1.000 0.000 0.000 setrgbcolor
fill
grestore
stroke
grestore
} bind def
1082.78 480.489 o
grestore
0.000 setgray
gsave
1120.577750 473.138750 translate
0.000000 rotate
0.000000 0.000000 m /F glyphshow
12.063477 0.000000 m /a glyphshow
24.932129 0.000000 m /i glyphshow
30.766602 0.000000 m /l glyphshow
36.601074 0.000000 m /e glyphshow
49.520996 0.000000 m /d glyphshow
62.851074 0.000000 m /comma glyphshow
69.526367 0.000000 m /space glyphshow
76.201660 0.000000 m /N glyphshow
91.910645 0.000000 m /o glyphshow
104.758789 0.000000 m /space glyphshow
111.434082 0.000000 m /M glyphshow
129.552734 0.000000 m /o glyphshow
142.400879 0.000000 m /d glyphshow
155.730957 0.000000 m /e glyphshow
168.650879 0.000000 m /l glyphshow
grestore
1.500 setlinewidth
[9.6 2.4 1.5 2.4] 0 setdash
1.000 0.000 0.000 setrgbcolor
gsave
1061.77775 449.660625 m
1103.77775 449.660625 l
stroke
grestore
1.000 setlinewidth
2 setlinejoin
[] 0 setdash
gsave
/o {
gsave
newpath
translate
1.0 setlinewidth
2 setlinejoin
0 setlinecap
0 3 m
-0.673542 0.927051 l
-2.85317 0.927051 l
-1.089814 -0.354102 l
-1.763356 -2.427051 l
-0 -1.145898 l
1.763356 -2.427051 l
1.089814 -0.354102 l
2.85317 0.927051 l
0.673542 0.927051 l
cl

gsave
1.000 0.000 0.000 setrgbcolor
fill
grestore
stroke
grestore
} bind def
1082.78 449.661 o
grestore
0.000 setgray
gsave
1120.577750 442.310625 translate
0.000000 rotate
0.000000 0.000000 m /F glyphshow
12.063477 0.000000 m /a glyphshow
24.932129 0.000000 m /i glyphshow
30.766602 0.000000 m /l glyphshow
36.601074 0.000000 m /e glyphshow
49.520996 0.000000 m /d glyphshow
62.851074 0.000000 m /comma glyphshow
69.526367 0.000000 m /space glyphshow
76.201660 0.000000 m /W glyphshow
96.965820 0.000000 m /i glyphshow
102.800293 0.000000 m /n glyphshow
116.109863 0.000000 m /d glyphshow
129.439941 0.000000 m /space glyphshow
136.115234 0.000000 m /M glyphshow
154.233887 0.000000 m /o glyphshow
167.082031 0.000000 m /d glyphshow
180.412109 0.000000 m /e glyphshow
193.332031 0.000000 m /l glyphshow
grestore
1.500 setlinewidth
1 setlinejoin
[1.5 2.475] 0 setdash
0.000 0.000 1.000 setrgbcolor
gsave
1061.77775 418.8325 m
1103.77775 418.8325 l
stroke
grestore
0.000 setgray
gsave
1120.577750 411.482500 translate
0.000000 rotate
0.000000 0.000000 m /M glyphshow
18.118652 0.000000 m /i glyphshow
23.953125 0.000000 m /s glyphshow
34.894043 0.000000 m /s glyphshow
45.834961 0.000000 m /e glyphshow
58.754883 0.000000 m /d glyphshow
72.084961 0.000000 m /comma glyphshow
78.760254 0.000000 m /space glyphshow
85.435547 0.000000 m /N glyphshow
101.144531 0.000000 m /o glyphshow
113.992676 0.000000 m /space glyphshow
120.667969 0.000000 m /W glyphshow
141.432129 0.000000 m /i glyphshow
147.266602 0.000000 m /n glyphshow
160.576172 0.000000 m /d glyphshow
grestore
[5.55 2.4] 0 setdash
0.000 0.000 1.000 setrgbcolor
gsave
1061.77775 388.004375 m
1103.77775 388.004375 l
stroke
grestore
1.000 setlinewidth
[] 0 setdash
gsave
/o {
gsave
newpath
translate
1.0 setlinewidth
1 setlinejoin
0 setlinecap
0 -1.5 m
0.397805 -1.5 0.77937 -1.341951 1.06066 -1.06066 c
1.341951 -0.77937 1.5 -0.397805 1.5 0 c
1.5 0.397805 1.341951 0.77937 1.06066 1.06066 c
0.77937 1.341951 0.397805 1.5 0 1.5 c
-0.397805 1.5 -0.77937 1.341951 -1.06066 1.06066 c
-1.341951 0.77937 -1.5 0.397805 -1.5 0 c
-1.5 -0.397805 -1.341951 -0.77937 -1.06066 -1.06066 c
-0.77937 -1.341951 -0.397805 -1.5 0 -1.5 c
cl

gsave
0.000 0.000 1.000 setrgbcolor
fill
grestore
stroke
grestore
} bind def
1082.78 388.004 o
grestore
0.000 setgray
gsave
1120.577750 380.654375 translate
0.000000 rotate
0.000000 0.000000 m /M glyphshow
18.118652 0.000000 m /i glyphshow
23.953125 0.000000 m /s glyphshow
34.894043 0.000000 m /s glyphshow
45.834961 0.000000 m /e glyphshow
58.754883 0.000000 m /d glyphshow
72.084961 0.000000 m /comma glyphshow
78.760254 0.000000 m /space glyphshow
85.435547 0.000000 m /N glyphshow
101.144531 0.000000 m /o glyphshow
113.992676 0.000000 m /space glyphshow
120.667969 0.000000 m /M glyphshow
138.786621 0.000000 m /o glyphshow
151.634766 0.000000 m /d glyphshow
164.964844 0.000000 m /e glyphshow
177.884766 0.000000 m /l glyphshow
grestore
1.500 setlinewidth
[9.6 2.4 1.5 2.4] 0 setdash
0.000 0.000 1.000 setrgbcolor
gsave
1061.77775 357.17625 m
1103.77775 357.17625 l
stroke
grestore
1.000 setlinewidth
2 setlinejoin
[] 0 setdash
gsave
/o {
gsave
newpath
translate
1.0 setlinewidth
2 setlinejoin
0 setlinecap
0 3 m
-0.673542 0.927051 l
-2.85317 0.927051 l
-1.089814 -0.354102 l
-1.763356 -2.427051 l
-0 -1.145898 l
1.763356 -2.427051 l
1.089814 -0.354102 l
2.85317 0.927051 l
0.673542 0.927051 l
cl

gsave
0.000 0.000 1.000 setrgbcolor
fill
grestore
stroke
grestore
} bind def
1082.78 357.176 o
grestore
0.000 setgray
gsave
1120.577750 349.826250 translate
0.000000 rotate
0.000000 0.000000 m /M glyphshow
18.118652 0.000000 m /i glyphshow
23.953125 0.000000 m /s glyphshow
34.894043 0.000000 m /s glyphshow
45.834961 0.000000 m /e glyphshow
58.754883 0.000000 m /d glyphshow
72.084961 0.000000 m /comma glyphshow
78.760254 0.000000 m /space glyphshow
85.435547 0.000000 m /W glyphshow
106.199707 0.000000 m /i glyphshow
112.034180 0.000000 m /n glyphshow
125.343750 0.000000 m /d glyphshow
138.673828 0.000000 m /space glyphshow
145.349121 0.000000 m /M glyphshow
163.467773 0.000000 m /o glyphshow
176.315918 0.000000 m /d glyphshow
189.645996 0.000000 m /e glyphshow
202.565918 0.000000 m /l glyphshow
grestore
1.500 setlinewidth
1 setlinejoin
[1.5 2.475] 0 setdash
0.000 0.500 0.000 setrgbcolor
gsave
1061.77775 326.348125 m
1103.77775 326.348125 l
stroke
grestore
0.000 setgray
gsave
1120.577750 318.998125 translate
0.000000 rotate
0.000000 0.000000 m /C glyphshow
14.663086 0.000000 m /o glyphshow
27.511230 0.000000 m /l glyphshow
33.345703 0.000000 m /l glyphshow
39.180176 0.000000 m /i glyphshow
45.014648 0.000000 m /s glyphshow
55.955566 0.000000 m /i glyphshow
61.790039 0.000000 m /o glyphshow
74.638184 0.000000 m /n glyphshow
87.947754 0.000000 m /comma glyphshow
94.623047 0.000000 m /space glyphshow
101.298340 0.000000 m /N glyphshow
117.007324 0.000000 m /o glyphshow
129.855469 0.000000 m /space glyphshow
136.530762 0.000000 m /W glyphshow
157.294922 0.000000 m /i glyphshow
163.129395 0.000000 m /n glyphshow
176.438965 0.000000 m /d glyphshow
grestore
[5.55 2.4] 0 setdash
0.000 0.500 0.000 setrgbcolor
gsave
1061.77775 295.52 m
1103.77775 295.52 l
stroke
grestore
1.000 setlinewidth
[] 0 setdash
gsave
/o {
gsave
newpath
translate
1.0 setlinewidth
1 setlinejoin
0 setlinecap
0 -1.5 m
0.397805 -1.5 0.77937 -1.341951 1.06066 -1.06066 c
1.341951 -0.77937 1.5 -0.397805 1.5 0 c
1.5 0.397805 1.341951 0.77937 1.06066 1.06066 c
0.77937 1.341951 0.397805 1.5 0 1.5 c
-0.397805 1.5 -0.77937 1.341951 -1.06066 1.06066 c
-1.341951 0.77937 -1.5 0.397805 -1.5 0 c
-1.5 -0.397805 -1.341951 -0.77937 -1.06066 -1.06066 c
-0.77937 -1.341951 -0.397805 -1.5 0 -1.5 c
cl

gsave
0.000 0.500 0.000 setrgbcolor
fill
grestore
stroke
grestore
} bind def
1082.78 295.52 o
grestore
0.000 setgray
gsave
1120.577750 288.170000 translate
0.000000 rotate
0.000000 0.000000 m /C glyphshow
14.663086 0.000000 m /o glyphshow
27.511230 0.000000 m /l glyphshow
33.345703 0.000000 m /l glyphshow
39.180176 0.000000 m /i glyphshow
45.014648 0.000000 m /s glyphshow
55.955566 0.000000 m /i glyphshow
61.790039 0.000000 m /o glyphshow
74.638184 0.000000 m /n glyphshow
87.947754 0.000000 m /comma glyphshow
94.623047 0.000000 m /space glyphshow
101.298340 0.000000 m /N glyphshow
117.007324 0.000000 m /o glyphshow
129.855469 0.000000 m /space glyphshow
136.530762 0.000000 m /M glyphshow
154.649414 0.000000 m /o glyphshow
167.497559 0.000000 m /d glyphshow
180.827637 0.000000 m /e glyphshow
193.747559 0.000000 m /l glyphshow
grestore
1.500 setlinewidth
[9.6 2.4 1.5 2.4] 0 setdash
0.000 0.500 0.000 setrgbcolor
gsave
1061.77775 264.691875 m
1103.77775 264.691875 l
stroke
grestore
1.000 setlinewidth
2 setlinejoin
[] 0 setdash
gsave
/o {
gsave
newpath
translate
1.0 setlinewidth
2 setlinejoin
0 setlinecap
0 3 m
-0.673542 0.927051 l
-2.85317 0.927051 l
-1.089814 -0.354102 l
-1.763356 -2.427051 l
-0 -1.145898 l
1.763356 -2.427051 l
1.089814 -0.354102 l
2.85317 0.927051 l
0.673542 0.927051 l
cl

gsave
0.000 0.500 0.000 setrgbcolor
fill
grestore
stroke
grestore
} bind def
1082.78 264.692 o
grestore
0.000 setgray
gsave
1120.577750 257.341875 translate
0.000000 rotate
0.000000 0.000000 m /C glyphshow
14.663086 0.000000 m /o glyphshow
27.511230 0.000000 m /l glyphshow
33.345703 0.000000 m /l glyphshow
39.180176 0.000000 m /i glyphshow
45.014648 0.000000 m /s glyphshow
55.955566 0.000000 m /i glyphshow
61.790039 0.000000 m /o glyphshow
74.638184 0.000000 m /n glyphshow
87.947754 0.000000 m /comma glyphshow
94.623047 0.000000 m /space glyphshow
101.298340 0.000000 m /W glyphshow
122.062500 0.000000 m /i glyphshow
127.896973 0.000000 m /n glyphshow
141.206543 0.000000 m /d glyphshow
154.536621 0.000000 m /space glyphshow
161.211914 0.000000 m /M glyphshow
179.330566 0.000000 m /o glyphshow
192.178711 0.000000 m /d glyphshow
205.508789 0.000000 m /e glyphshow
218.428711 0.000000 m /l glyphshow
grestore
1.500 setlinewidth
1 setlinejoin
[1.5 2.475] 0 setdash
0.750 0.750 0.000 setrgbcolor
gsave
1061.77775 233.86375 m
1103.77775 233.86375 l
stroke
grestore
0.000 setgray
gsave
1120.577750 226.513750 translate
0.000000 rotate
0.000000 0.000000 m /C glyphshow
14.663086 0.000000 m /r glyphshow
23.296875 0.000000 m /o glyphshow
36.145020 0.000000 m /s glyphshow
47.085938 0.000000 m /s glyphshow
58.026855 0.000000 m /e glyphshow
70.946777 0.000000 m /d glyphshow
84.276855 0.000000 m /comma glyphshow
90.952148 0.000000 m /space glyphshow
97.627441 0.000000 m /N glyphshow
113.336426 0.000000 m /o glyphshow
126.184570 0.000000 m /space glyphshow
132.859863 0.000000 m /W glyphshow
153.624023 0.000000 m /i glyphshow
159.458496 0.000000 m /n glyphshow
172.768066 0.000000 m /d glyphshow
grestore
[5.55 2.4] 0 setdash
0.750 0.750 0.000 setrgbcolor
gsave
1061.77775 203.035625 m
1103.77775 203.035625 l
stroke
grestore
1.000 setlinewidth
[] 0 setdash
gsave
/o {
gsave
newpath
translate
1.0 setlinewidth
1 setlinejoin
0 setlinecap
0 -1.5 m
0.397805 -1.5 0.77937 -1.341951 1.06066 -1.06066 c
1.341951 -0.77937 1.5 -0.397805 1.5 0 c
1.5 0.397805 1.341951 0.77937 1.06066 1.06066 c
0.77937 1.341951 0.397805 1.5 0 1.5 c
-0.397805 1.5 -0.77937 1.341951 -1.06066 1.06066 c
-1.341951 0.77937 -1.5 0.397805 -1.5 0 c
-1.5 -0.397805 -1.341951 -0.77937 -1.06066 -1.06066 c
-0.77937 -1.341951 -0.397805 -1.5 0 -1.5 c
cl

gsave
0.750 0.750 0.000 setrgbcolor
fill
grestore
stroke
grestore
} bind def
1082.78 203.036 o
grestore
0.000 setgray
gsave
1120.577750 195.685625 translate
0.000000 rotate
0.000000 0.000000 m /C glyphshow
14.663086 0.000000 m /r glyphshow
23.296875 0.000000 m /o glyphshow
36.145020 0.000000 m /s glyphshow
47.085938 0.000000 m /s glyphshow
58.026855 0.000000 m /e glyphshow
70.946777 0.000000 m /d glyphshow
84.276855 0.000000 m /comma glyphshow
90.952148 0.000000 m /space glyphshow
97.627441 0.000000 m /N glyphshow
113.336426 0.000000 m /o glyphshow
126.184570 0.000000 m /space glyphshow
132.859863 0.000000 m /M glyphshow
150.978516 0.000000 m /o glyphshow
163.826660 0.000000 m /d glyphshow
177.156738 0.000000 m /e glyphshow
190.076660 0.000000 m /l glyphshow
grestore
1.500 setlinewidth
[9.6 2.4 1.5 2.4] 0 setdash
0.750 0.750 0.000 setrgbcolor
gsave
1061.77775 172.2075 m
1103.77775 172.2075 l
stroke
grestore
1.000 setlinewidth
2 setlinejoin
[] 0 setdash
gsave
/o {
gsave
newpath
translate
1.0 setlinewidth
2 setlinejoin
0 setlinecap
0 3 m
-0.673542 0.927051 l
-2.85317 0.927051 l
-1.089814 -0.354102 l
-1.763356 -2.427051 l
-0 -1.145898 l
1.763356 -2.427051 l
1.089814 -0.354102 l
2.85317 0.927051 l
0.673542 0.927051 l
cl

gsave
0.750 0.750 0.000 setrgbcolor
fill
grestore
stroke
grestore
} bind def
1082.78 172.208 o
grestore
0.000 setgray
gsave
1120.577750 164.857500 translate
0.000000 rotate
0.000000 0.000000 m /C glyphshow
14.663086 0.000000 m /r glyphshow
23.296875 0.000000 m /o glyphshow
36.145020 0.000000 m /s glyphshow
47.085938 0.000000 m /s glyphshow
58.026855 0.000000 m /e glyphshow
70.946777 0.000000 m /d glyphshow
84.276855 0.000000 m /comma glyphshow
90.952148 0.000000 m /space glyphshow
97.627441 0.000000 m /W glyphshow
118.391602 0.000000 m /i glyphshow
124.226074 0.000000 m /n glyphshow
137.535645 0.000000 m /d glyphshow
150.865723 0.000000 m /space glyphshow
157.541016 0.000000 m /M glyphshow
175.659668 0.000000 m /o glyphshow
188.507812 0.000000 m /d glyphshow
201.837891 0.000000 m /e glyphshow
214.757812 0.000000 m /l glyphshow
grestore

end
showpage
